"","algorithm","k","dataset","coverage.95","coverage.99"
"1","DSTree",25,"synthetic",0.9158875,0.9270875
"2","DSTree",25,"seismic",0.9053875,0.92035
"3","DSTree",25,"sald",0.9114625,0.92755
"4","DSTree",25,"deep1b",0.911075000000001,0.925525000000001
"5","DSTree",50,"synthetic",0.9324625,0.962175
"6","DSTree",50,"seismic",0.9306875,0.9601875
"7","DSTree",50,"sald",0.931825,0.96395
"8","DSTree",50,"deep1b",0.9319625,0.9591125
"9","DSTree",100,"synthetic",0.9435375,0.981075
"10","DSTree",100,"seismic",0.943087499999999,0.979862500000001
"11","DSTree",100,"sald",0.941837500000001,0.980000000000001
"12","DSTree",100,"deep1b",0.9399875,0.981712500000001
"13","DSTree",200,"synthetic",0.945925000000001,0.983837500000001
"14","DSTree",200,"seismic",0.946525,0.985725000000002
"15","DSTree",200,"sald",0.94585,0.985262500000001
"16","DSTree",200,"deep1b",0.947800000000001,0.985362500000001
"17","iSAX",25,"synthetic",0.905575,0.9153375
"18","iSAX",25,"seismic",0.9198125,0.926487499999999
"19","iSAX",25,"sald",0.911525000000001,0.929325000000001
"20","iSAX",25,"deep1b",0.9081125,0.9227875
"21","iSAX",50,"synthetic",0.9292625,0.962937500000001
"22","iSAX",50,"seismic",0.9313,0.96025
"23","iSAX",50,"sald",0.931600000000001,0.9605
"24","iSAX",50,"deep1b",0.930175,0.958612500000001
"25","iSAX",100,"synthetic",0.939,0.978200000000001
"26","iSAX",100,"seismic",0.9429875,0.980725000000001
"27","iSAX",100,"sald",0.9379125,0.978250000000001
"28","iSAX",100,"deep1b",0.9433,0.981212500000001
"29","iSAX",200,"synthetic",0.942675,0.984362500000001
"30","iSAX",200,"seismic",0.9465875,0.985337500000001
"31","iSAX",200,"sald",0.9474625,0.985437500000002
"32","iSAX",200,"deep1b",0.945225,0.984950000000001
