dataset,size,numWit,numBins,level,width,coverage,bestExp,method
1.synthetic,10000,500,1000,0.950000,2.730717,0.415750000000000,adaptive,GNAT
1.synthetic,50000,500,1000,0.950000,2.123848,0.338150000000000,adaptive,GNAT
1.synthetic,100000,500,1000,0.950000,1.878070,0.327250000000000,adaptive,GNAT
2.seismic,10000,500,1000,0.950000,7.543548,0.377100000000000,adaptive,GNAT
2.seismic,50000,500,1000,0.950000,5.601620,0.251750000000000,adaptive,GNAT
2.seismic,100000,500,1000,0.950000,4.934563,0.206300000000000,adaptive,GNAT
3.sald,10000,500,1000,0.950000,3.891727,0.550750000000000,adaptive,GNAT
3.sald,50000,500,1000,0.950000,3.730259,0.519900000000000,adaptive,GNAT
3.sald,100000,500,1000,0.950000,3.718700,0.495950000000000,adaptive,GNAT
4.deep1b,10000,500,1000,0.950000,4.004109,0.722300000000000,adaptive,GNAT
4.deep1b,50000,500,1000,0.950000,4.179659,0.586000000000000,3,GNAT
4.deep1b,100000,500,1000,0.950000,4.051536,0.472250000000000,adaptive,GNAT
