"","Nr","dataset","time","coverage.95","coverage.99","range.95","range.99","rmse"
"1",25,"seismic",0,0.968538650368218,0.983668152898151,2.13688139850439,2.53193470262983,0.569337606556469
"2",25,"seismic",1,0.968538650368218,0.983668152898151,2.1368813958198,2.53193469964737,0.569337625184951
"3",25,"seismic",2,0.96669671474359,0.983423477564103,1.87282659785905,2.21586022290345,0.516925210092039
"4",25,"seismic",3,0.967524971138885,0.982432364603724,1.62148623140071,1.9358271231896,0.476259958313738
"5",25,"seismic",4,0.968748419721871,0.982098609355247,1.43881242994522,1.71994074392083,0.436393344111681
"6",25,"seismic",5,0.96844597724816,0.981417614660009,1.26577486190516,1.52266082173889,0.395708793750382
"7",25,"seismic",6,0.967349314706038,0.979785151082182,1.12787896031761,1.35933251270263,0.360313324004541
"8",25,"seismic",7,0.968368357355045,0.981901199251843,1.00951236731118,1.22109757774304,0.328687575160566
"9",25,"seismic",8,0.96422893481717,0.975357710651828,0.903661163953654,1.09908390515416,0.298565641914418
"10",25,"seismic",9,0.965707505191338,0.976149510531,0.798867495018814,0.973484381044653,0.255553621536559
"11",25,"seismic",10,0.962760400663676,0.973883119277331,0.680264949264981,0.839865944622617,0.22088304320786
"12",25,"seismic",11,0.965788286837188,0.973906320469042,0.44152652589724,0.566264535618183,0.153242937179406
"13",25,"seismic",12,0.990942153297193,0.991628353804982,0.222656029590005,0.255814676068101,0.0569385520655631
"14",25,"sald",0,0.932719263115739,0.962104525430517,1.25351950407051,1.59636728558715,0.495953864188449
"15",25,"sald",1,0.932472491584183,0.961965532834246,1.25772358154,1.60173074056916,0.496858954462265
"16",25,"sald",2,0.932967641286297,0.956972472447285,0.883746288426429,1.15829335610798,0.362440658230334
"17",25,"sald",3,0.933767808426796,0.951348893604122,0.642534291320144,0.846283339356311,0.287412173360311
"18",25,"sald",4,0.940844927389052,0.954351579161166,0.430150455435574,0.576155584233534,0.205372215009779
"19",25,"sald",5,0.948623567836591,0.958421898491368,0.336087110810049,0.444455145793491,0.170012665788924
"20",25,"sald",6,0.959038097811402,0.964820318832748,0.231809254649417,0.290101060301568,0.114065245338902
"21",25,"sald",7,0.967443474238131,0.969814375758978,0.193582509959742,0.233829079539414,0.096937677624729
"22",25,"sald",8,0.974795905144486,0.977387585849423,0.139325949656458,0.148990093737715,0.0560318802511148
"23",25,"sald",9,0.980251752468531,0.981683877289515,0.128280063103139,0.134929383393127,0.0423566024933618
"24",25,"sald",10,0.987874121836204,0.988451544605909,0.125793745200281,0.131000073936708,0.0335304767359175
"25",25,"sald",11,0.992418196328811,0.9926842245278,0.124135006281425,0.127512132058828,0.0277481907506284
"26",25,"sald",12,1,1,0.121339425807902,0.124814917000791,0.0178778550343402
"27",25,"deep1b",0,0.934034560480841,0.961382419233659,2.13585986738721,2.7399048211787,0.787883561164121
"28",25,"deep1b",1,0.934052156469408,0.961334002006018,2.1384164957966,2.74320239209704,0.788377216332027
"29",25,"deep1b",2,0.934347236861918,0.958992119660694,1.65085681822447,2.16118219317348,0.678985711986224
"30",25,"deep1b",3,0.941781681304893,0.964215809284818,1.30617358661925,1.72967669152081,0.545005857733419
"31",25,"deep1b",4,0.943743401538384,0.964255190789804,1.04624636125688,1.37652118651674,0.414130930704327
"32",25,"deep1b",5,0.944766416368493,0.964319911303734,0.707956690945854,0.911232265877798,0.288746546365694
"33",25,"deep1b",6,0.935863147802392,0.955442297017712,0.520506530071978,0.682849075028306,0.250140758394256
"34",25,"deep1b",7,0.946160858995138,0.962773500810373,0.401289561855885,0.533862117078972,0.196452007662569
"35",25,"deep1b",8,0.953733766233766,0.967126623376623,0.285794703699021,0.38224174703533,0.14311667633871
"36",25,"deep1b",9,0.957879189161658,0.968065600488948,0.192609027614685,0.262694826592532,0.0983317052202371
"37",25,"deep1b",10,0.975790766711025,0.979475893131334,0.11209403426754,0.146928307390152,0.0453880487747319
"38",25,"deep1b",11,0.990780513357779,0.991723415400733,0.0806586140001849,0.0903966245252545,0.0225557910444341
"39",25,"deep1b",12,1,1,0.0731160347447969,0.0752577814332096,0.0102991285766761
"40",25,"synthetic",0,0.93856176396893,0.966324229516412,0.54477031322769,0.665357022818408,0.21114794536547
"41",25,"synthetic",1,0.93856176396893,0.966324229516412,0.544770330360963,0.66535704300103,0.211147951903145
"42",25,"synthetic",2,0.930218568277522,0.954481652295969,0.377485727966574,0.472611468237677,0.154955422281998
"43",25,"synthetic",3,0.933684210526316,0.954636591478697,0.259210808098539,0.332977120915623,0.110035206513732
"44",25,"synthetic",4,0.955283737718067,0.965159414477642,0.157798447918907,0.203246117341907,0.0702094244939464
"45",25,"synthetic",5,0.975035091237217,0.977290956486866,0.103464453940357,0.123620087176234,0.0398150128378876
"46",25,"synthetic",6,0.992633056028866,0.992933747619525,0.0923054435682861,0.10125742852775,0.0277242981128188
"47",25,"synthetic",7,1,1,0.0882918229561786,0.0908834442462889,0.012470521506319
"48",25,"synthetic",8,1,1,0.0878768354905129,0.0903565613721457,0.0125384840964382
"49",25,"synthetic",9,1,1,0.0877221923021308,0.0902079874675402,0.0125307082252527
"50",25,"synthetic",10,1,1,0.0884703994987571,0.090872648843424,0.0129081325502887
"51",25,"synthetic",11,1,1,0.0897596520996144,0.0923350309976467,0.0133620967725863
"52",25,"synthetic",12,1,1,0.0919240203092671,0.0939964487715229,0.0165710761776415
"53",50,"seismic",0,0.963661844937184,0.983632814455178,2.01454073726674,2.44145398282474,0.552132954780385
"54",50,"seismic",1,0.963661844937184,0.983632814455178,2.01454073759885,2.44145398170589,0.552132956696459
"55",50,"seismic",2,0.966765103358527,0.986335652435057,1.78067164924292,2.17197193861846,0.497416833762532
"56",50,"seismic",3,0.971110442371351,0.98896579396128,1.58868523602434,1.94592986041763,0.459223710128576
"57",50,"seismic",4,0.973123168636961,0.989188643023138,1.40426813944574,1.74370079231481,0.421955289748217
"58",50,"seismic",5,0.973042362002567,0.988806161745828,1.24821192566671,1.56152614958322,0.381106414785889
"59",50,"seismic",6,0.973805122788487,0.98806443094798,1.12758889836841,1.42887987234491,0.347695884030969
"60",50,"seismic",7,0.974875198858961,0.988589609962148,1.00337507907559,1.27242302716616,0.318608917135553
"61",50,"seismic",8,0.971030103747378,0.986620556720903,0.906652218825414,1.19208292794553,0.290513907510753
"62",50,"seismic",9,0.967282227896206,0.984205213467134,0.781358777435254,1.07476191098803,0.253360760326919
"63",50,"seismic",10,0.966979385261079,0.98339711146772,0.674429297050301,0.948865690000178,0.219104621454037
"64",50,"seismic",11,0.964431486880466,0.978166504697117,0.381204146221841,0.601849032892694,0.149175471024943
"65",50,"seismic",12,0.991055332131466,0.99195673276938,0.193654587361923,0.239286239193296,0.0510966429325714
"66",50,"sald",0,0.948608887109688,0.97543034427542,1.30100924739621,1.6854650050718,0.47732010249961
"67",50,"sald",1,0.948430831031886,0.975345217172985,1.30506799984441,1.69068417861834,0.478145520396847
"68",50,"sald",2,0.951736966467246,0.972650947664773,0.908646594775737,1.23648637502644,0.352386642624272
"69",50,"sald",3,0.948764498234997,0.971205244578921,0.681102745255493,0.964014687681548,0.280274507432892
"70",50,"sald",4,0.954291801948052,0.970982142857143,0.459241960150598,0.661099118015218,0.199628629354185
"71",50,"sald",5,0.961647947828787,0.97303452202267,0.35080269401943,0.502286241120284,0.16577396001288
"72",50,"sald",6,0.968444253306096,0.977099236641221,0.250228101466516,0.341093394205894,0.116179863441868
"73",50,"sald",7,0.973710002882675,0.979302392620352,0.206794402612536,0.270944910128067,0.0974820548123638
"74",50,"sald",8,0.975978876867594,0.980744461617723,0.137276654983729,0.149268927337435,0.0570563305745452
"75",50,"sald",9,0.980674157303371,0.983295880149813,0.123358218848277,0.130695729708863,0.0401829081099837
"76",50,"sald",10,0.984151086647053,0.985289930720319,0.121182148811912,0.125412000845214,0.0352887919594257
"77",50,"sald",11,0.99211356466877,0.992507886435331,0.12000936215021,0.124065890007984,0.0276627175790157
"78",50,"sald",12,1,1,0.119053860144001,0.122361730407876,0.0167798040763123
"79",50,"deep1b",0,0.944324838532018,0.971010864667301,2.20683388112601,3.0183678432439,0.778071292679729
"80",50,"deep1b",1,0.944313568242193,0.971029021101699,2.20915506299773,3.02157809719151,0.778500266597419
"81",50,"deep1b",2,0.948648513113685,0.973672333383481,1.79836389850892,2.57254379154993,0.664810409329708
"82",50,"deep1b",3,0.949553705746665,0.976180924681577,1.38929062606104,2.12094142290483,0.539697195802832
"83",50,"deep1b",4,0.951253831850847,0.976229961304588,1.04037180865209,1.64417976066783,0.410693206137031
"84",50,"deep1b",5,0.954037454691905,0.97684252919855,0.771605055455304,1.14560871579431,0.289630537887006
"85",50,"deep1b",6,0.954946328680139,0.975457340119942,0.595291586159622,0.924911323639421,0.246015419659115
"86",50,"deep1b",7,0.96031545422375,0.979576361154643,0.459125912534671,0.712978002716902,0.193787474336339
"87",50,"deep1b",8,0.964088537709568,0.982322848604569,0.333568946623072,0.538846518204691,0.140174963926422
"88",50,"deep1b",9,0.963482860339742,0.979605330078324,0.22780905824259,0.397061965182313,0.100294735043113
"89",50,"deep1b",10,0.972379929415375,0.977801646974579,0.0957543231726505,0.142584910834179,0.0479067960282434
"90",50,"deep1b",11,0.991466415370923,0.992094654730119,0.0812011194534871,0.0902439994378284,0.0248375379750598
"91",50,"deep1b",12,1,1,0.0751396244255769,0.0772975166412154,0.0110726029653716
"92",50,"synthetic",0,0.954374718285171,0.980668102368909,0.560620592640413,0.696038112469691,0.206611137964605
"93",50,"synthetic",1,0.954374718285171,0.980668102368909,0.560620622636138,0.696038145821886,0.206611133574991
"94",50,"synthetic",2,0.955938313639095,0.977969156819547,0.414053245893572,0.539236675437483,0.148594373162641
"95",50,"synthetic",3,0.952230734565119,0.972760502728957,0.287970979142416,0.400928786705818,0.105434081306337
"96",50,"synthetic",4,0.955886034750388,0.969305492964799,0.164484218636913,0.233450363822478,0.0687466554505483
"97",50,"synthetic",5,0.974410336020832,0.977615303720767,0.104045372877312,0.124745755225716,0.0392355593043352
"98",50,"synthetic",6,0.992789544840018,0.993089980471684,0.0931101033392915,0.100569305860308,0.0251160333058477
"99",50,"synthetic",7,1,1,0.0903805963770624,0.0928738961845593,0.0128439456578604
"100",50,"synthetic",8,1,1,0.0901951632528504,0.0926372412969844,0.012801612971799
"101",50,"synthetic",9,1,1,0.0901862725537227,0.0925308513204872,0.0128047873126051
"102",50,"synthetic",10,1,1,0.0894692629009407,0.09212055586895,0.0130720977451937
"103",50,"synthetic",11,1,1,0.0903219934841137,0.0926603793830897,0.0125827691866493
"104",50,"synthetic",12,1,1,0.0916505120477136,0.0927691221750309,0.0126411874951188
"105",100,"seismic",0,0.965315315315315,0.986036036036036,1.97859041946368,2.5036326693855,0.540659214227701
"106",100,"seismic",1,0.965315315315315,0.986036036036036,1.97859041964832,2.50363266906296,0.540659215227966
"107",100,"seismic",2,0.96971971971972,0.988488488488488,1.75148624318911,2.1929461695491,0.486499109268118
"108",100,"seismic",3,0.97025481540931,0.989265650080257,1.53196166354112,1.92261883315531,0.455238141887225
"109",100,"seismic",4,0.968735794737108,0.990403555735138,1.3408552592488,1.71713867727226,0.418506782257849
"110",100,"seismic",5,0.973442706998206,0.992360933094078,1.20539830227069,1.56262501796563,0.375178374254315
"111",100,"seismic",6,0.974889217134417,0.990557079552648,1.07584282780332,1.4179648881993,0.343143547891358
"112",100,"seismic",7,0.977039837799331,0.99046523097156,0.966375959290957,1.26100404500454,0.314528238982353
"113",100,"seismic",8,0.973822581557076,0.9897099564652,0.872298873644716,1.19583919170625,0.288170238556421
"114",100,"seismic",9,0.969417876963042,0.988723580115716,0.740126804761477,1.09131009482541,0.247943197092432
"115",100,"seismic",10,0.969932639314146,0.988242498469075,0.650222999500169,0.967088717393538,0.216573987116779
"116",100,"seismic",11,0.967321520287622,0.985041088854648,0.390065035001991,0.674587562693467,0.147557232846336
"117",100,"seismic",12,0.989847019276943,0.991150442477876,0.171265906359597,0.198643497950296,0.0429004763159605
"118",100,"sald",0,0.955362057749087,0.982535154881649,1.30601475010322,1.72779100703548,0.465398891980071
"119",100,"sald",1,0.955189390133628,0.982467597709233,1.31076546113209,1.73393574565289,0.466297829316451
"120",100,"sald",2,0.955190102595051,0.980335948501308,0.904017106448683,1.28476525304913,0.347521166825637
"121",100,"sald",3,0.954905422446406,0.979722572509458,0.684343928275465,1.00835099751469,0.277347252112483
"122",100,"sald",4,0.961655508216677,0.979711909109353,0.465219257874381,0.718787551790402,0.19643973934304
"123",100,"sald",5,0.96656330749354,0.98,0.362160196477854,0.580857466960295,0.163227973526752
"124",100,"sald",6,0.973472237138868,0.983030823756847,0.243164567215776,0.372629260809918,0.110933808003665
"125",100,"sald",7,0.977452667814114,0.983993115318416,0.202241312946515,0.28935735406654,0.0948890858838965
"126",100,"sald",8,0.97931920359666,0.984136159280668,0.140172239096651,0.153505377386917,0.0598012654244576
"127",100,"sald",9,0.982210927573062,0.984976455639435,0.123068037656078,0.130635849365294,0.0447145593695926
"128",100,"sald",10,0.981552284458039,0.984228636971898,0.116102754358737,0.121910487531757,0.036634725695038
"129",100,"sald",11,0.991890124264225,0.992544146500981,0.120289333962154,0.124448196661266,0.0370104218195031
"130",100,"sald",12,1,1,0.11505481928463,0.118456604331033,0.0167812855443703
"131",100,"deep1b",0,0.948590879511438,0.979276167592732,2.21630704964414,3.27633152441207,0.765335522411049
"132",100,"deep1b",1,0.948586891160553,0.9792543595911,2.2185265095017,3.2796637582738,0.76573810443474
"133",100,"deep1b",2,0.950253247078883,0.97903816257961,1.73193323745144,2.67854327840185,0.656401341173828
"134",100,"deep1b",3,0.957023218494559,0.983451180983902,1.34808356599654,2.24681544669521,0.516727478249766
"135",100,"deep1b",4,0.961198230800161,0.984368717330117,1.02583536350981,1.79726864498726,0.386549856110633
"136",100,"deep1b",5,0.956031226391337,0.981415260639637,0.717190563426161,1.19672085015178,0.282150185485283
"137",100,"deep1b",6,0.958795642525721,0.984062941295138,0.555012113662655,1.02726990430783,0.241135872546563
"138",100,"deep1b",7,0.965236312114159,0.986084404412509,0.41562202165406,0.737176403716496,0.186470862907197
"139",100,"deep1b",8,0.965419328668492,0.986968867254842,0.29045079140155,0.538948835012896,0.14074654316783
"140",100,"deep1b",9,0.966288129551357,0.985486581453379,0.188330133168416,0.389435431394607,0.101488084947789
"141",100,"deep1b",10,0.974838577431588,0.98344778108025,0.100857775035482,0.173192733586406,0.0490403902992194
"142",100,"deep1b",11,0.989244491080797,0.989926547743966,0.0762174039235509,0.0820351715659227,0.0300112796908575
"143",100,"deep1b",12,1,1,0.0742136704406783,0.0763700822127106,0.0105073896095387
"144",100,"synthetic",0,0.960100125156446,0.98648310387985,0.566043334281254,0.710371561110166,0.197948568759581
"145",100,"synthetic",1,0.960100125156446,0.98648310387985,0.566043324721057,0.710371550944405,0.197948565949163
"146",100,"synthetic",2,0.960352422907489,0.983079695634762,0.412398103195531,0.562300157163215,0.145634829049442
"147",100,"synthetic",3,0.956349802272613,0.980027031085749,0.280003287090692,0.42441192894309,0.104477914713582
"148",100,"synthetic",4,0.956795994993742,0.973366708385482,0.164152521082933,0.251863758066184,0.0716339870455487
"149",100,"synthetic",5,0.973765895664364,0.977370581756283,0.10734534712467,0.129550598959329,0.0512095543581727
"150",100,"synthetic",6,0.991990388466159,0.992240688826592,0.0891527946964368,0.0967837923514563,0.0270780902278259
"151",100,"synthetic",7,1,1,0.0897977550275868,0.0923598395060363,0.0127780296180377
"152",100,"synthetic",8,1,1,0.0898964179214329,0.0924227067473739,0.0127750800162828
"153",100,"synthetic",9,1,1,0.089725604967482,0.0921360356170008,0.0127132027554718
"154",100,"synthetic",10,1,1,0.0896926483517309,0.0921445990401588,0.0128137147244184
"155",100,"synthetic",11,1,1,0.0888896499819246,0.0916004760285503,0.0127501849472431
"156",100,"synthetic",12,1,1,0.0921088195068097,0.0932805628082368,0.0136930169908164
"157",200,"seismic",0,0.963754693366708,0.98558197747184,1.94687680573724,2.54645784972327,0.547013296273262
"158",200,"seismic",1,0.963754693366708,0.98558197747184,1.94687680685891,2.54646349709072,0.547013298538448
"159",200,"seismic",2,0.970012515644556,0.989286608260325,1.71480779410449,2.22694207836643,0.489281503161236
"160",200,"seismic",3,0.969716720982702,0.98992228628729,1.4811785501138,1.96067985805925,0.451530879349872
"161",200,"seismic",4,0.969005552751136,0.991872791519435,1.28354253195253,1.74302847723802,0.413487899479918
"162",200,"seismic",5,0.971981320880587,0.991276235439011,1.13950251648739,1.56852452621166,0.373028925012678
"163",200,"seismic",6,0.973452261571753,0.990710930490315,1.00725118780223,1.42411859063031,0.340108583348008
"164",200,"seismic",7,0.977463398585294,0.991062126446236,0.911168135785919,1.26824690365047,0.31101674567146
"165",200,"seismic",8,0.973925858746174,0.990874050561161,0.819729579698145,1.20346998572113,0.284014160339533
"166",200,"seismic",9,0.971167536782155,0.989973896535358,0.703978010054842,1.08744271591392,0.2464119441846
"167",200,"seismic",10,0.969104588061174,0.989084854464726,0.608443204452443,0.960800190868431,0.215121279456113
"168",200,"seismic",11,0.970205324179027,0.986981022086923,0.417812430806326,0.684018078207483,0.162137224185995
"169",200,"seismic",12,0.989622249896222,0.989760619897606,0.161227684082625,0.173103320014115,0.044127938693784
"170",200,"sald",0,0.95975975975976,0.987737737737738,1.30224714569046,1.74209481807916,0.462270620796517
"171",200,"sald",1,0.959577677224736,0.987682252388135,1.3078028543791,1.74940412348416,0.463315102839638
"172",200,"sald",2,0.960128876359243,0.985199355618204,0.914416860960935,1.31945891893222,0.346277090988016
"173",200,"sald",3,0.961719105095702,0.984849250037877,0.711695683184184,1.07471358792488,0.271690514475835
"174",200,"sald",4,0.962874676674951,0.983263173910838,0.455899486147554,0.75622912117527,0.19349214525412
"175",200,"sald",5,0.969946629359034,0.985076946992072,0.344734127525445,0.60144779165253,0.159092138980528
"176",200,"sald",6,0.974432124017655,0.985789643664549,0.251966204132078,0.381103806157404,0.114463889402121
"177",200,"sald",7,0.979457966511307,0.987053340238219,0.214867077299401,0.305725303635715,0.111150541378469
"178",200,"sald",8,0.985811028700419,0.989358271525314,0.143709900559728,0.156787689875914,0.0598721648955648
"179",200,"sald",9,0.987227367792053,0.990588586794144,0.128480485548381,0.137210045915609,0.0484467834609989
"180",200,"sald",10,0.982730655471806,0.985115924053048,0.116278688661784,0.122124465100415,0.0348880365926013
"181",200,"sald",11,0.989163076119598,0.991513252382818,0.112482363685416,0.116337454619735,0.0294484105462648
"182",200,"sald",12,1,1,0.113843146222659,0.117097130335078,0.0163292311663504
"183",200,"deep1b",0,0.951692030436524,0.985632759311173,2.24383504485876,3.39938007336523,0.752050308998479
"184",200,"deep1b",1,0.951643615955101,0.985618360392864,2.24597418269687,3.40267680908419,0.752427069411069
"185",200,"deep1b",2,0.950910093767237,0.984154841297698,1.74007211049901,2.84260132925939,0.648947516903401
"186",200,"deep1b",3,0.954018954018954,0.985759414330843,1.31672266863321,2.40501610877376,0.529443045420896
"187",200,"deep1b",4,0.959951761218029,0.988342294357067,0.995704122383726,1.92493895303028,0.391223343337466
"188",200,"deep1b",5,0.960847466156711,0.988878264808012,0.710377909931193,1.35043290860277,0.279069505193883
"189",200,"deep1b",6,0.963423850068013,0.987858330394478,0.552367756357966,1.17330828714012,0.239079274858638
"190",200,"deep1b",7,0.967266114366539,0.988785613255203,0.404683655003935,0.837709153307201,0.192932289826154
"191",200,"deep1b",8,0.968914540299716,0.990481976508708,0.287302070687511,0.608546274038861,0.146465343468776
"192",200,"deep1b",9,0.968989883584973,0.988002643485334,0.195491205477738,0.436677388923578,0.105388561743323
"193",200,"deep1b",10,0.975583538083538,0.983927108927109,0.116216219666542,0.175114511457485,0.0612653891304468
"194",200,"deep1b",11,0.989208444653989,0.991094347529991,0.0828476056729972,0.0894276397851263,0.0405714106563155
"195",200,"deep1b",12,1,1,0.0747985438743045,0.0767997790976438,0.0104741856030318
"196",200,"synthetic",0,0.965013263927123,0.99013964662896,0.575008636475473,0.729077821783361,0.197743987357822
"197",200,"synthetic",1,0.965013263927123,0.99013964662896,0.575008634116679,0.729077820032192,0.197743984926545
"198",200,"synthetic",2,0.96461284348566,0.987787176535362,0.421439992008273,0.596960538840415,0.145187591185194
"199",200,"synthetic",3,0.958756694529256,0.985234496221032,0.293883248538943,0.46653245562565,0.104966559835751
"200",200,"synthetic",4,0.958754630093102,0.978526379016919,0.177207056687506,0.273345950889181,0.0745096304899357
"201",200,"synthetic",5,0.977825608168986,0.981279407348083,0.130779495573006,0.152067743828002,0.0634250060270514
"202",200,"synthetic",6,0.992091300430474,0.992541795975573,0.08964109584766,0.0949101330314579,0.0308739058996437
"203",200,"synthetic",7,1,1,0.0900541555734733,0.0926829034734515,0.0127786246015859
"204",200,"synthetic",8,1,1,0.090302143649088,0.0927705059802522,0.0127256228305143
"205",200,"synthetic",9,1,1,0.0899028945336893,0.092108575609476,0.0128646849436844
"206",200,"synthetic",10,1,1,0.0905509079823072,0.0927799533414141,0.0130478100044818
"207",200,"synthetic",11,1,1,0.0904459320911493,0.093261868198499,0.0129256687321486
"208",200,"synthetic",12,1,1,0.0901456192585006,0.0924032793066977,0.0139461056848159
