"","Nr","dataset","time","coverage.95","coverage.99","range.95","range.99","rmse"
"1",25,"seismic",0,0.9429,0.97565,3.05654835287261,3.7155687110915,0.893339245083682
"2",25,"seismic",1,0.9429,0.97565,3.05654835287261,3.7155687110915,0.893339245083682
"3",25,"seismic",2,0.94135,0.9757,2.98588630372069,3.63675552439158,0.868687015729429
"4",25,"seismic",3,0.93525,0.9726,2.78905243488785,3.41382658833887,0.849784566634911
"5",25,"seismic",4,0.93685,0.9727,2.44950679546604,3.03121342680007,0.776005366623617
"6",25,"seismic",5,0.935022026431718,0.972717260712855,1.9446377730604,2.42828704979202,0.627720519380954
"7",25,"seismic",6,0.937024048096192,0.973697394789579,1.60817885523949,2.03453269139077,0.531452952491302
"8",25,"seismic",7,0.939161192521475,0.972208185952501,1.41881844286314,1.81349599845688,0.486084710203333
"9",25,"seismic",8,0.933690112130479,0.969367991845056,1.21322974436361,1.5637981920222,0.443976914497552
"10",25,"seismic",9,0.930264190426367,0.966361496207167,1.05802812118222,1.38001802514571,0.401210343175034
"11",25,"seismic",10,0.928405468201221,0.965688658345491,0.926709942058198,1.21981610166705,0.359055442447933
"12",25,"sald",0,0.9172,0.95365,1.8512532377138,2.35689431822424,0.782718361634227
"13",25,"sald",1,0.9172,0.95365,1.8512532377138,2.35689431822424,0.782718361634227
"14",25,"sald",2,0.916816997394267,0.955101222689918,1.7796087688646,2.27193901596401,0.738438943762649
"15",25,"sald",3,0.917781353716182,0.955395755808106,1.63441084782832,2.09609525421263,0.669728629666199
"16",25,"sald",4,0.920216259916123,0.956192208579657,1.32662279014366,1.72472741048494,0.531745116544355
"17",25,"sald",5,0.921159922535929,0.9532667414127,1.02963884273851,1.35975797732397,0.431890513886019
"18",25,"sald",6,0.920091920405285,0.950227189638063,0.887515043828823,1.187955538226,0.388142018120916
"19",25,"sald",7,0.923484724271739,0.949882494397989,0.689246150366986,0.934395049578722,0.316139136031054
"20",25,"sald",8,0.933363944211674,0.952648797566435,0.553737069412334,0.759389641014215,0.270016770141158
"21",25,"sald",9,0.929045745204132,0.945216428922774,0.299395935562478,0.414873596000539,0.169480538768731
"22",25,"sald",10,0.939107827038862,0.946770662287904,0.126485288418149,0.178266243250788,0.096233690996645
"23",25,"deep1b",0,0.92225,0.95285,2.72998375249795,3.42892596315409,0.96575216958346
"24",25,"deep1b",1,0.92225,0.95285,2.72998375249795,3.42892596315409,0.96575216958346
"25",25,"deep1b",2,0.924689751801441,0.953512810248199,2.55699545449289,3.22422386646913,0.922430045151685
"26",25,"deep1b",3,0.923716920609463,0.951032477947073,2.17758807923628,2.77302449238935,0.855996771161018
"27",25,"deep1b",4,0.924218123496391,0.948977546110666,1.67546839096095,2.15999821934036,0.70523465727357
"28",25,"deep1b",5,0.923030516313911,0.949625458750189,1.18577494925633,1.54971758684071,0.558806617185079
"29",25,"deep1b",6,0.932507303314194,0.956331217890601,0.868158643619436,1.15615894832291,0.402266624387736
"30",25,"deep1b",7,0.92345367331482,0.948144407977783,0.572966109484551,0.775946831919017,0.312956908205653
"31",25,"deep1b",8,0.92345367331482,0.94561979298157,0.377311946411156,0.516549522127852,0.24115670631264
"32",25,"deep1b",9,0.92997667579353,0.944681066828922,0.204420924492173,0.283748501360808,0.1819187580131
"33",25,"deep1b",10,0.938291139240506,0.949009799918334,0.127001821462669,0.177681941905838,0.162145818131116
"34",25,"synthetic",0,0.94615,0.98185,1.07123788719882,1.33706283489981,0.350503504476293
"35",25,"synthetic",1,0.94615,0.98185,1.07123788719882,1.33706283489981,0.350503504476293
"36",25,"synthetic",2,0.94645,0.9816,1.06892599658108,1.33453376595123,0.350124792033841
"37",25,"synthetic",3,0.9426,0.98075,1.02172899402936,1.27752818524561,0.34081245513253
"38",25,"synthetic",4,0.93815,0.9781,0.875789444389964,1.10301795215521,0.312345136197044
"39",25,"synthetic",5,0.936,0.96915,0.634908115113196,0.826210757828383,0.263299207677759
"40",25,"synthetic",6,0.91525,0.9551,0.404555942211582,0.538417722125063,0.195544020754322
"41",25,"synthetic",7,0.9047,0.93975,0.266893130556614,0.361762643909444,0.137587018696194
"42",25,"synthetic",8,0.89935,0.9267,0.173405649207372,0.238000079005127,0.103709442741166
"43",25,"synthetic",9,0.9196,0.9359,0.139085603883952,0.192298086902022,0.0849954376639336
"44",25,"synthetic",10,0.94295,0.95045,0.0716061796196847,0.100261253486139,0.0557503704527456
"45",50,"seismic",0,0.9475,0.97775,3.02924115700909,3.64811427620439,0.87342772643943
"46",50,"seismic",1,0.9475,0.97775,3.02924115700909,3.64811427620439,0.87342772643943
"47",50,"seismic",2,0.9439,0.97695,2.94788218557124,3.55711496074961,0.851018085622515
"48",50,"seismic",3,0.9423,0.97565,2.7820682714465,3.37699388672702,0.825330132559953
"49",50,"seismic",4,0.9471,0.97695,2.46461257263047,3.0242505189435,0.753064497157519
"50",50,"seismic",5,0.940584643107418,0.975823405746321,1.93262999530968,2.39128303634848,0.618709036910135
"51",50,"seismic",6,0.936359991982361,0.973391461214672,1.55378063569254,1.94044882485662,0.522675321124146
"52",50,"seismic",7,0.936915060454293,0.972277027368847,1.33875564433751,1.68493818111776,0.475596172982615
"53",50,"seismic",8,0.935357142857143,0.97234693877551,1.16194767088833,1.47733515607686,0.433347862018678
"54",50,"seismic",9,0.930452998167059,0.96700706991359,1.00522549871257,1.28978807161468,0.391363774156768
"55",50,"seismic",10,0.922210794131976,0.963297785957885,0.853635361677596,1.10629828826373,0.348951427312944
"56",50,"sald",0,0.92605,0.9616,1.9131948234457,2.42362852354104,0.766984010802319
"57",50,"sald",1,0.92605,0.9616,1.9131948234457,2.42362852354104,0.766984010802319
"58",50,"sald",2,0.921735644854194,0.95866319270468,1.81165846527282,2.29737363189984,0.730234691023459
"59",50,"sald",3,0.920498517513443,0.957786823458465,1.64166431993621,2.09223066572134,0.661395806645387
"60",50,"sald",4,0.918786593983444,0.955178679588128,1.28957228687675,1.66031992406229,0.530296737400274
"61",50,"sald",5,0.918851499261824,0.954385786285191,0.979300818159119,1.27876232320605,0.422628923571305
"62",50,"sald",6,0.923229269818106,0.951738156043154,0.844707297883468,1.11652471245013,0.377972561996737
"63",50,"sald",7,0.918361782189017,0.946556143316791,0.655529971450958,0.876144112212681,0.313325371020718
"64",50,"sald",8,0.931779225231402,0.951834076105588,0.525381199902569,0.710608129267967,0.269067224178612
"65",50,"sald",9,0.934052463839176,0.950968374601618,0.301386361606044,0.410902696417885,0.17183934088677
"66",50,"sald",10,0.952950775088387,0.960089747076421,0.144559847746819,0.200097410567765,0.0974864976602328
"67",50,"deep1b",0,0.9264,0.9564,2.72465351438737,3.39098697650362,0.942898385746016
"68",50,"deep1b",1,0.9264,0.9564,2.72465351438737,3.39098697650362,0.942898385746016
"69",50,"deep1b",2,0.926665665515343,0.954497672323172,2.53045012459516,3.16190303087112,0.902617790195377
"70",50,"deep1b",3,0.93216256899147,0.955945810336177,2.20109437853296,2.77879015103752,0.832659000077106
"71",50,"deep1b",4,0.93998996487707,0.962217762167587,1.75879381267478,2.24806652852869,0.685238913205932
"72",50,"deep1b",5,0.94396616825253,0.96395307858833,1.30262470500988,1.68990904618164,0.546362718645608
"73",50,"deep1b",6,0.943099273607748,0.962621065375303,0.90635993422425,1.19215842632787,0.409323097041915
"74",50,"deep1b",7,0.940314347804114,0.961995249406176,0.629174443387552,0.84159469429618,0.3226116037195
"75",50,"deep1b",8,0.937029362712892,0.955779046848941,0.415248713239174,0.561513894325265,0.238784975691894
"76",50,"deep1b",9,0.941824458094319,0.954870805624651,0.225595984785741,0.308859132256563,0.182822369051112
"77",50,"deep1b",10,0.949365793780687,0.958469721767594,0.145547809102698,0.201100635415994,0.166204312569004
"78",50,"synthetic",0,0.94785,0.98105,1.07166038552085,1.31670685419654,0.34845390384089
"79",50,"synthetic",1,0.94785,0.98105,1.07166038552085,1.31670685419654,0.34845390384089
"80",50,"synthetic",2,0.94775,0.9808,1.06762359947519,1.31235447316719,0.347869754992538
"81",50,"synthetic",3,0.9482,0.98065,1.02523399831076,1.26295246071255,0.33800805202029
"82",50,"synthetic",4,0.9453,0.98025,0.893830138169549,1.11073118888635,0.310603115881504
"83",50,"synthetic",5,0.9408,0.97035,0.639337373640077,0.818779179592507,0.257637335439946
"84",50,"synthetic",6,0.92725,0.96435,0.405615186433563,0.530621307793517,0.185817637738387
"85",50,"synthetic",7,0.9247,0.95835,0.286943064691155,0.382232422895791,0.134944717164809
"86",50,"synthetic",8,0.92395,0.9497,0.206613826572116,0.279000773109936,0.100372193424102
"87",50,"synthetic",9,0.93325,0.94995,0.168402497417914,0.229090112532093,0.0833543984563517
"88",50,"synthetic",10,0.9595,0.96455,0.0965304073955317,0.133373699051049,0.0557768869176103
"89",100,"seismic",0,0.95345,0.97855,3.07275396458957,3.68877793245803,0.873022601694125
"90",100,"seismic",1,0.95345,0.97855,3.07275396458957,3.68877793245803,0.873022601694125
"91",100,"seismic",2,0.95005,0.98025,2.97825685442447,3.57964756655325,0.848849749732205
"92",100,"seismic",3,0.94665,0.98005,2.81127797225653,3.39808594444108,0.827912806693772
"93",100,"seismic",4,0.94715,0.97815,2.44457590269632,2.97901234309259,0.754682859161432
"94",100,"seismic",5,0.942136349984984,0.97687456201822,1.93565127592982,2.37800985331237,0.615520788071958
"95",100,"seismic",6,0.942137167476579,0.976654476228646,1.58013666432003,1.96044575593494,0.517365717061651
"96",100,"seismic",7,0.94209275274364,0.973853234208264,1.36985869086686,1.71477126488398,0.473431942017471
"97",100,"seismic",8,0.939523736678395,0.973790219774616,1.19170057715702,1.50689614145043,0.432323062593878
"98",100,"seismic",9,0.936427375470908,0.970437421515278,1.03070743731237,1.31355407795183,0.388651890733547
"99",100,"seismic",10,0.930022695342051,0.969253215173457,0.882677491883759,1.13396250329572,0.346807828376419
"100",100,"sald",0,0.9247,0.9574,1.8477669699569,2.33168190670537,0.750048062144846
"101",100,"sald",1,0.9247,0.9574,1.8477669699569,2.33168190670537,0.750048062144846
"102",100,"sald",2,0.920705729036139,0.957145005262894,1.76036588543995,2.22329452819199,0.708019102867057
"103",100,"sald",3,0.923119469026549,0.956305309734513,1.59999983487041,2.02935185590553,0.644697043751333
"104",100,"sald",4,0.922502145706063,0.954309082647549,1.25055600802888,1.60113267345013,0.517008601865724
"105",100,"sald",5,0.92574685734643,0.956740801058578,0.973318647882352,1.26310466820072,0.413732146547513
"106",100,"sald",6,0.922411096047554,0.951350505787882,0.816543797301989,1.07272849314753,0.370914946107555
"107",100,"sald",7,0.923303352412101,0.952521122921777,0.644551676928544,0.854913817138272,0.30392027570776
"108",100,"sald",8,0.934996566720073,0.956225680933852,0.515128194811025,0.691470484721759,0.26086753603132
"109",100,"sald",9,0.936072780559287,0.954695322994261,0.303546847565559,0.411637111981271,0.158493842396642
"110",100,"sald",10,0.958115183246073,0.965526619976882,0.158332394285677,0.217913086720273,0.0909862391162654
"111",100,"deep1b",0,0.92635,0.9557,2.71576904961912,3.36329952768832,0.93012346405013
"112",100,"deep1b",1,0.92635,0.9557,2.71576904961912,3.36329952768832,0.93012346405013
"113",100,"deep1b",2,0.928124530757295,0.953501176235047,2.52396389892597,3.13801327488518,0.895565511988047
"114",100,"deep1b",3,0.935152214253473,0.957119213601485,2.20055092401919,2.76524269564168,0.823621071574966
"115",100,"deep1b",4,0.934600531621445,0.958072119965896,1.67855520303293,2.12905020945684,0.68634016753006
"116",100,"deep1b",5,0.943102927859946,0.962471073548647,1.26888832002965,1.63607779195639,0.541497054576231
"117",100,"deep1b",6,0.944156040522151,0.962653092082052,0.909613193170947,1.19066287129418,0.406154077784031
"118",100,"deep1b",7,0.949007926490635,0.965618215782299,0.658133588632083,0.875795685570305,0.314895258529253
"119",100,"deep1b",8,0.948301105669713,0.965416266976322,0.430280386643,0.579770752442228,0.228739801411914
"120",100,"deep1b",9,0.954335816735087,0.967918503877148,0.278749536501408,0.381225313910154,0.16356401304473
"121",100,"deep1b",10,0.957223072996427,0.966411434405309,0.202581606309089,0.27985042825651,0.142758610060247
"122",100,"synthetic",0,0.94915,0.98065,1.06014902828109,1.29826855687913,0.338270860372184
"123",100,"synthetic",1,0.94915,0.98065,1.06014902828109,1.29826855687913,0.338270860372184
"124",100,"synthetic",2,0.94905,0.9806,1.05665677654488,1.29434912208857,0.3378531463081
"125",100,"synthetic",3,0.95135,0.9814,1.01624001172902,1.24722358112632,0.328026372459152
"126",100,"synthetic",4,0.95235,0.98295,0.89323062632431,1.1058238011351,0.299487634733311
"127",100,"synthetic",5,0.948,0.9756,0.636610745978247,0.811516190656729,0.249696932267817
"128",100,"synthetic",6,0.9425,0.9721,0.423744619586568,0.552126194456888,0.180266955174632
"129",100,"synthetic",7,0.93065,0.9629,0.293215400141546,0.388387566312741,0.13268387870209
"130",100,"synthetic",8,0.92835,0.9553,0.209357465762405,0.280903707943711,0.0996848977159838
"131",100,"synthetic",9,0.9363,0.95355,0.166850143972838,0.225889166603134,0.0832936874617768
"132",100,"synthetic",10,0.96295,0.96875,0.0998828124986921,0.137384403079414,0.0554264499765738
"133",200,"seismic",0,0.95135,0.9775,3.01660265787347,3.60708874074851,0.891546807292992
"134",200,"seismic",1,0.95135,0.9775,3.01660265787347,3.60708874074851,0.891546807292992
"135",200,"seismic",2,0.94855,0.9786,2.93705819436119,3.51808291860959,0.861324459142776
"136",200,"seismic",3,0.9439,0.9796,2.76582480970744,3.33070146768944,0.84044111687086
"137",200,"seismic",4,0.94475,0.97675,2.41921273985915,2.94121834440423,0.757407452967918
"138",200,"seismic",5,0.93747183979975,0.975369211514393,1.90903569616949,2.33542320176404,0.621251698753157
"139",200,"seismic",6,0.934245476870646,0.972585576103844,1.54835446092362,1.91254948503714,0.526162999170555
"140",200,"seismic",7,0.939213108121776,0.971022554870031,1.34996912005367,1.68176118096106,0.48016649987659
"141",200,"seismic",8,0.934818061359698,0.972683722352461,1.16636659184884,1.4674671503599,0.438032777731024
"142",200,"seismic",9,0.931034482758621,0.968185861545707,1.01709443781785,1.28990989119567,0.393996089159488
"143",200,"seismic",10,0.928158903222324,0.967290980730825,0.875570526568525,1.11971982609646,0.349959610609777
"144",200,"sald",0,0.92655,0.96105,1.86351120407812,2.34764596234282,0.73646157168848
"145",200,"sald",1,0.92655,0.96105,1.86351120407812,2.34764596234282,0.73646157168848
"146",200,"sald",2,0.922487223168654,0.958512877041788,1.77001174593311,2.23212694908683,0.698272410965556
"147",200,"sald",3,0.923119441234109,0.957037334807296,1.6058562321901,2.03407563235544,0.635474511788155
"148",200,"sald",4,0.921923892197436,0.955990713636822,1.2560622886789,1.60519474084783,0.514029376406568
"149",200,"sald",5,0.924635909970465,0.958447907118851,0.968278049900059,1.25332978573973,0.410922212096907
"150",200,"sald",6,0.924307981024866,0.953865401657718,0.823608600453588,1.07948504420617,0.365865019948341
"151",200,"sald",7,0.921752397558849,0.952375762859634,0.640543001272506,0.847234813971645,0.301646998488818
"152",200,"sald",8,0.936975509505052,0.958839984015528,0.521709866935419,0.698605206663486,0.255869569421931
"153",200,"sald",9,0.940047523304698,0.957411807713398,0.310044689463301,0.418559879152078,0.160462677547278
"154",200,"sald",10,0.960752469887671,0.969616998240628,0.162042534517245,0.222040362532807,0.0909992376421966
"155",200,"deep1b",0,0.92385,0.9509,2.66373087431777,3.28935269381664,0.93417969404224
"156",200,"deep1b",1,0.92385,0.9509,2.66373087431777,3.28935269381664,0.93417969404224
"157",200,"deep1b",2,0.929543634907926,0.953112489991994,2.48131101046457,3.07812712628194,0.883453687367441
"158",200,"deep1b",3,0.936654304901273,0.958053523103137,2.16537537347471,2.71539956721415,0.815686074527165
"159",200,"deep1b",4,0.939059837626541,0.96161170692593,1.68893187272348,2.14139518358653,0.671795663978752
"160",200,"deep1b",5,0.945831867745339,0.965881111501935,1.25679351772768,1.61741916889107,0.533782613781729
"161",200,"deep1b",6,0.950359965765494,0.965010320696773,0.891000649072155,1.16208466379083,0.393859371324605
"162",200,"deep1b",7,0.953351152352615,0.970296031065611,0.643430745475885,0.853799992503466,0.302523861666847
"163",200,"deep1b",8,0.954561500832115,0.970144737505674,0.433141880836267,0.582507457170692,0.224350935032824
"164",200,"deep1b",9,0.958616148313241,0.97290041535812,0.275906772354547,0.376926193190848,0.161188736950955
"165",200,"deep1b",10,0.966222766467677,0.974386448288178,0.211092240683448,0.291487100829394,0.139956245451055
"166",200,"synthetic",0,0.9502,0.9805,1.05495703370525,1.28744411497002,0.337202223633449
"167",200,"synthetic",1,0.9502,0.9805,1.05495703370525,1.28744411497002,0.337202223633449
"168",200,"synthetic",2,0.9506,0.98025,1.05159672896944,1.28379599723975,0.336542322722563
"169",200,"synthetic",3,0.95245,0.9817,1.01170567252286,1.23740557745708,0.326991417014988
"170",200,"synthetic",4,0.9498,0.9818,0.88379696398987,1.09007508695276,0.302358505551505
"171",200,"synthetic",5,0.94735,0.97535,0.63294488961211,0.804199490899446,0.250204707257963
"172",200,"synthetic",6,0.93665,0.97075,0.417858192883512,0.5431305095031,0.180568849859551
"173",200,"synthetic",7,0.92235,0.9569,0.281301196560464,0.371739352077944,0.134760099695943
"174",200,"synthetic",8,0.92075,0.94985,0.199561077140854,0.267070190703287,0.101153354122611
"175",200,"synthetic",9,0.92925,0.94555,0.155769403322408,0.210342112067538,0.0852948872772125
"176",200,"synthetic",10,0.96,0.9663,0.09739602794315,0.133616051552438,0.0556831388618332
