Method, Witnesses, Coverage
"Baseline", 50, 91.4
"Baseline", 100, 93.1
"Baseline", 200, 94
"Baseline", 500, 94.6
"Query Sensitive nr=050", 50, 94.8 
"Query Sensitive nr=050", 100, 94.5
"Query Sensitive nr=050", 200, 94.4
"Query Sensitive nr=050", 500, 94.6
"Query Sensitive nr=100", 50, 94.4 
"Query Sensitive nr=100", 100, 94.3
"Query Sensitive nr=100", 200, 94.5
"Query Sensitive nr=100", 500, 94.7
"Query Sensitive nr=200", 50, 94.3
"Query Sensitive nr=200", 100, 94.6
"Query Sensitive nr=200", 200, 94.5
"Query Sensitive nr=200", 500, 94.8