Method, Witnesses, Coverage
"Baseline", 50, 95.3
"Baseline", 100, 97.2
"Baseline", 200, 98.0
"Baseline", 500, 98.6
"Query Sensitive nr=050", 50, 98.6
"Query Sensitive nr=050", 100, 98.3
"Query Sensitive nr=050", 200, 98.3
"Query Sensitive nr=050", 500, 98.3
"Query Sensitive nr=100", 50, 98.4 
"Query Sensitive nr=100", 100, 98.3
"Query Sensitive nr=100", 200, 98.2
"Query Sensitive nr=100", 500, 98.2
"Query Sensitive nr=200", 50, 98.6 
"Query Sensitive nr=200", 100, 98.6
"Query Sensitive nr=200", 200, 98.4
"Query Sensitive nr=200", 500, 98.3