datasetName,queryId,answerId,distance,time,totalTime,seriesCompared,totalSeriesCompared,leavesVisited,totalLeavesVisited
deep1b_size267M,1000,bestNN,53.358639,185415.000000,15005341.000000,3051637,263676103,678,70677
deep1b_size267M,1001,bestNN,15.701264,2064.000000,3995916.000000,9812,37257489,1,70649
deep1b_size267M,1002,bestNN,1.325750,24556.000000,94241.000000,46178,47790,267,2054
deep1b_size267M,1003,bestNN,31.787727,1231778.000000,14141719.000000,20794914,238047754,3921,70677
deep1b_size267M,1004,bestNN,21.581396,1201194.000000,6510175.000000,20522707,89169676,6105,70677
deep1b_size267M,1005,bestNN,29.774235,571289.000000,10857594.000000,10064541,180496459,2649,70677
deep1b_size267M,1006,bestNN,10.876356,574424.000000,3443815.000000,9115495,24664605,2171,70613
deep1b_size267M,1007,bestNN,25.218369,188109.000000,10597084.000000,3108193,170896440,305,70676
deep1b_size267M,1008,bestNN,24.500570,935058.000000,5699620.000000,16020257,72803847,1595,70637
deep1b_size267M,1009,bestNN,30.531700,64908.000000,10968690.000000,922523,182943855,100,70677
deep1b_size267M,1010,bestNN,33.521980,244372.000000,11723228.000000,4163632,194609380,801,70677
deep1b_size267M,1011,bestNN,35.155582,39541.000000,12928828.000000,419423,222651727,24,70677
deep1b_size267M,1012,bestNN,15.994711,2438.000000,2760282.000000,9707,11051575,1,69407
deep1b_size267M,1013,bestNN,14.918441,14026.000000,4666939.000000,34460,51962218,18,70637
deep1b_size267M,1014,bestNN,24.140032,30045.000000,7573018.000000,285286,110792424,18,70677
deep1b_size267M,1015,bestNN,29.454805,95971.000000,6015765.000000,1431279,81396563,461,70659
deep1b_size267M,1016,bestNN,49.973133,500459.000000,15111382.000000,8443639,266257027,2193,70677
deep1b_size267M,1017,bestNN,34.471928,3754.000000,9452983.000000,13526,151883942,1,70677
deep1b_size267M,1018,bestNN,27.001030,147231.000000,9949571.000000,2423291,161255447,476,70676
deep1b_size267M,1019,bestNN,8.289718,40024.000000,2483454.000000,458030,4858132,36,66449
deep1b_size267M,1020,bestNN,34.602253,89637.000000,13704488.000000,1344904,237848987,240,70677
deep1b_size267M,1021,bestNN,19.888859,219322.000000,4664559.000000,3502885,51808571,243,70587
deep1b_size267M,1022,bestNN,29.981396,81845.000000,9587501.000000,1166141,154915045,69,70677
deep1b_size267M,1023,bestNN,22.595165,106638.000000,3897474.000000,1591841,34239152,497,70663
deep1b_size267M,1024,bestNN,35.617970,40725.000000,13118126.000000,800740,224676759,120,70677
deep1b_size267M,1025,bestNN,3.980268,9033.000000,143666.000000,6343,6742,15,1894
deep1b_size267M,1026,bestNN,13.606098,79500.000000,4898273.000000,1116938,55093109,126,70676
deep1b_size267M,1027,bestNN,24.832556,62179.000000,9443712.000000,896667,147323822,395,70677
deep1b_size267M,1028,bestNN,29.212002,300596.000000,12464993.000000,5154395,212875060,750,70677
deep1b_size267M,1029,bestNN,38.799450,661176.000000,15129047.000000,11272139,265710460,2076,70677
deep1b_size267M,1030,bestNN,49.096630,394373.000000,14585591.000000,6544065,254955297,675,70677
deep1b_size267M,1031,bestNN,17.447210,22820.000000,3037192.000000,188045,16189376,19,70372
deep1b_size267M,1032,bestNN,15.799490,143463.000000,5604853.000000,2197962,70202138,529,70677
deep1b_size267M,1033,bestNN,8.849483,14543.000000,2461151.000000,50915,3422755,30,69763
deep1b_size267M,1034,bestNN,21.474199,65404.000000,5215381.000000,895965,62739021,60,70677
deep1b_size267M,1035,bestNN,32.386757,59302.000000,8907188.000000,847496,141359630,192,70677
deep1b_size267M,1036,bestNN,21.296068,183405.000000,4383680.000000,3007249,47313284,312,68250
deep1b_size267M,1037,bestNN,28.856634,65703.000000,6008842.000000,947599,78981608,321,70672
deep1b_size267M,1038,bestNN,40.987835,58645.000000,14279547.000000,764396,249268682,84,70677
deep1b_size267M,1039,bestNN,15.628376,48717.000000,3194631.000000,594784,25738158,21,56786
deep1b_size267M,1040,bestNN,15.026717,4534.000000,3182623.000000,16065,19159267,1,70351
deep1b_size267M,1041,bestNN,12.842835,12371.000000,2564261.000000,10530,6172329,9,68965
deep1b_size267M,1042,bestNN,52.645630,267138.000000,15140455.000000,4537857,266423558,546,70677
deep1b_size267M,1043,bestNN,44.052986,139333.000000,15218846.000000,2269693,265702049,731,70677
deep1b_size267M,1044,bestNN,34.668591,62570.000000,12480790.000000,834386,192117599,263,70677
deep1b_size267M,1045,bestNN,11.814719,75195.000000,2847460.000000,897140,10956048,73,69055
deep1b_size267M,1046,bestNN,37.587357,2065679.000000,16174729.000000,31664488,256885222,6321,70677
deep1b_size267M,1047,bestNN,2.890272,24835.000000,623894.000000,241547,591227,101,21381
deep1b_size267M,1048,bestNN,8.010893,69172.000000,1253827.000000,878329,3520838,160,37540
deep1b_size267M,1049,bestNN,6.703321,702.000000,1615659.000000,2655,295337,1,51482
deep1b_size267M,1050,bestNN,19.240189,18745.000000,6421797.000000,130472,70901384,110,70675
deep1b_size267M,1051,bestNN,24.724691,85337.000000,10269165.000000,951622,137138301,83,70675
deep1b_size267M,1052,bestNN,16.714577,22296.000000,5036750.000000,126170,48789762,4,70671
deep1b_size267M,1053,bestNN,47.862156,148408.000000,15566523.000000,1811662,264042980,160,70677
deep1b_size267M,1054,bestNN,25.241892,94617.000000,10491446.000000,1388895,166538834,100,70677
deep1b_size267M,1055,bestNN,30.571898,69016.000000,8041250.000000,925437,120563782,109,70677
deep1b_size267M,1056,bestNN,31.596312,60708.000000,13730928.000000,874415,238574827,157,70677
deep1b_size267M,1057,bestNN,10.492290,34441.000000,1770366.000000,358269,2676146,61,46201
deep1b_size267M,1058,bestNN,22.514503,15426.000000,6047812.000000,83784,79829194,36,70677
deep1b_size267M,1059,bestNN,36.034893,46554.000000,12484949.000000,578288,213579932,92,70677
deep1b_size267M,1060,bestNN,44.276901,46212.000000,14883407.000000,577189,261827855,62,70677
deep1b_size267M,1061,bestNN,1.571654,26783.000000,124362.000000,266480,480417,67,2282
deep1b_size267M,1062,bestNN,39.588581,19701.000000,12823659.000000,148642,219007619,51,70677
deep1b_size267M,1063,bestNN,9.824663,28609.000000,1104603.000000,234681,866591,11,28036
deep1b_size267M,1064,bestNN,14.090109,14804.000000,1781732.000000,33210,2099173,7,51111
deep1b_size267M,1065,bestNN,31.523832,866296.000000,14287377.000000,15089013,248676127,3749,70677
deep1b_size267M,1066,bestNN,27.103830,17954.000000,4298402.000000,106738,45288441,26,70608
deep1b_size267M,1067,bestNN,39.448231,1579673.000000,14889468.000000,27587227,263173647,4611,70677
deep1b_size267M,1068,bestNN,13.860706,75124.000000,3249889.000000,993030,20890385,147,70531
deep1b_size267M,1069,bestNN,18.695068,16560.000000,7132804.000000,35032,102185200,4,70677
deep1b_size267M,1070,bestNN,16.581318,54606.000000,3089062.000000,708535,20994683,35,65402
deep1b_size267M,1071,bestNN,8.099651,28607.000000,2116309.000000,293194,2442350,62,57293
deep1b_size267M,1072,bestNN,24.857767,265914.000000,9067649.000000,4539724,141282428,923,70675
deep1b_size267M,1073,bestNN,1.360442,15649.000000,210641.000000,61464,185252,6,2394
deep1b_size267M,1074,bestNN,19.715277,90053.000000,6089595.000000,1390615,82795854,117,70675
deep1b_size267M,1075,bestNN,1.946489,2693.000000,27064.000000,19043,19085,1,235
deep1b_size267M,1076,bestNN,11.668724,36988.000000,2566918.000000,411908,6689588,58,69560
deep1b_size267M,1077,bestNN,2.632913,45941.000000,267077.000000,527529,645876,163,3944
deep1b_size267M,1078,bestNN,33.488922,479217.000000,8605839.000000,8358785,135473971,1931,70676
deep1b_size267M,1079,bestNN,41.832394,86944.000000,15108371.000000,1289859,265705002,141,70677
deep1b_size267M,1080,bestNN,15.545846,51270.000000,3656510.000000,638348,29291881,19,70573
deep1b_size267M,1081,bestNN,13.340831,38419.000000,3180570.000000,443694,19519756,39,70537
deep1b_size267M,1082,bestNN,21.641685,69579.000000,7849475.000000,968087,116530620,117,70658
deep1b_size267M,1083,bestNN,6.579644,2094.000000,2468936.000000,11448,2905852,1,69875
deep1b_size267M,1084,bestNN,0.634255,13000.000000,37890.000000,16648,69321,7,487
deep1b_size267M,1085,bestNN,26.670008,26182.000000,6118359.000000,300853,81219410,22,70676
deep1b_size267M,1086,bestNN,31.010590,223481.000000,10099220.000000,3801313,165012254,474,70677
deep1b_size267M,1087,bestNN,5.980997,7356.000000,361005.000000,18829,89369,9,10632
deep1b_size267M,1088,bestNN,25.158415,98978.000000,5136633.000000,1437137,60954670,325,70653
deep1b_size267M,1089,bestNN,35.901173,1236742.000000,13058478.000000,21827802,223432346,3582,70677
deep1b_size267M,1090,bestNN,20.490404,57598.000000,3258315.000000,758304,21544351,253,70379
deep1b_size267M,1091,bestNN,27.833511,67593.000000,9090513.000000,921566,145112908,48,70677
deep1b_size267M,1092,bestNN,14.881215,27767.000000,3912851.000000,279876,36517082,80,70657
deep1b_size267M,1093,bestNN,13.184573,132376.000000,2268818.000000,2115381,12837201,243,43685
deep1b_size267M,1094,bestNN,17.428644,182547.000000,6539942.000000,2984041,89768101,230,70658
deep1b_size267M,1095,bestNN,31.093384,284945.000000,13814569.000000,4875360,233007544,1064,70676
deep1b_size267M,1096,bestNN,31.328484,148444.000000,8451938.000000,2337101,132402063,481,70677
deep1b_size267M,1097,bestNN,15.114958,51826.000000,3491970.000000,650880,26896018,74,69248
deep1b_size267M,1098,bestNN,23.221764,64594.000000,8402948.000000,832757,126914681,139,70677
deep1b_size267M,1099,bestNN,40.272549,132445.000000,14910809.000000,2040647,262930898,185,70677
deep1b_size267M,1100,bestNN,42.977108,134744.000000,14114367.000000,2448221,247465407,390,70677
deep1b_size267M,1101,bestNN,13.323663,26218.000000,2388072.000000,218249,6616011,24,59041
deep1b_size267M,1102,bestNN,24.177727,27394.000000,5742423.000000,285530,74292843,43,70677
deep1b_size267M,1103,bestNN,11.655252,82209.000000,3120578.000000,1168141,18681020,283,69828
deep1b_size267M,1104,bestNN,22.946077,50936.000000,7077400.000000,617890,101778767,27,70660
deep1b_size267M,1105,bestNN,42.499733,85128.000000,14022382.000000,1280593,245010462,101,70677
deep1b_size267M,1106,bestNN,39.397835,26897.000000,12102289.000000,258518,205788956,52,70677
deep1b_size267M,1107,bestNN,36.853073,225634.000000,14115406.000000,3855673,246300389,1202,70677
deep1b_size267M,1108,bestNN,3.794234,2713.000000,635749.000000,16606,175435,1,21276
deep1b_size267M,1109,bestNN,11.491645,36323.000000,3467419.000000,406276,25582686,31,70560
deep1b_size267M,1110,bestNN,43.512005,15741.000000,14972189.000000,59476,264487457,19,70677
deep1b_size267M,1111,bestNN,40.522568,153966.000000,12371676.000000,2406762,210462777,568,70677
deep1b_size267M,1112,bestNN,19.241137,91563.000000,6939104.000000,1275117,98009642,75,70677
deep1b_size267M,1113,bestNN,54.010445,34143.000000,14851468.000000,335638,261463761,36,70677
deep1b_size267M,1114,bestNN,24.805841,40862.000000,6982633.000000,417148,99486147,15,70676
deep1b_size267M,1115,bestNN,24.726809,285881.000000,10084922.000000,4697964,164792125,1390,70677
deep1b_size267M,1116,bestNN,41.297314,40355.000000,12499137.000000,495905,214262302,94,70677
deep1b_size267M,1117,bestNN,43.357281,47316.000000,13980558.000000,610895,242885580,141,70677
deep1b_size267M,1118,bestNN,23.725227,158072.000000,9494916.000000,2516359,149597913,346,70677
deep1b_size267M,1119,bestNN,12.411281,38655.000000,1457609.000000,407147,4201634,14,31398
deep1b_size267M,1120,bestNN,9.906723,60003.000000,2000899.000000,796608,2785728,89,56136
deep1b_size267M,1121,bestNN,15.068731,41079.000000,3089360.000000,498916,17925113,243,70467
deep1b_size267M,1122,bestNN,22.000446,123450.000000,4659106.000000,1884889,50375693,305,70664
deep1b_size267M,1123,bestNN,32.926819,198471.000000,10995753.000000,3325773,184303229,701,70677
deep1b_size267M,1124,bestNN,13.109797,32528.000000,1536705.000000,289258,1213106,118,43881
deep1b_size267M,1125,bestNN,37.167286,314481.000000,13176743.000000,5368462,228550992,689,70677
deep1b_size267M,1126,bestNN,36.778942,1188975.000000,14421254.000000,20314181,251696371,3134,70677
deep1b_size267M,1127,bestNN,26.273306,146116.000000,9538088.000000,2335540,149884079,193,70677
deep1b_size267M,1128,bestNN,6.761128,12238.000000,619180.000000,46485,351650,18,16748
deep1b_size267M,1129,bestNN,13.385052,20827.000000,3522367.000000,126686,27243194,8,69671
deep1b_size267M,1130,bestNN,22.576954,28870.000000,4223647.000000,278701,41872897,13,70608
deep1b_size267M,1131,bestNN,22.034075,43560.000000,8291292.000000,567506,124464533,147,70677
deep1b_size267M,1132,bestNN,31.821554,51083.000000,11123060.000000,624479,185803173,68,70675
deep1b_size267M,1133,bestNN,34.809059,589089.000000,14045945.000000,10242590,245342984,1369,70677
deep1b_size267M,1134,bestNN,40.203571,141155.000000,13387118.000000,2459820,232324902,259,70677
deep1b_size267M,1135,bestNN,12.530425,487910.000000,2872469.000000,7551378,14596541,1955,66962
deep1b_size267M,1136,bestNN,15.796804,39917.000000,4627281.000000,612149,50574979,13,70504
deep1b_size267M,1137,bestNN,39.570381,418518.000000,14417756.000000,7118825,252839073,1153,70677
deep1b_size267M,1138,bestNN,33.215088,117367.000000,8197200.000000,1792806,126491673,202,70676
deep1b_size267M,1139,bestNN,39.401970,199407.000000,12933844.000000,3358509,222538362,733,70677
deep1b_size267M,1140,bestNN,27.991589,2002223.000000,10418563.000000,35482908,169915099,7878,70675
deep1b_size267M,1141,bestNN,46.325600,246459.000000,15095439.000000,4165643,265840220,714,70677
deep1b_size267M,1142,bestNN,17.376089,65567.000000,4581817.000000,890280,49022408,145,70538
deep1b_size267M,1143,bestNN,17.439348,267438.000000,4251171.000000,4315955,43623336,855,70669
deep1b_size267M,1144,bestNN,55.180954,164764.000000,16565036.000000,2721419,266655782,807,70677
deep1b_size267M,1145,bestNN,44.369991,50704.000000,17500572.000000,544561,259644353,76,70677
deep1b_size267M,1146,bestNN,24.148216,5730.000000,7449362.000000,18994,97529803,1,70675
deep1b_size267M,1147,bestNN,13.473950,118787.000000,2850514.000000,1539473,10262862,166,69009
deep1b_size267M,1148,bestNN,6.107980,3141.000000,374806.000000,11330,134036,1,10631
deep1b_size267M,1149,bestNN,5.717853,10722.000000,623858.000000,26275,76965,23,16502
deep1b_size267M,1150,bestNN,15.854506,21341.000000,2460648.000000,83879,4772239,10,64897
deep1b_size267M,1151,bestNN,41.594246,63594.000000,13619818.000000,676036,221278204,54,70677
deep1b_size267M,1152,bestNN,3.775716,15226.000000,780214.000000,61633,75952,71,29065
deep1b_size267M,1153,bestNN,20.029781,19708.000000,7362240.000000,187295,105326764,45,70676
deep1b_size267M,1154,bestNN,9.925287,38897.000000,2453961.000000,456593,3619511,321,69651
deep1b_size267M,1155,bestNN,25.142389,104406.000000,8072911.000000,1604643,123848591,175,70675
deep1b_size267M,1156,bestNN,40.537609,261636.000000,13096253.000000,4313523,226677657,895,70677
deep1b_size267M,1157,bestNN,14.092606,12369.000000,3623610.000000,18165,29442455,9,70410
deep1b_size267M,1158,bestNN,39.080353,24571.000000,12228426.000000,198045,208817816,52,70677
deep1b_size267M,1159,bestNN,16.848339,105776.000000,5981501.000000,1666387,78617417,459,70677
deep1b_size267M,1160,bestNN,19.412455,17702.000000,4167071.000000,101485,41351779,16,70605
deep1b_size267M,1161,bestNN,28.320967,91377.000000,9220358.000000,1349813,144077582,140,70677
deep1b_size267M,1162,bestNN,39.539742,368609.000000,13861524.000000,6358552,240987180,747,70677
deep1b_size267M,1163,bestNN,12.799214,211984.000000,3625984.000000,3406512,29645448,468,70618
deep1b_size267M,1164,bestNN,35.018501,1025356.000000,14276399.000000,18147904,251205738,3404,70677
deep1b_size267M,1165,bestNN,19.691916,28536.000000,8512632.000000,298606,127148662,29,70677
deep1b_size267M,1166,bestNN,37.499260,215987.000000,12010089.000000,3462887,204861924,370,70677
deep1b_size267M,1167,bestNN,3.791412,9583.000000,426646.000000,35939,224854,17,14473
deep1b_size267M,1168,bestNN,40.379761,96157.000000,14401885.000000,1459651,253237381,209,70677
deep1b_size267M,1169,bestNN,13.895290,16044.000000,1726174.000000,79912,7568699,10,50911
deep1b_size267M,1170,bestNN,31.995398,86892.000000,12830759.000000,1357821,220123400,322,70677
deep1b_size267M,1171,bestNN,21.266188,27810.000000,7190509.000000,225895,104422374,15,70674
deep1b_size267M,1172,bestNN,53.576176,291528.000000,14942469.000000,4984640,263806264,724,70677
deep1b_size267M,1173,bestNN,33.483406,44783.000000,11490335.000000,544412,192724028,26,70677
deep1b_size267M,1174,bestNN,40.537144,179403.000000,14511005.000000,2921963,256324468,632,70677
deep1b_size267M,1175,bestNN,18.963329,122161.000000,4057464.000000,1819674,38938184,461,70651
deep1b_size267M,1176,bestNN,21.951885,4095.000000,4745100.000000,14974,53612143,1,70657
deep1b_size267M,1177,bestNN,27.159077,147177.000000,8564665.000000,2349958,133794623,631,70675
deep1b_size267M,1178,bestNN,18.562340,77187.000000,4603158.000000,1115223,50242714,153,70308
deep1b_size267M,1179,bestNN,17.889750,44703.000000,4094586.000000,597314,40251556,68,70003
deep1b_size267M,1180,bestNN,43.648186,97345.000000,13256677.000000,1429359,229699011,157,70677
deep1b_size267M,1181,bestNN,38.461891,47561.000000,13845923.000000,627405,242160517,64,70677
deep1b_size267M,1182,bestNN,13.108577,155154.000000,2624245.000000,2311562,10373797,367,67244
deep1b_size267M,1183,bestNN,4.752254,15892.000000,169999.000000,97091,152295,18,3165
deep1b_size267M,1184,bestNN,14.899040,50277.000000,2672601.000000,570076,8992278,157,70216
deep1b_size267M,1185,bestNN,1.078622,15483.000000,115431.000000,134293,685521,4,1633
deep1b_size267M,1186,bestNN,5.333662,51404.000000,505992.000000,383280,548407,523,16754
deep1b_size267M,1187,bestNN,9.251701,4965.000000,370026.000000,16436,331248,1,8337
deep1b_size267M,1188,bestNN,15.809758,49562.000000,3400093.000000,632104,23567294,32,70482
deep1b_size267M,1189,bestNN,29.660656,55697.000000,12197631.000000,732842,207421107,141,70677
deep1b_size267M,1190,bestNN,25.139553,47851.000000,7575546.000000,605668,109467820,143,70677
deep1b_size267M,1191,bestNN,45.964668,1442481.000000,14805604.000000,25311161,260453109,6253,70677
deep1b_size267M,1192,bestNN,38.003365,21379.000000,12434261.000000,115408,213432536,19,70677
deep1b_size267M,1193,bestNN,29.853548,15902.000000,12004652.000000,66554,204697185,14,70677
deep1b_size267M,1194,bestNN,31.862705,234463.000000,14533467.000000,4011569,250964440,649,70677
deep1b_size267M,1195,bestNN,5.123153,16279.000000,505018.000000,53744,100895,26,14121
deep1b_size267M,1196,bestNN,0.164525,4015.000000,17018.000000,12912,12918,1,84
deep1b_size267M,1197,bestNN,15.122162,27065.000000,3965293.000000,267208,37476332,50,70544
deep1b_size267M,1198,bestNN,0.091675,1332.000000,13286.000000,9174,9191,1,121
deep1b_size267M,1199,bestNN,15.093603,156125.000000,4790078.000000,2500732,53370474,201,70667
deep1b_size267M,1200,bestNN,25.361868,184407.000000,9151733.000000,3110741,142782660,580,70677
deep1b_size267M,1201,bestNN,19.892612,36609.000000,6323907.000000,431914,85483921,47,70673
deep1b_size267M,1202,bestNN,19.968241,50347.000000,4803762.000000,690784,54492823,105,70652
deep1b_size267M,1203,bestNN,12.289451,20133.000000,2396270.000000,135118,5076798,36,67901
deep1b_size267M,1204,bestNN,29.755535,91710.000000,11558145.000000,1413954,196439486,368,70677
deep1b_size267M,1205,bestNN,33.205032,57775.000000,9656477.000000,822577,157653074,168,70677
deep1b_size267M,1206,bestNN,4.490394,26243.000000,508192.000000,186692,226972,197,15023
deep1b_size267M,1207,bestNN,31.432402,189269.000000,9908065.000000,3147612,160459301,883,70670
deep1b_size267M,1208,bestNN,53.560162,353639.000000,15081170.000000,6023841,265522566,752,70677
deep1b_size267M,1209,bestNN,18.788939,181445.000000,4733060.000000,2950881,51337480,296,70603
deep1b_size267M,1210,bestNN,26.319670,18760.000000,10373613.000000,121847,165418307,8,70677
deep1b_size267M,1211,bestNN,32.012005,383390.000000,12993163.000000,6619775,222871975,1037,70677
deep1b_size267M,1212,bestNN,30.805977,67206.000000,12611052.000000,936177,209161511,267,70677
deep1b_size267M,1213,bestNN,32.956757,119820.000000,14134183.000000,1920810,247816646,351,70677
deep1b_size267M,1214,bestNN,8.102747,15081.000000,2330775.000000,55564,2119557,17,69110
deep1b_size267M,1215,bestNN,3.946809,9706.000000,223583.000000,11361,11769,20,4178
deep1b_size267M,1216,bestNN,32.573956,83001.000000,7590360.000000,1223374,113403974,130,70665
deep1b_size267M,1217,bestNN,43.113724,134572.000000,15007571.000000,2165142,264968960,510,70677
deep1b_size267M,1218,bestNN,40.770824,182725.000000,13521362.000000,3057969,234576551,412,70677
deep1b_size267M,1219,bestNN,33.108551,54061.000000,4900721.000000,682852,57449449,204,70673
deep1b_size267M,1220,bestNN,14.365253,16030.000000,3275616.000000,70815,22333955,8,70450
deep1b_size267M,1221,bestNN,15.184082,53025.000000,2813836.000000,712107,12811171,167,69455
deep1b_size267M,1222,bestNN,37.862354,237269.000000,14150687.000000,3942996,248599533,499,70677
deep1b_size267M,1223,bestNN,11.387896,26579.000000,3277993.000000,183786,21172783,9,70470
deep1b_size267M,1224,bestNN,16.312469,56094.000000,4486097.000000,779863,47327715,181,70674
deep1b_size267M,1225,bestNN,40.701668,20334.000000,10394724.000000,135429,172189763,28,70677
deep1b_size267M,1226,bestNN,27.507389,63085.000000,3122686.000000,905035,18140137,308,70575
deep1b_size267M,1227,bestNN,5.656819,31672.000000,2166690.000000,342183,1511735,19,57180
deep1b_size267M,1228,bestNN,28.326042,3438.000000,5707865.000000,9520,75177934,1,70677
deep1b_size267M,1229,bestNN,16.108837,14276.000000,3260325.000000,51334,21674099,28,70086
deep1b_size267M,1230,bestNN,17.691660,33312.000000,5045657.000000,319691,59125079,20,70671
deep1b_size267M,1231,bestNN,30.738981,39242.000000,7753538.000000,506523,117437740,74,70677
deep1b_size267M,1232,bestNN,22.152006,73347.000000,5687012.000000,1038408,72518363,114,70627
deep1b_size267M,1233,bestNN,19.335773,41330.000000,3691536.000000,527336,30364231,49,70642
deep1b_size267M,1234,bestNN,19.367937,780691.000000,4945321.000000,12684727,56703752,3835,70670
deep1b_size267M,1235,bestNN,15.510866,26260.000000,4758139.000000,176991,52739338,10,70662
deep1b_size267M,1236,bestNN,13.404324,20203.000000,1973943.000000,98474,5859297,14,51873
deep1b_size267M,1237,bestNN,24.461710,103731.000000,5108775.000000,1543544,61532718,188,70665
deep1b_size267M,1238,bestNN,32.341385,333685.000000,11857847.000000,5753759,198545407,1319,70677
deep1b_size267M,1239,bestNN,9.965850,44753.000000,2028290.000000,591134,2817009,127,52951
deep1b_size267M,1240,bestNN,6.732022,912.000000,908425.000000,4190,222193,1,26140
deep1b_size267M,1241,bestNN,1.200882,18484.000000,105673.000000,181569,378867,22,2058
deep1b_size267M,1242,bestNN,9.965039,1569.000000,2426861.000000,8077,5244955,1,66348
deep1b_size267M,1243,bestNN,33.769829,47128.000000,14409316.000000,574052,252053985,59,70677
deep1b_size267M,1244,bestNN,40.321239,315501.000000,14994375.000000,5350632,264455749,677,70677
deep1b_size267M,1245,bestNN,13.022517,37804.000000,2303729.000000,424755,5468968,82,62269
deep1b_size267M,1246,bestNN,41.380665,648602.000000,11699597.000000,11356449,198048912,1522,70677
deep1b_size267M,1247,bestNN,5.036962,305.000000,1633059.000000,1101,129350,1,48913
deep1b_size267M,1248,bestNN,48.278137,755667.000000,15159923.000000,13043014,266542898,2185,70677
deep1b_size267M,1249,bestNN,23.398750,446171.000000,8591506.000000,7364977,117283324,692,70676
deep1b_size267M,1250,bestNN,38.174438,118314.000000,17134124.000000,1471833,255249223,105,70677
deep1b_size267M,1251,bestNN,41.115322,57082.000000,15280728.000000,639665,226258859,128,70677
deep1b_size267M,1252,bestNN,24.909306,174601.000000,6573401.000000,2250519,81508333,155,70637
deep1b_size267M,1253,bestNN,59.701809,17515.000000,15715730.000000,49063,265369337,8,70677
deep1b_size267M,1254,bestNN,32.198326,140793.000000,13907587.000000,2290278,239350641,431,70677
deep1b_size267M,1255,bestNN,44.376972,1246994.000000,12910293.000000,21650644,222346141,4922,70677
deep1b_size267M,1256,bestNN,28.432026,32035.000000,9424318.000000,598084,153112714,34,70677
deep1b_size267M,1257,bestNN,7.494585,54566.000000,2338196.000000,669765,2286860,161,67880
deep1b_size267M,1258,bestNN,26.685570,107200.000000,10795181.000000,1737936,180662530,483,70676
deep1b_size267M,1259,bestNN,29.234056,32615.000000,6680383.000000,338262,94244614,16,70677
deep1b_size267M,1260,bestNN,19.034008,448498.000000,7544754.000000,7723296,110791320,797,70676
deep1b_size267M,1261,bestNN,20.946764,33055.000000,6535832.000000,320593,89953210,9,70636
deep1b_size267M,1262,bestNN,7.379042,3237.000000,1717690.000000,15696,1491311,1,49297
deep1b_size267M,1263,bestNN,8.469556,45301.000000,2215563.000000,540534,1769857,168,65395
deep1b_size267M,1264,bestNN,34.565765,61551.000000,13119136.000000,821304,226223571,140,70677
deep1b_size267M,1265,bestNN,29.326359,230063.000000,14407706.000000,3908270,251754276,764,70677
deep1b_size267M,1266,bestNN,44.866428,256327.000000,12520788.000000,4354365,214884203,646,70677
deep1b_size267M,1267,bestNN,45.325214,205450.000000,14864134.000000,3489394,262168389,513,70677
deep1b_size267M,1268,bestNN,14.961700,66040.000000,4328534.000000,897928,43035588,55,70541
deep1b_size267M,1269,bestNN,18.552849,194831.000000,9041169.000000,3468563,139195048,931,70677
deep1b_size267M,1270,bestNN,31.835989,103218.000000,14187209.000000,1650592,244669613,264,70677
deep1b_size267M,1271,bestNN,20.631001,53414.000000,4303817.000000,648381,43098052,79,70611
deep1b_size267M,1272,bestNN,36.597790,77752.000000,12500762.000000,1113342,214641919,205,70677
deep1b_size267M,1273,bestNN,34.043278,44889.000000,12819312.000000,511929,219886095,25,70677
deep1b_size267M,1274,bestNN,22.733896,4175.000000,7593422.000000,12228,113418857,1,70667
deep1b_size267M,1275,bestNN,10.201172,48523.000000,2102435.000000,623559,4365242,39,54427
deep1b_size267M,1276,bestNN,38.096771,26541.000000,11289000.000000,239354,189954096,37,70677
deep1b_size267M,1277,bestNN,0.041112,825.000000,8745.000000,5402,5420,1,19
deep1b_size267M,1278,bestNN,4.009087,35998.000000,364844.000000,253776,293847,180,12307
deep1b_size267M,1279,bestNN,6.679785,17681.000000,415026.000000,120807,150538,178,18535
deep1b_size267M,1280,bestNN,26.751932,320677.000000,7881136.000000,5482109,118916447,519,70677
deep1b_size267M,1281,bestNN,17.988646,90679.000000,3901129.000000,1326314,35781397,84,70368
deep1b_size267M,1282,bestNN,25.831175,228006.000000,6554252.000000,4191827,92488208,388,70675
deep1b_size267M,1283,bestNN,44.079250,17320.000000,14078979.000000,121437,245564585,67,70677
deep1b_size267M,1284,bestNN,0.188651,5207.000000,10180.000000,8724,8729,13,51
deep1b_size267M,1285,bestNN,48.855621,795156.000000,15105985.000000,14029112,266352999,3612,70677
deep1b_size267M,1286,bestNN,21.850266,20419.000000,10181861.000000,144642,167473182,17,70677
deep1b_size267M,1287,bestNN,13.970501,13165.000000,2571493.000000,105177,8193851,17,67721
deep1b_size267M,1288,bestNN,1.658753,33866.000000,259806.000000,398035,725363,14,3576
deep1b_size267M,1289,bestNN,11.011980,5214.000000,3018623.000000,16884,16288945,1,70097
deep1b_size267M,1290,bestNN,18.259111,88912.000000,4436298.000000,1254415,45996944,122,70655
deep1b_size267M,1291,bestNN,32.005409,155025.000000,14094885.000000,2509303,239227035,269,70677
deep1b_size267M,1292,bestNN,26.722532,30449.000000,9292336.000000,252614,145444044,19,70677
deep1b_size267M,1293,bestNN,15.408175,2356.000000,1742734.000000,12432,2960293,1,47275
deep1b_size267M,1294,bestNN,17.570637,80429.000000,3611751.000000,1147556,28116925,170,70566
deep1b_size267M,1295,bestNN,29.126419,461831.000000,7470048.000000,8007813,112517624,2011,70677
deep1b_size267M,1296,bestNN,4.949884,2753.000000,127626.000000,15957,31709,1,4499
deep1b_size267M,1297,bestNN,34.210922,276893.000000,14549639.000000,4738074,256439680,1090,70677
deep1b_size267M,1298,bestNN,20.847666,410211.000000,10763154.000000,7080765,173539647,630,70677
deep1b_size267M,1299,bestNN,53.339367,26426.000000,14948360.000000,269397,262957673,58,70677
deep1b_size267M,1300,bestNN,1.984516,7310.000000,100863.000000,19602,50178,6,1399
deep1b_size267M,1301,bestNN,13.216685,42506.000000,2867467.000000,557509,12969733,133,70021
deep1b_size267M,1302,bestNN,20.351053,68934.000000,3938922.000000,986575,37703179,233,70607
deep1b_size267M,1303,bestNN,31.060413,1091265.000000,14175822.000000,19158847,248577176,4360,70677
deep1b_size267M,1304,bestNN,1.050547,24857.000000,179437.000000,127360,141948,102,2509
deep1b_size267M,1305,bestNN,20.644285,84306.000000,8947974.000000,1222382,138020320,110,70677
deep1b_size267M,1306,bestNN,22.433107,94779.000000,4497660.000000,1483914,47657833,361,70421
deep1b_size267M,1307,bestNN,23.649910,111655.000000,9887773.000000,1620863,159376621,122,70677
deep1b_size267M,1308,bestNN,17.007795,60543.000000,3140160.000000,816718,18370591,54,69665
deep1b_size267M,1309,bestNN,18.968914,67820.000000,4353479.000000,982164,45553243,91,70573
deep1b_size267M,1310,bestNN,28.516151,81077.000000,12162440.000000,1159397,205832423,83,70677
deep1b_size267M,1311,bestNN,5.716393,30851.000000,766168.000000,215924,496543,19,21026
deep1b_size267M,1312,bestNN,5.307881,7888.000000,454023.000000,22719,98163,5,13498
deep1b_size267M,1313,bestNN,50.393608,110920.000000,14867190.000000,1698731,260433319,329,70677
deep1b_size267M,1314,bestNN,22.887066,80488.000000,7050470.000000,1224927,100431360,163,70675
deep1b_size267M,1315,bestNN,6.534394,45140.000000,2311815.000000,514188,1395369,430,68742
deep1b_size267M,1316,bestNN,19.919575,262742.000000,5960772.000000,4437668,80010963,618,70671
deep1b_size267M,1317,bestNN,17.935778,31566.000000,5350923.000000,304978,65599035,16,70612
deep1b_size267M,1318,bestNN,31.041733,49090.000000,14207651.000000,694287,249519297,97,70677
deep1b_size267M,1319,bestNN,2.966868,12386.000000,324140.000000,56373,173977,23,7114
deep1b_size267M,1320,bestNN,34.087151,24692.000000,6595219.000000,217044,93619878,30,70675
deep1b_size267M,1321,bestNN,43.036430,2331447.000000,14872636.000000,40963507,262309898,9717,70677
deep1b_size267M,1322,bestNN,15.534171,47501.000000,3740622.000000,550860,31776966,149,70466
deep1b_size267M,1323,bestNN,9.242633,43238.000000,2590171.000000,469823,5927321,213,70385
deep1b_size267M,1324,bestNN,49.829273,494354.000000,15148614.000000,8534206,266509674,1868,70677
deep1b_size267M,1325,bestNN,33.608013,51738.000000,9332406.000000,702868,149285912,131,70677
deep1b_size267M,1326,bestNN,15.592983,979764.000000,7237179.000000,15906918,103136485,4209,70677
deep1b_size267M,1327,bestNN,20.157938,23286.000000,3386525.000000,187060,23890661,68,70527
deep1b_size267M,1328,bestNN,27.759573,48919.000000,4615990.000000,610143,49609850,55,70581
deep1b_size267M,1329,bestNN,17.915302,14133.000000,3032342.000000,37865,16580884,6,70101
deep1b_size267M,1330,bestNN,34.340073,219124.000000,14022747.000000,3577049,244684751,1295,70677
deep1b_size267M,1331,bestNN,30.961487,124439.000000,12186220.000000,2016893,205527881,369,70677
deep1b_size267M,1332,bestNN,0.414573,563.000000,7002.000000,2267,2270,1,37
deep1b_size267M,1333,bestNN,20.732594,22179.000000,4147667.000000,189400,40119226,115,70492
deep1b_size267M,1334,bestNN,24.480846,82905.000000,9260176.000000,1220365,143824725,99,70676
deep1b_size267M,1335,bestNN,10.398849,56415.000000,1336502.000000,782687,3954947,60,28991
deep1b_size267M,1336,bestNN,31.680614,338052.000000,8234913.000000,5781102,127596217,1070,70676
deep1b_size267M,1337,bestNN,17.044474,18332.000000,4685470.000000,97389,51262633,8,70670
deep1b_size267M,1338,bestNN,23.935228,18538.000000,8250240.000000,63538,123251727,12,70677
deep1b_size267M,1339,bestNN,25.882458,15483.000000,11634688.000000,59413,190718923,16,70677
deep1b_size267M,1340,bestNN,49.745121,32678.000000,15207486.000000,344696,266089505,24,70677
deep1b_size267M,1341,bestNN,36.370483,131086.000000,13694323.000000,2036906,237553386,169,70677
deep1b_size267M,1342,bestNN,13.727914,38131.000000,2856842.000000,396393,12238091,171,70399
deep1b_size267M,1343,bestNN,33.588448,115327.000000,9090343.000000,1823273,145268019,256,70677
deep1b_size267M,1344,bestNN,44.350250,76488.000000,10838001.000000,1042824,179635344,71,70677
deep1b_size267M,1345,bestNN,39.120640,44275.000000,14948654.000000,528125,250526914,58,70677
deep1b_size267M,1346,bestNN,9.315170,3968.000000,1999782.000000,14462,3823998,1,59058
deep1b_size267M,1347,bestNN,45.927540,22951.000000,16805033.000000,73946,265999134,43,70677
deep1b_size267M,1348,bestNN,31.320082,160304.000000,10580439.000000,2293994,151596074,157,70677
deep1b_size267M,1349,bestNN,19.445751,189978.000000,5083355.000000,2341638,47615681,220,70653
deep1b_size267M,1350,bestNN,17.934393,83359.000000,7004448.000000,866002,78524321,61,70659
deep1b_size267M,1351,bestNN,29.826880,55733.000000,13308846.000000,534626,213890579,39,70677
deep1b_size267M,1352,bestNN,30.365780,136198.000000,11292923.000000,2039317,187567197,208,70677
deep1b_size267M,1353,bestNN,11.261563,85859.000000,2387527.000000,1173139,7473245,229,64912
deep1b_size267M,1354,bestNN,36.270515,151431.000000,13815904.000000,2430852,237954183,631,70677
deep1b_size267M,1355,bestNN,28.852661,2072897.000000,12066106.000000,36265771,200341876,8342,70677
deep1b_size267M,1356,bestNN,36.213791,251125.000000,13252890.000000,4239375,228312195,616,70677
deep1b_size267M,1357,bestNN,22.163671,56880.000000,6987164.000000,769992,98586342,145,70676
deep1b_size267M,1358,bestNN,14.367380,116513.000000,3271345.000000,1775842,21353326,329,70425
deep1b_size267M,1359,bestNN,39.460728,34644.000000,13724406.000000,390996,238816375,47,70677
deep1b_size267M,1360,bestNN,1.349995,54503.000000,100824.000000,691621,915493,69,619
deep1b_size267M,1361,bestNN,18.915617,57311.000000,4928996.000000,780809,56790832,59,70610
deep1b_size267M,1362,bestNN,29.887274,202868.000000,10186507.000000,3329596,165475221,537,70677
deep1b_size267M,1363,bestNN,24.129417,36524.000000,10721646.000000,403802,176580991,58,70677
deep1b_size267M,1364,bestNN,27.564520,39078.000000,8131306.000000,424483,125309248,41,70670
deep1b_size267M,1365,bestNN,7.074415,113218.000000,1255353.000000,1618117,3508881,269,39739
deep1b_size267M,1366,bestNN,32.411079,89497.000000,11883122.000000,1516239,199326143,142,70677
deep1b_size267M,1367,bestNN,1.610419,41481.000000,128077.000000,499959,735966,136,2040
deep1b_size267M,1368,bestNN,18.192413,19715.000000,3272050.000000,135724,22159173,35,70324
deep1b_size267M,1369,bestNN,5.222606,115731.000000,509597.000000,719229,721223,1578,13010
deep1b_size267M,1370,bestNN,17.860249,273829.000000,3697662.000000,4426264,30707411,805,70503
deep1b_size267M,1371,bestNN,19.586229,74670.000000,4569894.000000,1032153,48321070,139,70664
deep1b_size267M,1372,bestNN,11.796482,86936.000000,3027103.000000,1282959,16718611,227,70523
deep1b_size267M,1373,bestNN,8.613585,20344.000000,1143501.000000,125978,227061,152,36732
deep1b_size267M,1374,bestNN,14.843361,102135.000000,5390053.000000,1367392,67068762,162,70675
deep1b_size267M,1375,bestNN,37.158375,86152.000000,13596104.000000,1315113,237058873,225,70677
deep1b_size267M,1376,bestNN,24.612185,47214.000000,7959638.000000,595834,121455589,146,70662
deep1b_size267M,1377,bestNN,38.738983,18089.000000,14532672.000000,110113,253874442,27,70677
deep1b_size267M,1378,bestNN,15.614827,211244.000000,3310919.000000,3398512,22535772,440,69799
deep1b_size267M,1379,bestNN,10.986030,31496.000000,1890237.000000,308208,6033225,13,50787
deep1b_size267M,1380,bestNN,17.894009,60312.000000,8354229.000000,803349,125360400,49,70674
deep1b_size267M,1381,bestNN,33.049812,126672.000000,13080415.000000,1991525,224127755,492,70677
deep1b_size267M,1382,bestNN,31.199492,69411.000000,5430809.000000,1027618,68974770,233,70588
deep1b_size267M,1383,bestNN,38.827412,46256.000000,14087336.000000,571915,246734490,150,70677
deep1b_size267M,1384,bestNN,28.451191,23132.000000,8965107.000000,161867,137543346,21,70677
deep1b_size267M,1385,bestNN,9.951620,23165.000000,1251735.000000,233092,3774656,27,27849
deep1b_size267M,1386,bestNN,12.671188,43371.000000,1811277.000000,529086,1932768,167,52089
deep1b_size267M,1387,bestNN,22.438305,191161.000000,6624547.000000,3021895,91443656,266,70675
deep1b_size267M,1388,bestNN,29.583876,125858.000000,13084599.000000,2031851,219155506,574,70677
deep1b_size267M,1389,bestNN,4.443539,11017.000000,456624.000000,46608,74244,39,14637
deep1b_size267M,1390,bestNN,16.237316,78389.000000,4119296.000000,1087108,38146224,122,70600
deep1b_size267M,1391,bestNN,29.147755,5436.000000,7650850.000000,19053,113837790,1,70677
deep1b_size267M,1392,bestNN,5.953316,44652.000000,863524.000000,545160,1828671,54,26525
deep1b_size267M,1393,bestNN,4.320940,1232.000000,206809.000000,2688,6463,1,4167
deep1b_size267M,1394,bestNN,19.152628,71229.000000,6179245.000000,1016803,82836426,85,70675
deep1b_size267M,1395,bestNN,22.697084,1163552.000000,10051569.000000,20100882,158220254,3980,70677
deep1b_size267M,1396,bestNN,16.185356,34334.000000,5385504.000000,347109,66487598,19,70662
deep1b_size267M,1397,bestNN,26.292913,72605.000000,7503596.000000,1038631,109471444,250,70673
deep1b_size267M,1398,bestNN,32.227184,338284.000000,14062771.000000,5692711,239543106,1778,70677
deep1b_size267M,1399,bestNN,44.552132,1954.000000,14793988.000000,6724,258407888,1,70677
deep1b_size267M,1400,bestNN,34.384674,42675.000000,12045456.000000,499083,200898506,63,70677
deep1b_size267M,1401,bestNN,46.697811,608452.000000,14674586.000000,10166405,255542091,2052,70677
deep1b_size267M,1402,bestNN,36.833744,114528.000000,14814926.000000,1701388,259220455,210,70677
deep1b_size267M,1403,bestNN,4.128883,117079.000000,578513.000000,1612617,2135763,236,10350
deep1b_size267M,1404,bestNN,0.103862,1789.000000,13668.000000,12763,14006,1,33
deep1b_size267M,1405,bestNN,29.871536,594713.000000,9810765.000000,10080204,155302743,1527,70676
deep1b_size267M,1406,bestNN,25.794624,38333.000000,12190228.000000,461244,205715784,64,70677
deep1b_size267M,1407,bestNN,40.317505,21960.000000,13137819.000000,127737,225483077,14,70677
deep1b_size267M,1408,bestNN,28.187511,74695.000000,9638852.000000,1064205,150196270,74,70677
deep1b_size267M,1409,bestNN,21.222136,31234.000000,6808275.000000,278780,94904239,134,70675
deep1b_size267M,1410,bestNN,53.139130,246628.000000,15195167.000000,4186917,265899628,1697,70677
deep1b_size267M,1411,bestNN,32.999485,96713.000000,11627710.000000,1498097,194564218,290,70677
deep1b_size267M,1412,bestNN,4.188136,16986.000000,1143972.000000,85931,592618,43,40211
deep1b_size267M,1413,bestNN,41.865364,210421.000000,14513757.000000,3414557,253540391,650,70677
deep1b_size267M,1414,bestNN,9.092860,55081.000000,2431678.000000,682326,5414645,132,67488
deep1b_size267M,1415,bestNN,54.778812,24895.000000,15049081.000000,253002,263881194,74,70677
deep1b_size267M,1416,bestNN,8.664437,3193.000000,1556912.000000,17793,808512,1,45809
deep1b_size267M,1417,bestNN,21.229631,172390.000000,8283818.000000,2671862,123056835,340,70638
deep1b_size267M,1418,bestNN,9.217151,14269.000000,2395684.000000,54848,1659086,17,69118
deep1b_size267M,1419,bestNN,23.568926,122364.000000,4225241.000000,1889292,39336863,183,70242
deep1b_size267M,1420,bestNN,40.487244,37415.000000,12489858.000000,413010,213187129,20,70677
deep1b_size267M,1421,bestNN,38.809189,138853.000000,8368133.000000,2250956,129404060,439,70677
deep1b_size267M,1422,bestNN,20.907545,80028.000000,8364737.000000,1151032,126866332,86,70674
deep1b_size267M,1423,bestNN,22.960556,79154.000000,9256616.000000,1121378,142328287,271,70676
deep1b_size267M,1424,bestNN,45.511383,611823.000000,15075914.000000,10562981,263846553,1498,70677
deep1b_size267M,1425,bestNN,16.551832,270421.000000,3677344.000000,4416337,29305270,1341,70102
deep1b_size267M,1426,bestNN,1.215820,1204.000000,19820.000000,5293,5298,1,234
deep1b_size267M,1427,bestNN,28.195593,312838.000000,12117453.000000,5296426,199807537,979,70677
deep1b_size267M,1428,bestNN,31.831358,22549.000000,8962356.000000,155864,138102013,8,70676
deep1b_size267M,1429,bestNN,20.118410,78332.000000,8080236.000000,1181488,120166856,140,70676
deep1b_size267M,1430,bestNN,15.571874,30851.000000,1769167.000000,331305,4516154,35,42385
deep1b_size267M,1431,bestNN,23.221548,72335.000000,8886123.000000,1002480,135230364,124,70661
deep1b_size267M,1432,bestNN,25.766680,109949.000000,12218872.000000,1659651,200241668,248,70677
deep1b_size267M,1433,bestNN,19.710051,125308.000000,5272548.000000,1878986,63030161,131,70615
deep1b_size267M,1434,bestNN,28.230621,214494.000000,8808916.000000,3479470,136331513,489,70677
deep1b_size267M,1435,bestNN,15.549923,308802.000000,2818198.000000,4760776,11988971,1186,68847
deep1b_size267M,1436,bestNN,8.625872,112378.000000,2330610.000000,1702564,6207020,233,59873
deep1b_size267M,1437,bestNN,18.570055,51296.000000,6750159.000000,656916,92253118,38,70615
deep1b_size267M,1438,bestNN,28.949060,34986.000000,6359453.000000,303447,88281704,58,70676
deep1b_size267M,1439,bestNN,13.551819,214138.000000,3584217.000000,3335941,27708915,286,68876
deep1b_size267M,1440,bestNN,18.595320,160090.000000,3282839.000000,2572988,21530538,788,70061
deep1b_size267M,1441,bestNN,12.218752,84102.000000,2068163.000000,1220262,7573489,250,61042
deep1b_size267M,1442,bestNN,40.051270,45726.000000,13883565.000000,621911,241342453,314,70677
deep1b_size267M,1443,bestNN,18.725727,92512.000000,6358469.000000,1395789,84855502,111,70676
deep1b_size267M,1444,bestNN,20.513653,6091.000000,2679032.000000,16195,9840330,1,66282
deep1b_size267M,1445,bestNN,21.581619,57546.000000,5986550.000000,740750,78532926,126,70673
deep1b_size267M,1446,bestNN,3.536994,23735.000000,1860342.000000,166838,365291,29,55059
deep1b_size267M,1447,bestNN,16.454353,20366.000000,3706091.000000,137409,27415301,39,70649
deep1b_size267M,1448,bestNN,29.389935,58072.000000,11879601.000000,783612,179643985,89,70677
deep1b_size267M,1449,bestNN,8.158396,14927.000000,1791573.000000,29913,633504,6,48274
deep1b_size267M,1450,bestNN,31.969992,69258.000000,13461881.000000,698264,178527155,73,70677
deep1b_size267M,1451,bestNN,28.257397,98947.000000,9015567.000000,1245122,124157759,113,70675
deep1b_size267M,1452,bestNN,2.044648,52615.000000,236162.000000,536320,742573,130,4338
deep1b_size267M,1453,bestNN,27.711145,91340.000000,8795180.000000,1085580,111507756,115,70675
deep1b_size267M,1454,bestNN,13.405061,48667.000000,3398667.000000,454871,16928829,165,70348
deep1b_size267M,1455,bestNN,30.288754,86977.000000,9191917.000000,921038,128505946,127,70677
deep1b_size267M,1456,bestNN,23.157341,56850.000000,4958544.000000,758589,55032308,56,70628
deep1b_size267M,1457,bestNN,26.139229,3914271.000000,14201669.000000,67442303,242488974,18321,70677
deep1b_size267M,1458,bestNN,5.477325,525.000000,609355.000000,3233,23643,1,17235
deep1b_size267M,1459,bestNN,19.503199,12094.000000,6914742.000000,41539,93333831,13,70677
deep1b_size267M,1460,bestNN,17.064028,204577.000000,5022565.000000,3286739,56922756,326,70435
deep1b_size267M,1461,bestNN,21.849575,136603.000000,9441733.000000,1840442,145049645,414,70677
deep1b_size267M,1462,bestNN,0.686124,22941.000000,60287.000000,98613,328214,5,333
deep1b_size267M,1463,bestNN,36.807327,147400.000000,15246523.000000,2422073,263461031,566,70677
deep1b_size267M,1464,bestNN,47.335777,505960.000000,14965516.000000,8627955,260364996,766,70677
deep1b_size267M,1465,bestNN,23.445410,76270.000000,7320283.000000,1089696,107201785,57,70677
deep1b_size267M,1466,bestNN,27.855705,64276.000000,8867946.000000,869748,138710591,132,70677
deep1b_size267M,1467,bestNN,12.242661,51281.000000,2858410.000000,647199,11567568,43,69561
deep1b_size267M,1468,bestNN,29.961557,45134.000000,7720368.000000,487548,110273647,63,70677
deep1b_size267M,1469,bestNN,21.950096,1994316.000000,7665120.000000,34689743,114696942,5861,70674
deep1b_size267M,1470,bestNN,18.486561,156951.000000,9765836.000000,2501038,152690329,549,70677
deep1b_size267M,1471,bestNN,14.076376,31135.000000,3602799.000000,307794,27052072,18,70176
deep1b_size267M,1472,bestNN,28.230469,102855.000000,7051381.000000,1539991,102231064,203,70672
deep1b_size267M,1473,bestNN,37.391579,58517.000000,12277682.000000,796232,204200496,194,70677
deep1b_size267M,1474,bestNN,25.864799,492430.000000,8626566.000000,8119949,130935051,686,70677
deep1b_size267M,1475,bestNN,15.043402,19908.000000,1739143.000000,158032,2790805,59,52009
deep1b_size267M,1476,bestNN,29.446882,248254.000000,9154946.000000,4119641,144829268,557,70674
deep1b_size267M,1477,bestNN,1.234537,494.000000,28030.000000,2770,2772,1,1008
deep1b_size267M,1478,bestNN,24.585571,75499.000000,8445699.000000,1139136,131381251,123,70677
deep1b_size267M,1479,bestNN,13.273512,48561.000000,2783269.000000,616031,10790833,107,69663
deep1b_size267M,1480,bestNN,32.654846,45488.000000,10264705.000000,531697,168378937,13,70677
deep1b_size267M,1481,bestNN,26.735844,65837.000000,7390946.000000,921342,108610800,62,70677
deep1b_size267M,1482,bestNN,45.957737,32780.000000,14040429.000000,320244,242976607,107,70677
deep1b_size267M,1483,bestNN,28.912329,50582.000000,7376579.000000,674785,109341294,72,70644
deep1b_size267M,1484,bestNN,28.783873,23396.000000,9736060.000000,212183,157091391,66,70677
deep1b_size267M,1485,bestNN,7.355988,1700.000000,1211764.000000,8638,829909,1,35518
deep1b_size267M,1486,bestNN,35.591034,82279.000000,10107416.000000,1161531,159628672,377,70665
deep1b_size267M,1487,bestNN,14.463384,80853.000000,3558420.000000,1163939,27117534,99,70613
deep1b_size267M,1488,bestNN,34.109592,88784.000000,14722186.000000,1284503,257120990,142,70677
deep1b_size267M,1489,bestNN,0.094883,3568.000000,14856.000000,18204,29027,1,12
deep1b_size267M,1490,bestNN,42.424473,566172.000000,15105853.000000,9563988,263429128,1272,70677
deep1b_size267M,1491,bestNN,3.970123,2505.000000,536336.000000,17080,41504,1,12714
deep1b_size267M,1492,bestNN,15.652084,113274.000000,2519595.000000,1519265,7186262,321,66527
deep1b_size267M,1493,bestNN,17.091249,45250.000000,2869343.000000,587375,13216638,89,68765
deep1b_size267M,1494,bestNN,31.327972,64932.000000,11375204.000000,890427,186132688,123,70675
deep1b_size267M,1495,bestNN,7.862090,59327.000000,1421042.000000,809125,4384736,41,34128
deep1b_size267M,1496,bestNN,37.477581,164504.000000,12236823.000000,2731442,207819667,383,70677
deep1b_size267M,1497,bestNN,6.515964,12376.000000,1040365.000000,34815,164465,12,25779
deep1b_size267M,1498,bestNN,9.742767,34309.000000,1895038.000000,394659,4077610,59,54428
deep1b_size267M,1499,bestNN,26.656166,3499.000000,10168368.000000,14527,160675158,1,70677
deep1b_size267M,1500,bestNN,5.136789,20954.000000,1058432.000000,154999,370243,18,31581
deep1b_size267M,1501,bestNN,0.209934,1444.000000,14531.000000,10874,11207,1,47
deep1b_size267M,1502,bestNN,0.333738,2051.000000,24019.000000,6227,32469,1,235
deep1b_size267M,1503,bestNN,15.342713,55257.000000,3591824.000000,702643,27172538,26,69888
deep1b_size267M,1504,bestNN,35.302948,355905.000000,14500835.000000,6085079,251611011,763,70677
deep1b_size267M,1505,bestNN,31.658278,147271.000000,14090990.000000,2409062,240816581,343,70677
deep1b_size267M,1506,bestNN,29.927423,824944.000000,13413289.000000,13960312,230952550,1862,70677
deep1b_size267M,1507,bestNN,15.781647,20677.000000,1937823.000000,152049,3333808,20,54615
deep1b_size267M,1508,bestNN,9.489596,174233.000000,1324210.000000,2637538,4883039,262,28822
deep1b_size267M,1509,bestNN,31.902647,65419.000000,12580604.000000,962588,214641239,93,70677
deep1b_size267M,1510,bestNN,25.106440,27237.000000,2845008.000000,198987,14224721,38,65930
deep1b_size267M,1511,bestNN,27.956215,109127.000000,7623481.000000,1701665,111199662,192,70672
deep1b_size267M,1512,bestNN,54.874386,77583.000000,14596447.000000,1129770,255262710,164,70677
deep1b_size267M,1513,bestNN,30.206367,240677.000000,12311279.000000,3920600,209212887,359,70677
deep1b_size267M,1514,bestNN,38.546810,14390.000000,12845013.000000,46118,220107037,13,70677
deep1b_size267M,1515,bestNN,30.203838,247235.000000,11779433.000000,4105232,197840521,413,70677
deep1b_size267M,1516,bestNN,36.879406,304996.000000,13618557.000000,5518181,235289175,758,70677
deep1b_size267M,1517,bestNN,19.623987,89826.000000,5798850.000000,1392136,75497721,86,70674
deep1b_size267M,1518,bestNN,35.290649,1120991.000000,14979722.000000,19663331,262596997,2525,70677
deep1b_size267M,1519,bestNN,52.749619,69098.000000,14855617.000000,970331,259784224,68,70677
deep1b_size267M,1520,bestNN,31.635162,124029.000000,12818180.000000,1929923,215169375,167,70677
deep1b_size267M,1521,bestNN,14.988997,104092.000000,3072709.000000,1540324,16888216,392,70473
deep1b_size267M,1522,bestNN,23.607594,36990.000000,7715868.000000,414288,114007328,46,70615
deep1b_size267M,1523,bestNN,26.900583,255986.000000,7991444.000000,4174401,117637638,505,70674
deep1b_size267M,1524,bestNN,21.518568,5457.000000,5313486.000000,19316,64701410,1,70520
deep1b_size267M,1525,bestNN,0.341695,8148.000000,11325.000000,18728,18917,41,64
deep1b_size267M,1526,bestNN,2.113560,985.000000,186792.000000,6508,8174,1,3728
deep1b_size267M,1527,bestNN,12.532830,50716.000000,1764036.000000,602049,1848361,270,53709
deep1b_size267M,1528,bestNN,24.713493,47534.000000,7040621.000000,638157,99611560,136,70675
deep1b_size267M,1529,bestNN,17.098288,39908.000000,3710685.000000,493078,30518186,81,70309
deep1b_size267M,1530,bestNN,3.645130,25056.000000,909878.000000,180969,390631,32,27731
deep1b_size267M,1531,bestNN,27.418846,2788.000000,3789102.000000,9273,34056894,1,70652
deep1b_size267M,1532,bestNN,7.834965,56523.000000,1613714.000000,750048,4104134,120,50989
deep1b_size267M,1533,bestNN,10.680677,1103.000000,2502685.000000,5445,6113658,1,66360
deep1b_size267M,1534,bestNN,10.811143,58269.000000,1284140.000000,661546,1130063,242,34742
deep1b_size267M,1535,bestNN,16.923019,38710.000000,5073804.000000,402797,58500922,9,70604
deep1b_size267M,1536,bestNN,12.207928,68027.000000,2707300.000000,939603,9626783,112,68638
deep1b_size267M,1537,bestNN,26.458809,138351.000000,9984981.000000,2151172,161958087,141,70677
deep1b_size267M,1538,bestNN,41.453575,98827.000000,13883804.000000,1530254,240963298,298,70677
deep1b_size267M,1539,bestNN,32.709988,40326.000000,12781411.000000,497142,212986802,89,70675
deep1b_size267M,1540,bestNN,24.240812,882022.000000,10003664.000000,15128842,158044753,3969,70677
deep1b_size267M,1541,bestNN,25.822161,39398.000000,10088776.000000,487860,159750405,84,70677
deep1b_size267M,1542,bestNN,42.316349,12130.000000,14790622.000000,5563,258775196,4,70677
deep1b_size267M,1543,bestNN,33.188728,14478.000000,11887991.000000,41626,199745398,11,70677
deep1b_size267M,1544,bestNN,21.312145,21983.000000,5089415.000000,162065,60244786,37,70669
deep1b_size267M,1545,bestNN,36.785904,91307.000000,13719229.000000,1601687,235570667,250,70677
deep1b_size267M,1546,bestNN,22.243748,729.000000,6702930.000000,3762,91820235,1,70675
deep1b_size267M,1547,bestNN,2.051236,6704.000000,406491.000000,2487,9306,10,13488
deep1b_size267M,1548,bestNN,39.359554,49130.000000,11428229.000000,599830,190149803,84,70677
deep1b_size267M,1549,bestNN,33.903812,143205.000000,8388855.000000,2255263,126211647,168,70662
deep1b_size267M,1550,bestNN,24.602377,571206.000000,6018907.000000,9568160,70594238,3682,70672
deep1b_size267M,1551,bestNN,26.167419,120358.000000,7882963.000000,1453600,107052377,154,70676
deep1b_size267M,1552,bestNN,35.912449,88123.000000,16277728.000000,1137789,238881174,272,70677
deep1b_size267M,1553,bestNN,34.025116,164431.000000,14579803.000000,2278328,213782088,437,70677
deep1b_size267M,1554,bestNN,38.085258,430616.000000,14855860.000000,6236950,244462740,1189,70677
deep1b_size267M,1555,bestNN,32.043083,59012.000000,13342208.000000,787261,226378508,161,70677
deep1b_size267M,1556,bestNN,19.742126,277983.000000,5962811.000000,4617724,78066248,1082,70676
deep1b_size267M,1557,bestNN,28.386904,38957.000000,14796855.000000,892200,259593906,147,70677
deep1b_size267M,1558,bestNN,23.416672,86355.000000,11218701.000000,1324492,180946209,148,70677
deep1b_size267M,1559,bestNN,15.245398,46017.000000,2884521.000000,515426,13635445,50,68802
deep1b_size267M,1560,bestNN,14.101076,71814.000000,3197495.000000,933203,20004663,67,68783
deep1b_size267M,1561,bestNN,20.139515,177803.000000,8225834.000000,2880973,121807284,333,70676
deep1b_size267M,1562,bestNN,24.241344,22104.000000,10997818.000000,146293,175748637,37,70677
deep1b_size267M,1563,bestNN,16.289568,160681.000000,3442386.000000,2640268,25061275,421,70473
deep1b_size267M,1564,bestNN,20.712475,229639.000000,7204936.000000,3633039,101997537,818,70677
deep1b_size267M,1565,bestNN,30.346188,16632.000000,9413984.000000,43348,150907844,7,70677
deep1b_size267M,1566,bestNN,11.753755,43217.000000,2083509.000000,558963,4152874,97,56559
deep1b_size267M,1567,bestNN,6.877903,1513.000000,943252.000000,10289,173390,1,25129
deep1b_size267M,1568,bestNN,16.824842,196728.000000,3093184.000000,3140232,17416723,413,69265
deep1b_size267M,1569,bestNN,5.257162,5181.000000,130382.000000,5803,7735,25,5571
deep1b_size267M,1570,bestNN,36.515396,50623.000000,8215952.000000,615108,125942269,83,70673
deep1b_size267M,1571,bestNN,13.939158,138398.000000,2865067.000000,2090693,11876152,1270,70632
deep1b_size267M,1572,bestNN,1.649221,7474.000000,40353.000000,28801,35913,12,840
deep1b_size267M,1573,bestNN,20.736738,32471.000000,3935500.000000,341543,34610173,49,70608
deep1b_size267M,1574,bestNN,23.632927,19833.000000,7295690.000000,141934,103586505,56,70677
deep1b_size267M,1575,bestNN,0.204423,2120.000000,8529.000000,6128,6159,1,16
deep1b_size267M,1576,bestNN,20.905815,143204.000000,5976491.000000,2256973,78465474,325,70671
deep1b_size267M,1577,bestNN,20.955061,46493.000000,5619125.000000,567771,69404497,125,70673
deep1b_size267M,1578,bestNN,32.245144,103521.000000,12700082.000000,1518077,216691780,98,70677
deep1b_size267M,1579,bestNN,39.329895,32651.000000,15103448.000000,311306,263070742,32,70677
deep1b_size267M,1580,bestNN,23.780355,63977.000000,10088374.000000,898486,159333727,138,70677
deep1b_size267M,1581,bestNN,26.995667,130085.000000,11668181.000000,1980024,188398781,374,70677
deep1b_size267M,1582,bestNN,35.877274,22428.000000,14708860.000000,108806,255648745,4,70677
deep1b_size267M,1583,bestNN,0.007936,1756.000000,9820.000000,9942,9959,1,3
deep1b_size267M,1584,bestNN,25.922213,63168.000000,8331748.000000,903478,126667147,92,70675
deep1b_size267M,1585,bestNN,40.066952,291409.000000,15044395.000000,4993253,263320157,1011,70677
deep1b_size267M,1586,bestNN,1.203807,1728.000000,50362.000000,9074,24555,1,554
deep1b_size267M,1587,bestNN,30.020655,157532.000000,9217494.000000,2498055,145154076,265,70677
deep1b_size267M,1588,bestNN,28.320494,255174.000000,9109585.000000,4249140,140284988,365,70677
deep1b_size267M,1589,bestNN,44.762169,169623.000000,13759083.000000,2631664,236028906,298,70677
deep1b_size267M,1590,bestNN,5.014039,39967.000000,432919.000000,414785,543415,126,15843
deep1b_size267M,1591,bestNN,6.168043,43665.000000,579217.000000,584497,2065216,20,9595
deep1b_size267M,1592,bestNN,38.462372,32523.000000,12727731.000000,332741,214839418,24,70677
deep1b_size267M,1593,bestNN,19.927376,49400.000000,4228042.000000,545077,40592322,20,70508
deep1b_size267M,1594,bestNN,16.787140,49942.000000,3939777.000000,576724,34725279,39,70629
deep1b_size267M,1595,bestNN,11.852897,97346.000000,2936334.000000,1399449,15275574,126,66339
deep1b_size267M,1596,bestNN,18.265316,33201.000000,4383787.000000,338606,43326890,41,70438
deep1b_size267M,1597,bestNN,12.079130,14776.000000,2397929.000000,53985,5910802,12,66378
deep1b_size267M,1598,bestNN,6.197198,48201.000000,1319610.000000,603025,3143088,33,39043
deep1b_size267M,1599,bestNN,29.248011,712845.000000,13328921.000000,12176702,221599286,2247,70677
deep1b_size267M,1600,bestNN,22.601559,56646.000000,4922369.000000,748323,56200244,108,70658
deep1b_size267M,1601,bestNN,26.841368,26142.000000,11190241.000000,252704,182202709,91,70677
deep1b_size267M,1602,bestNN,12.234950,35738.000000,1940226.000000,367424,7482438,33,50867
deep1b_size267M,1603,bestNN,24.702383,4801.000000,5242588.000000,16507,63452586,1,70530
deep1b_size267M,1604,bestNN,23.677042,49619.000000,5426721.000000,682354,65473731,85,70575
deep1b_size267M,1605,bestNN,17.099810,87326.000000,4468833.000000,1268457,45797476,78,70625
deep1b_size267M,1606,bestNN,24.421562,28485.000000,7980469.000000,182356,120424637,5,70676
deep1b_size267M,1607,bestNN,0.476063,1293.000000,38196.000000,8587,8593,1,316
deep1b_size267M,1608,bestNN,23.637405,53543.000000,9499546.000000,662698,145298583,101,70677
deep1b_size267M,1609,bestNN,19.330395,75771.000000,4350230.000000,1040276,42301776,86,70666
deep1b_size267M,1610,bestNN,22.062428,78589.000000,6489297.000000,1138578,87380583,113,70671
deep1b_size267M,1611,bestNN,23.308214,48843.000000,4697488.000000,898429,52267945,68,70654
deep1b_size267M,1612,bestNN,4.511147,4407.000000,96844.000000,19775,89230,1,4912
deep1b_size267M,1613,bestNN,28.454311,153085.000000,8822718.000000,2412370,132722896,436,70672
deep1b_size267M,1614,bestNN,15.231976,79839.000000,3440540.000000,1152695,24294016,106,69289
deep1b_size267M,1615,bestNN,16.281427,21302.000000,5718818.000000,132339,70908751,20,70676
deep1b_size267M,1616,bestNN,18.185246,459935.000000,8432931.000000,7978910,129569299,773,70677
deep1b_size267M,1617,bestNN,3.487513,22464.000000,248626.000000,92741,246883,15,4516
deep1b_size267M,1618,bestNN,23.041218,1868.000000,5330295.000000,8001,65250887,1,70675
deep1b_size267M,1619,bestNN,25.698654,13314.000000,10491542.000000,25661,167011683,9,70677
deep1b_size267M,1620,bestNN,7.047245,28562.000000,1406355.000000,310027,3717463,22,41854
deep1b_size267M,1621,bestNN,15.210506,77736.000000,2941304.000000,1059983,13335054,191,69821
deep1b_size267M,1622,bestNN,25.499050,80903.000000,10458003.000000,1070075,165501109,98,70677
deep1b_size267M,1623,bestNN,25.728724,226780.000000,9273283.000000,3783562,141807043,691,70677
deep1b_size267M,1624,bestNN,32.668503,29384.000000,11367864.000000,317454,183901493,48,70677
deep1b_size267M,1625,bestNN,27.825804,35366.000000,5743915.000000,401338,73425163,142,70677
deep1b_size267M,1626,bestNN,39.114609,343036.000000,14464284.000000,5940954,252696063,1128,70677
deep1b_size267M,1627,bestNN,34.977921,961943.000000,12178471.000000,16917727,206315122,3133,70677
deep1b_size267M,1628,bestNN,24.053322,308351.000000,8069685.000000,5212111,119268078,510,70677
deep1b_size267M,1629,bestNN,23.590467,31833.000000,4261629.000000,328371,43348238,62,70491
deep1b_size267M,1630,bestNN,29.513107,29228.000000,6605060.000000,421877,93202867,70,70609
deep1b_size267M,1631,bestNN,7.727812,13183.000000,1026451.000000,32677,127183,47,26339
deep1b_size267M,1632,bestNN,15.384046,29967.000000,3440395.000000,351112,24775570,109,70507
deep1b_size267M,1633,bestNN,3.096672,9400.000000,306025.000000,33963,47543,63,11825
deep1b_size267M,1634,bestNN,35.692329,98347.000000,12239429.000000,1468479,207789602,168,70677
deep1b_size267M,1635,bestNN,21.527325,434315.000000,7770547.000000,7489895,113591099,621,70677
deep1b_size267M,1636,bestNN,37.055706,14895.000000,11709552.000000,54606,196253727,13,70677
deep1b_size267M,1637,bestNN,20.656811,48571.000000,5273918.000000,601663,64995992,112,70634
deep1b_size267M,1638,bestNN,19.517242,37439.000000,6976651.000000,369237,98576255,6,70649
deep1b_size267M,1639,bestNN,15.620751,101606.000000,3338418.000000,1457006,22761248,191,69984
deep1b_size267M,1640,bestNN,14.144824,75825.000000,3710958.000000,1042427,30772481,137,69795
deep1b_size267M,1641,bestNN,8.065165,24345.000000,682431.000000,174339,776644,7,17018
deep1b_size267M,1642,bestNN,12.708122,23749.000000,1627546.000000,221426,2852931,76,46271
deep1b_size267M,1643,bestNN,13.668601,31952.000000,2838984.000000,239146,12113321,55,69619
deep1b_size267M,1644,bestNN,21.450861,161096.000000,4143911.000000,2616193,40485721,406,70644
deep1b_size267M,1645,bestNN,9.988039,70010.000000,2845021.000000,1002816,11252937,99,70258
deep1b_size267M,1646,bestNN,27.129288,183032.000000,8076980.000000,3026142,122018857,390,70677
deep1b_size267M,1647,bestNN,26.658482,14175.000000,8382353.000000,53862,125533619,10,70677
deep1b_size267M,1648,bestNN,23.962421,566401.000000,7808962.000000,9814828,117088639,1234,70673
deep1b_size267M,1649,bestNN,18.492271,40271.000000,3112472.000000,419551,17667633,44,70086
deep1b_size267M,1650,bestNN,40.029785,15192.000000,14702803.000000,65528,258304596,16,70677
deep1b_size267M,1651,bestNN,32.552361,64483.000000,7614373.000000,891532,108302547,230,70677
deep1b_size267M,1652,bestNN,44.659489,209376.000000,14052114.000000,3486315,240239484,1017,70677
deep1b_size267M,1653,bestNN,6.234871,1516.000000,260260.000000,10979,16957,1,11163
deep1b_size267M,1654,bestNN,20.002472,24117.000000,2788159.000000,201368,12184672,13,68958
deep1b_size267M,1655,bestNN,13.110937,28492.000000,1466882.000000,262092,5034786,4,33575
deep1b_size267M,1656,bestNN,30.607594,115201.000000,13122766.000000,1829577,221912122,411,70677
deep1b_size267M,1657,bestNN,26.042259,313790.000000,7442780.000000,5252160,111518353,687,70677
deep1b_size267M,1658,bestNN,3.115406,731.000000,145944.000000,4238,14927,1,5419
deep1b_size267M,1659,bestNN,26.273811,28371.000000,9758425.000000,293784,154370024,25,70677
deep1b_size267M,1660,bestNN,9.222334,29201.000000,2637929.000000,268360,7874345,36,69708
deep1b_size267M,1661,bestNN,31.035353,53034.000000,12461834.000000,740656,213883470,196,70677
deep1b_size267M,1662,bestNN,16.505123,55935.000000,4189482.000000,706882,40694332,48,70567
deep1b_size267M,1663,bestNN,5.354557,16709.000000,835354.000000,78825,223817,11,26595
deep1b_size267M,1664,bestNN,27.100555,85461.000000,10728535.000000,1300116,174760143,221,70677
deep1b_size267M,1665,bestNN,14.033360,32243.000000,2484276.000000,318575,12193624,65,64488
deep1b_size267M,1666,bestNN,11.189397,20185.000000,3095536.000000,142003,18438588,34,70522
deep1b_size267M,1667,bestNN,36.609432,617440.000000,16374821.000000,10713386,249969921,2074,70677
deep1b_size267M,1668,bestNN,26.206455,60032.000000,12214809.000000,722341,183461570,80,70677
deep1b_size267M,1669,bestNN,24.451452,616497.000000,13098492.000000,8747755,184438570,1062,70677
deep1b_size267M,1670,bestNN,4.708549,18509.000000,207170.000000,151320,287351,30,5053
deep1b_size267M,1671,bestNN,51.506317,45658.000000,14946898.000000,427213,254615377,16,70677
deep1b_size267M,1672,bestNN,0.366181,677.000000,12412.000000,4865,4886,1,181
deep1b_size267M,1673,bestNN,4.579609,54187.000000,991764.000000,500714,674256,264,31447
deep1b_size267M,1674,bestNN,23.826427,21900.000000,11182620.000000,125236,180886917,3,70675
deep1b_size267M,1675,bestNN,0.354767,9841.000000,14690.000000,27872,31605,31,111
deep1b_size267M,1676,bestNN,25.294701,128485.000000,3642294.000000,2310918,29777381,569,70595
deep1b_size267M,1677,bestNN,2.078857,198.000000,352935.000000,429,554,1,8598
deep1b_size267M,1678,bestNN,17.262018,95910.000000,4241460.000000,1620716,42217962,120,70646
deep1b_size267M,1679,bestNN,2.210868,7828.000000,99292.000000,16053,18852,41,3768
deep1b_size267M,1680,bestNN,42.001858,821780.000000,14123444.000000,14357502,246837820,1901,70677
deep1b_size267M,1681,bestNN,16.713705,37992.000000,3893840.000000,427628,34725879,19,70487
deep1b_size267M,1682,bestNN,19.348795,66260.000000,5910331.000000,967890,77405381,238,70677
deep1b_size267M,1683,bestNN,42.468517,2538608.000000,13424813.000000,44538506,232798836,13139,70677
deep1b_size267M,1684,bestNN,29.488688,257191.000000,7604659.000000,4233474,113983951,422,70677
deep1b_size267M,1685,bestNN,28.955631,7092.000000,9754268.000000,19582,158542872,1,70673
deep1b_size267M,1686,bestNN,15.604061,16846.000000,1904512.000000,86853,3618519,48,55527
deep1b_size267M,1687,bestNN,36.197491,60401.000000,13018004.000000,899630,222010494,200,70677
deep1b_size267M,1688,bestNN,7.648438,4200.000000,1160937.000000,14637,1569594,1,34689
deep1b_size267M,1689,bestNN,0.575639,224.000000,11224.000000,794,863,1,127
deep1b_size267M,1690,bestNN,7.880287,19490.000000,2559837.000000,93169,5263586,2,69988
deep1b_size267M,1691,bestNN,39.056305,1491552.000000,14613631.000000,26598920,256382545,4385,70677
deep1b_size267M,1692,bestNN,5.297601,32730.000000,1410584.000000,151374,226586,627,48760
deep1b_size267M,1693,bestNN,28.002602,65475.000000,10698015.000000,910357,174658304,54,70677
deep1b_size267M,1694,bestNN,16.982143,128538.000000,2550076.000000,1979720,11079897,212,60814
deep1b_size267M,1695,bestNN,43.017681,106923.000000,13215016.000000,1590287,228751047,191,70677
deep1b_size267M,1696,bestNN,17.500553,16606.000000,2131041.000000,76388,4017932,21,60640
deep1b_size267M,1697,bestNN,17.828928,13447.000000,3511106.000000,29386,28089859,9,70595
deep1b_size267M,1698,bestNN,45.773087,309070.000000,15036625.000000,5310374,265754993,1019,70677
deep1b_size267M,1699,bestNN,32.599873,151393.000000,8499770.000000,2455728,133112336,431,70676
deep1b_size267M,1700,bestNN,35.876179,98126.000000,13479978.000000,1506574,230546987,223,70677
deep1b_size267M,1701,bestNN,0.256549,1834.000000,20400.000000,14554,14574,1,73
deep1b_size267M,1702,bestNN,6.031497,44414.000000,465631.000000,365499,516850,318,11131
deep1b_size267M,1703,bestNN,31.214233,570.000000,7120590.000000,1646,105769403,1,70642
deep1b_size267M,1704,bestNN,17.022581,143756.000000,5081112.000000,2313870,60339949,226,70390
deep1b_size267M,1705,bestNN,28.874023,51013.000000,14489064.000000,684688,250598143,182,70677
deep1b_size267M,1706,bestNN,43.526779,97162.000000,14059967.000000,1490654,246068009,141,70677
deep1b_size267M,1707,bestNN,11.911284,3024.000000,1270621.000000,15866,2228872,1,36207
deep1b_size267M,1708,bestNN,43.813457,537423.000000,15067622.000000,9454966,263890431,1383,70677
deep1b_size267M,1709,bestNN,19.537027,88942.000000,6562058.000000,1318406,89845949,81,70559
deep1b_size267M,1710,bestNN,47.622498,1047060.000000,14850561.000000,18285947,261846935,3078,70677
deep1b_size267M,1711,bestNN,14.219612,51204.000000,2880923.000000,645843,15161286,30,65754
deep1b_size267M,1712,bestNN,53.602142,296766.000000,14772979.000000,5095203,259354810,658,70677
deep1b_size267M,1713,bestNN,29.514540,21945.000000,11290979.000000,174593,186874432,33,70677
deep1b_size267M,1714,bestNN,53.462425,34983.000000,15030465.000000,420837,265968944,30,70677
deep1b_size267M,1715,bestNN,30.246473,107357.000000,10934022.000000,1711759,178468051,334,70677
deep1b_size267M,1716,bestNN,35.457081,243141.000000,12575659.000000,4057695,214178844,509,70677
deep1b_size267M,1717,bestNN,11.881904,21561.000000,2455132.000000,152699,3935653,54,69810
deep1b_size267M,1718,bestNN,16.660160,68087.000000,5912654.000000,952626,77256135,62,70674
deep1b_size267M,1719,bestNN,43.358517,855051.000000,13828891.000000,15161125,242032478,3720,70677
deep1b_size267M,1720,bestNN,37.237709,304716.000000,12758410.000000,5073823,219359023,653,70677
deep1b_size267M,1721,bestNN,36.011692,4497.000000,13692052.000000,14932,239035227,1,70677
deep1b_size267M,1722,bestNN,10.293074,14350.000000,2280953.000000,34392,3487751,6,62368
deep1b_size267M,1723,bestNN,21.366615,14896.000000,3883473.000000,73253,35999705,37,70637
deep1b_size267M,1724,bestNN,40.115040,5537596.000000,13822892.000000,98043092,241751862,24324,70677
deep1b_size267M,1725,bestNN,36.881248,69713.000000,13011833.000000,1005143,224091211,112,70677
deep1b_size267M,1726,bestNN,25.504656,45778.000000,8775032.000000,568908,134924394,82,70677
deep1b_size267M,1727,bestNN,38.466011,231002.000000,11659977.000000,3713946,197948192,886,70677
deep1b_size267M,1728,bestNN,18.549191,62002.000000,4078203.000000,826330,38182671,70,70561
deep1b_size267M,1729,bestNN,18.879015,29893.000000,4110939.000000,307096,40691228,76,70652
deep1b_size267M,1730,bestNN,43.427868,283105.000000,14784537.000000,4889772,261545196,1403,70677
deep1b_size267M,1731,bestNN,19.355738,284490.000000,4974668.000000,4905926,58359366,769,70676
deep1b_size267M,1732,bestNN,25.433245,58068.000000,11947805.000000,828778,201195420,98,70677
deep1b_size267M,1733,bestNN,0.184919,1425.000000,14881.000000,10874,10877,1,77
deep1b_size267M,1734,bestNN,27.255554,161961.000000,10567502.000000,2636933,176267123,321,70677
deep1b_size267M,1735,bestNN,35.147789,73121.000000,14314740.000000,1055860,244763505,146,70677
deep1b_size267M,1736,bestNN,19.146982,68053.000000,6608484.000000,978868,91918899,287,70677
deep1b_size267M,1737,bestNN,15.781651,46680.000000,2718738.000000,557117,12059684,64,68734
deep1b_size267M,1738,bestNN,49.188759,119474.000000,11830415.000000,1841950,200865405,334,70677
deep1b_size267M,1739,bestNN,23.138910,24912.000000,9169157.000000,202769,139985081,42,70677
deep1b_size267M,1740,bestNN,20.494423,40353.000000,8257549.000000,422480,123976511,17,70677
deep1b_size267M,1741,bestNN,33.159206,529483.000000,10561094.000000,9028918,175041497,779,70677
deep1b_size267M,1742,bestNN,30.956640,475286.000000,9508082.000000,8240747,149719731,2460,70676
deep1b_size267M,1743,bestNN,39.938599,51393.000000,9420118.000000,697311,152115849,80,70677
deep1b_size267M,1744,bestNN,38.388721,1115155.000000,13733568.000000,19349803,239388499,3939,70677
deep1b_size267M,1745,bestNN,34.755310,52410.000000,11297312.000000,694631,190110172,49,70677
deep1b_size267M,1746,bestNN,50.876331,36315.000000,15013825.000000,420348,264980527,122,70677
deep1b_size267M,1747,bestNN,28.629499,815209.000000,8871932.000000,14337070,140882699,4230,70677
deep1b_size267M,1748,bestNN,33.529198,201021.000000,13714645.000000,3397865,240982838,619,70677
deep1b_size267M,1749,bestNN,27.507721,199452.000000,10320536.000000,3299259,167337471,485,70677
deep1b_size267M,1750,bestNN,25.596394,77083.000000,5913652.000000,1012339,79052634,67,70670
deep1b_size267M,1751,bestNN,38.927296,60119.000000,12892808.000000,846469,223352916,77,70677
deep1b_size267M,1752,bestNN,42.961140,75305.000000,14733021.000000,1067105,251884746,78,70677
deep1b_size267M,1753,bestNN,27.294357,38427.000000,11276991.000000,358164,162001094,13,70677
deep1b_size267M,1754,bestNN,23.352493,67056.000000,8036844.000000,776475,98909610,55,70676
deep1b_size267M,1755,bestNN,36.628426,1187877.000000,15491164.000000,17567226,225428179,6010,70677
deep1b_size267M,1756,bestNN,6.134283,2432.000000,619733.000000,9778,1054752,1,19129
deep1b_size267M,1757,bestNN,42.422241,61240.000000,13144062.000000,710345,216704489,38,70677
deep1b_size267M,1758,bestNN,19.886093,45256.000000,4907709.000000,512096,55212098,26,70658
deep1b_size267M,1759,bestNN,1.673314,23675.000000,179504.000000,186319,424693,10,2891
deep1b_size267M,1760,bestNN,53.097523,64185.000000,15160461.000000,914695,266651184,206,70677
deep1b_size267M,1761,bestNN,37.448902,30073.000000,13534949.000000,310439,234144656,41,70677
deep1b_size267M,1762,bestNN,24.434372,86760.000000,5319519.000000,1328016,64725146,528,70604
deep1b_size267M,1763,bestNN,8.988054,2159.000000,1378322.000000,6700,2769298,1,43141
deep1b_size267M,1764,bestNN,26.259378,405045.000000,10812503.000000,7263630,175473595,1058,70677
deep1b_size267M,1765,bestNN,37.665482,105769.000000,11531728.000000,1631660,191297597,229,70677
deep1b_size267M,1766,bestNN,9.714992,29526.000000,1073221.000000,301763,834135,40,23180
deep1b_size267M,1767,bestNN,0.520008,13812.000000,20949.000000,78669,81979,116,326
deep1b_size267M,1768,bestNN,15.406986,423.000000,2819180.000000,1080,12688146,1,70032
deep1b_size267M,1769,bestNN,22.332598,60990.000000,5372490.000000,873291,66822259,100,70671
deep1b_size267M,1770,bestNN,42.870846,145586.000000,14392459.000000,2339726,252352316,455,70677
deep1b_size267M,1771,bestNN,0.209696,2944.000000,10314.000000,17643,17645,1,18
deep1b_size267M,1772,bestNN,15.548780,72452.000000,3870204.000000,1103103,34460890,124,70666
deep1b_size267M,1773,bestNN,28.871958,117285.000000,6365076.000000,1877914,89263055,326,70539
deep1b_size267M,1774,bestNN,28.571157,70104.000000,8609740.000000,981062,134754154,54,70677
deep1b_size267M,1775,bestNN,28.917519,89523.000000,13290267.000000,1394122,224810725,204,70677
deep1b_size267M,1776,bestNN,0.043537,1714.000000,11214.000000,15199,15239,1,5
deep1b_size267M,1777,bestNN,18.350561,45340.000000,3657567.000000,529006,29122402,38,70201
deep1b_size267M,1778,bestNN,26.104733,30825.000000,10878728.000000,267605,177662631,10,70677
deep1b_size267M,1779,bestNN,27.015009,296245.000000,12394048.000000,4787776,205256130,855,70677
deep1b_size267M,1780,bestNN,3.391054,1634.000000,139537.000000,11108,38479,1,3580
deep1b_size267M,1781,bestNN,37.419724,285106.000000,9484387.000000,4850238,153095315,847,70677
deep1b_size267M,1782,bestNN,32.834084,5133054.000000,14618310.000000,90705798,256147313,21007,70677
deep1b_size267M,1783,bestNN,22.155399,40339.000000,7329142.000000,527497,106992760,145,70676
deep1b_size267M,1784,bestNN,13.367030,42235.000000,3306735.000000,523171,22403309,66,70425
deep1b_size267M,1785,bestNN,31.088928,26145.000000,7336313.000000,231053,107020004,35,70677
deep1b_size267M,1786,bestNN,19.518625,14571.000000,3517044.000000,54275,27319098,30,70676
deep1b_size267M,1787,bestNN,20.010532,62322.000000,6959327.000000,857497,99404949,57,70672
deep1b_size267M,1788,bestNN,35.755299,521383.000000,14152525.000000,8681383,247865155,1233,70677
deep1b_size267M,1789,bestNN,7.789664,2414.000000,1500805.000000,14158,2415486,1,42725
deep1b_size267M,1790,bestNN,38.636887,30951.000000,13490466.000000,297126,234161826,29,70677
deep1b_size267M,1791,bestNN,11.318037,74335.000000,1884111.000000,1000362,3582511,244,53183
deep1b_size267M,1792,bestNN,23.930763,26958.000000,8507562.000000,268772,130020751,81,70677
deep1b_size267M,1793,bestNN,21.364397,104879.000000,3736379.000000,1629500,31657899,130,70623
deep1b_size267M,1794,bestNN,33.329018,125721.000000,14352562.000000,2056053,251182308,544,70677
deep1b_size267M,1795,bestNN,21.729946,27128.000000,7966810.000000,260754,119827229,35,70677
deep1b_size267M,1796,bestNN,32.990669,18553.000000,13089394.000000,83646,224684087,6,70677
deep1b_size267M,1797,bestNN,20.399702,47939.000000,7117744.000000,569501,101619922,38,70675
deep1b_size267M,1798,bestNN,29.685804,300403.000000,6849109.000000,4971444,96967703,772,70668
deep1b_size267M,1799,bestNN,24.318171,63732.000000,9126766.000000,839622,142846607,63,70677
deep1b_size267M,1800,bestNN,29.239988,48455.000000,10788494.000000,670506,180159604,96,70677
deep1b_size267M,1801,bestNN,1.821646,23117.000000,276844.000000,112499,302132,7,4779
deep1b_size267M,1802,bestNN,31.394997,272645.000000,15246278.000000,4496779,261094077,697,70677
deep1b_size267M,1803,bestNN,29.722223,108173.000000,11675829.000000,1615645,194817035,361,70677
deep1b_size267M,1804,bestNN,8.314468,26437.000000,1455410.000000,244267,2742532,22,40680
deep1b_size267M,1805,bestNN,35.413574,579071.000000,9387986.000000,10146140,151407361,2780,70677
deep1b_size267M,1806,bestNN,22.476820,21855.000000,6831175.000000,189784,96063233,31,70652
deep1b_size267M,1807,bestNN,33.077431,389235.000000,11289870.000000,6450287,190266514,1367,70677
deep1b_size267M,1808,bestNN,21.976000,116554.000000,7536953.000000,1880279,109215551,140,70677
deep1b_size267M,1809,bestNN,45.575569,116956.000000,14840201.000000,1877525,261479853,233,70677
deep1b_size267M,1810,bestNN,40.368088,50058.000000,11604868.000000,639759,195741296,62,70677
deep1b_size267M,1811,bestNN,4.594006,1200.000000,1233930.000000,7183,85362,1,40009
deep1b_size267M,1812,bestNN,26.783684,34807.000000,11606011.000000,389145,192507741,37,70677
deep1b_size267M,1813,bestNN,16.637941,5861.000000,3598201.000000,19011,28689090,1,70405
deep1b_size267M,1814,bestNN,13.562710,62080.000000,3456831.000000,857698,27339116,59,68926
deep1b_size267M,1815,bestNN,15.354491,72426.000000,4853718.000000,997186,55684553,78,70582
deep1b_size267M,1816,bestNN,24.498968,160803.000000,5663733.000000,2616659,73612172,315,70675
deep1b_size267M,1817,bestNN,22.981731,95889.000000,7033784.000000,1480680,101941330,148,70650
deep1b_size267M,1818,bestNN,26.120489,63673.000000,10463764.000000,798137,169151642,75,70677
deep1b_size267M,1819,bestNN,20.130859,3809.000000,6618676.000000,11461,92793167,1,70644
deep1b_size267M,1820,bestNN,29.638878,47698.000000,10737191.000000,610482,176420596,41,70677
deep1b_size267M,1821,bestNN,14.837631,106746.000000,4468529.000000,1683266,47991254,304,70674
deep1b_size267M,1822,bestNN,27.271648,25536.000000,6594573.000000,205565,93515377,12,70676
deep1b_size267M,1823,bestNN,35.932716,20385.000000,14897969.000000,139176,262857348,29,70677
deep1b_size267M,1824,bestNN,1.146778,1169.000000,52579.000000,8840,9105,1,887
deep1b_size267M,1825,bestNN,32.487259,35372.000000,11363112.000000,350177,187087291,36,70677
deep1b_size267M,1826,bestNN,14.450983,26245.000000,2112901.000000,219616,4965043,29,55736
deep1b_size267M,1827,bestNN,11.496633,413691.000000,2589629.000000,6333090,14202451,1329,55769
deep1b_size267M,1828,bestNN,23.022684,35821.000000,5301888.000000,374090,65403250,13,70617
deep1b_size267M,1829,bestNN,46.075489,213916.000000,14831966.000000,3558173,260768388,488,70677
deep1b_size267M,1830,bestNN,22.053572,76692.000000,5674567.000000,1181779,73104103,434,70676
deep1b_size267M,1831,bestNN,34.317238,83406.000000,12665130.000000,1481801,217660291,117,70677
deep1b_size267M,1832,bestNN,37.902897,87583.000000,13861622.000000,1286787,235469960,113,70677
deep1b_size267M,1833,bestNN,5.696074,27429.000000,2189513.000000,192411,529206,108,67207
deep1b_size267M,1834,bestNN,32.575661,197554.000000,10630949.000000,3188215,176194804,793,70677
deep1b_size267M,1835,bestNN,42.048359,80222.000000,13658422.000000,1160615,237171188,146,70677
deep1b_size267M,1836,bestNN,16.748329,123067.000000,5761223.000000,1875256,74271496,230,70670
deep1b_size267M,1837,bestNN,19.779865,54565.000000,4841709.000000,716673,54949998,101,70655
deep1b_size267M,1838,bestNN,53.581627,36829.000000,15121654.000000,448721,266357906,62,70677
deep1b_size267M,1839,bestNN,23.094845,40380.000000,4111601.000000,469150,38995832,33,69820
deep1b_size267M,1840,bestNN,14.520434,2585.000000,3061744.000000,10845,16554096,1,70511
deep1b_size267M,1841,bestNN,3.774934,18045.000000,908052.000000,81631,208833,9,17977
deep1b_size267M,1842,bestNN,2.632462,17304.000000,177481.000000,101435,137355,59,4489
deep1b_size267M,1843,bestNN,36.125443,684953.000000,11166342.000000,12026896,183241557,1228,70677
deep1b_size267M,1844,bestNN,17.993896,27304.000000,9612029.000000,223063,150983700,7,70677
deep1b_size267M,1845,bestNN,30.450842,19475.000000,12774794.000000,90830,214999433,5,70677
deep1b_size267M,1846,bestNN,7.541395,17387.000000,2367229.000000,79241,3437237,31,68645
deep1b_size267M,1847,bestNN,39.522594,1546191.000000,14908391.000000,26731139,262382679,4838,70677
deep1b_size267M,1848,bestNN,28.508987,157295.000000,8344800.000000,2575421,128013567,954,70677
deep1b_size267M,1849,bestNN,38.282520,82106.000000,16376677.000000,1175456,262819592,98,70677
deep1b_size267M,1850,bestNN,31.166838,152089.000000,13497408.000000,2069319,204346178,241,70677
deep1b_size267M,1851,bestNN,27.701469,101656.000000,9201648.000000,1350086,134432970,137,70669
deep1b_size267M,1852,bestNN,36.996460,62559.000000,11737515.000000,800027,190020634,161,70677
deep1b_size267M,1853,bestNN,15.678891,32804.000000,2574003.000000,275949,10832677,2,61372
deep1b_size267M,1854,bestNN,33.689369,95066.000000,12995282.000000,1415676,222431142,180,70677
deep1b_size267M,1855,bestNN,9.970630,18225.000000,1764482.000000,93894,872218,12,51805
deep1b_size267M,1856,bestNN,20.070778,19687.000000,2690488.000000,139046,9177765,66,69084
deep1b_size267M,1857,bestNN,11.256827,33999.000000,947644.000000,366652,557810,128,33122
deep1b_size267M,1858,bestNN,42.093327,335929.000000,14214518.000000,5794583,248787027,2030,70677
deep1b_size267M,1859,bestNN,48.388493,382899.000000,14853772.000000,6633381,261467954,1495,70677
deep1b_size267M,1860,bestNN,36.104271,326189.000000,13921727.000000,5619843,238327807,532,70677
deep1b_size267M,1861,bestNN,17.075657,1581.000000,4592160.000000,7281,50607454,1,70567
deep1b_size267M,1862,bestNN,48.300156,193799.000000,15016614.000000,3299950,264316407,273,70677
deep1b_size267M,1863,bestNN,21.754795,20239.000000,7525107.000000,155015,108505956,39,70677
deep1b_size267M,1864,bestNN,36.918064,100798.000000,11937615.000000,1605870,203133258,733,70677
deep1b_size267M,1865,bestNN,23.583578,26448.000000,7702213.000000,224899,115555834,7,70677
deep1b_size267M,1866,bestNN,20.487772,51831.000000,3131524.000000,637073,19377204,99,69483
deep1b_size267M,1867,bestNN,39.631069,892237.000000,14613354.000000,15271343,255231212,2064,70677
deep1b_size267M,1868,bestNN,32.080212,51872.000000,14342630.000000,624796,251289374,199,70677
deep1b_size267M,1869,bestNN,21.591509,4284.000000,9869909.000000,16872,155043595,1,70676
deep1b_size267M,1870,bestNN,0.552383,1041.000000,8884.000000,5233,5235,1,50
deep1b_size267M,1871,bestNN,12.326763,99237.000000,2230361.000000,1453261,7267906,175,58503
deep1b_size267M,1872,bestNN,26.988424,30858.000000,8573727.000000,351534,130515878,81,70675
deep1b_size267M,1873,bestNN,18.871820,152248.000000,8522748.000000,2413060,128875863,225,70677
deep1b_size267M,1874,bestNN,44.842209,53599.000000,14092886.000000,720490,245699034,61,70677
deep1b_size267M,1875,bestNN,25.171125,39445.000000,4317619.000000,459004,44083354,48,70677
deep1b_size267M,1876,bestNN,10.221482,17048.000000,1144007.000000,106688,505859,46,44596
deep1b_size267M,1877,bestNN,20.596272,12135.000000,3790877.000000,43863,33113162,3,70261
deep1b_size267M,1878,bestNN,56.543442,97574.000000,15162747.000000,1481813,266669704,292,70677
deep1b_size267M,1879,bestNN,10.854400,45995.000000,1230887.000000,630923,3592017,128,35931
deep1b_size267M,1880,bestNN,10.592792,120027.000000,2799484.000000,1763050,11441863,406,69889
deep1b_size267M,1881,bestNN,37.252132,22543.000000,11487726.000000,192126,186601862,52,70675
deep1b_size267M,1882,bestNN,37.455513,209224.000000,11850601.000000,3485892,198560812,463,70677
deep1b_size267M,1883,bestNN,1.901303,23592.000000,1266593.000000,137187,219576,29,32648
deep1b_size267M,1884,bestNN,9.079545,34265.000000,2560301.000000,347607,6333591,56,69708
deep1b_size267M,1885,bestNN,26.539722,28625.000000,7809909.000000,266239,118567751,15,70677
deep1b_size267M,1886,bestNN,44.097118,101476.000000,12089612.000000,1513338,204308873,89,70677
deep1b_size267M,1887,bestNN,35.677116,15029.000000,14721943.000000,55652,259871204,21,70677
deep1b_size267M,1888,bestNN,39.149002,365230.000000,13992049.000000,6217601,242986818,729,70677
deep1b_size267M,1889,bestNN,8.483726,29651.000000,579927.000000,298193,454333,88,20022
deep1b_size267M,1890,bestNN,17.873846,181107.000000,4484460.000000,2998769,47463876,1158,70661
deep1b_size267M,1891,bestNN,18.400648,35012.000000,3490019.000000,344896,25630757,7,70390
deep1b_size267M,1892,bestNN,25.301212,145395.000000,9648731.000000,2320718,151824293,160,70676
deep1b_size267M,1893,bestNN,41.041325,193264.000000,14261130.000000,3186512,248865819,321,70677
deep1b_size267M,1894,bestNN,24.503006,135744.000000,12434417.000000,2163055,204451374,282,70677
deep1b_size267M,1895,bestNN,19.975138,113520.000000,7733050.000000,1749425,113042930,307,70672
deep1b_size267M,1896,bestNN,13.236739,14636.000000,2750146.000000,48764,10405660,18,70148
deep1b_size267M,1897,bestNN,15.934348,3381.000000,5096580.000000,18491,60788868,1,70675
deep1b_size267M,1898,bestNN,38.454311,360369.000000,14824720.000000,6402184,260260058,2250,70677
deep1b_size267M,1899,bestNN,21.788239,86402.000000,5718323.000000,1326112,72997434,140,70677
deep1b_size267M,1900,bestNN,50.184250,569388.000000,14616830.000000,9891091,255121731,1493,70677
deep1b_size267M,1901,bestNN,15.818503,690.000000,3604980.000000,3950,28390550,1,70588
deep1b_size267M,1902,bestNN,29.942802,46793.000000,13369949.000000,590638,223510391,96,70677
deep1b_size267M,1903,bestNN,17.659069,151333.000000,5082221.000000,2431419,59935223,188,70667
deep1b_size267M,1904,bestNN,46.652592,1493351.000000,13792607.000000,26164545,239974230,3723,70677
deep1b_size267M,1905,bestNN,43.408413,101916.000000,14957624.000000,1602812,263643938,494,70677
deep1b_size267M,1906,bestNN,17.026030,23221.000000,5283408.000000,163469,63362531,58,70676
deep1b_size267M,1907,bestNN,36.772827,24381.000000,12758319.000000,238812,217647771,113,70677
deep1b_size267M,1908,bestNN,36.884575,62102.000000,13097597.000000,887936,224467256,111,70677
deep1b_size267M,1909,bestNN,5.646460,48422.000000,1316997.000000,601963,2334414,42,43406
deep1b_size267M,1910,bestNN,17.118073,106450.000000,3674334.000000,1618190,30363314,201,70227
deep1b_size267M,1911,bestNN,51.448711,176564.000000,15150355.000000,2775666,265715269,722,70677
deep1b_size267M,1912,bestNN,10.608953,18892.000000,1433173.000000,115718,845776,41,39337
deep1b_size267M,1913,bestNN,39.705624,154470.000000,14720364.000000,2482298,257580320,338,70677
deep1b_size267M,1914,bestNN,23.141644,183566.000000,4395828.000000,3006036,45785629,742,70630
deep1b_size267M,1915,bestNN,26.371500,40680.000000,10651786.000000,470302,174492296,26,70677
deep1b_size267M,1916,bestNN,46.848358,353667.000000,13821905.000000,6004913,239357998,940,70677
deep1b_size267M,1917,bestNN,18.081600,57825.000000,4735081.000000,745182,52403938,36,70631
deep1b_size267M,1918,bestNN,28.068714,68268.000000,12033060.000000,981861,199270706,57,70677
deep1b_size267M,1919,bestNN,12.866178,48951.000000,1959434.000000,598175,2626692,654,55600
deep1b_size267M,1920,bestNN,8.240028,1121.000000,2528365.000000,6651,3995907,1,70325
deep1b_size267M,1921,bestNN,30.671307,486335.000000,11039053.000000,8425236,183158936,1026,70677
deep1b_size267M,1922,bestNN,59.706669,102340.000000,15182846.000000,1539069,266643754,499,70677
deep1b_size267M,1923,bestNN,24.587431,54579.000000,4708727.000000,691060,53362258,93,70268
deep1b_size267M,1924,bestNN,18.516644,252173.000000,5007605.000000,4163947,58169760,348,70613
deep1b_size267M,1925,bestNN,39.378979,163751.000000,14476579.000000,2709765,252278929,370,70677
deep1b_size267M,1926,bestNN,23.833443,70671.000000,8125857.000000,1013646,120697107,95,70677
deep1b_size267M,1927,bestNN,37.048012,45260.000000,12668028.000000,557753,216643009,109,70677
deep1b_size267M,1928,bestNN,24.232393,1463.000000,4180703.000000,7618,40841020,1,70097
deep1b_size267M,1929,bestNN,14.146042,30537.000000,2785814.000000,306858,10937539,135,70374
deep1b_size267M,1930,bestNN,16.197584,62365.000000,2821645.000000,899390,11325262,209,70064
deep1b_size267M,1931,bestNN,25.306091,1107942.000000,13460240.000000,19224710,231125358,2759,70677
deep1b_size267M,1932,bestNN,0.734286,723.000000,16863.000000,3364,6541,1,121
deep1b_size267M,1933,bestNN,34.403793,81225.000000,13307388.000000,1203796,230002078,167,70677
deep1b_size267M,1934,bestNN,21.930908,100037.000000,9613281.000000,1533228,150784913,137,70675
deep1b_size267M,1935,bestNN,26.534435,1581470.000000,12810420.000000,27512676,207725453,3448,70677
deep1b_size267M,1936,bestNN,14.423279,57182.000000,3305284.000000,677181,20037386,90,70109
deep1b_size267M,1937,bestNN,12.943151,82323.000000,2797177.000000,880071,11486872,46,60351
deep1b_size267M,1938,bestNN,30.057844,46061.000000,15766270.000000,454219,235710929,48,70677
deep1b_size267M,1939,bestNN,16.199348,73740.000000,3891202.000000,961091,32617211,73,69434
deep1b_size267M,1940,bestNN,38.676178,3983806.000000,18301509.000000,55545146,251783851,10875,70677
deep1b_size267M,1941,bestNN,42.573490,21296.000000,12340588.000000,106753,206241550,6,70677
deep1b_size267M,1942,bestNN,17.895897,111859.000000,4808727.000000,1756815,53866293,208,70638
deep1b_size267M,1943,bestNN,20.546682,78032.000000,9468944.000000,1125385,147535483,107,70677
deep1b_size267M,1944,bestNN,23.909378,224840.000000,10986033.000000,3644687,180737330,405,70677
deep1b_size267M,1945,bestNN,33.671371,168953.000000,12389687.000000,2757449,211566694,509,70677
deep1b_size267M,1946,bestNN,0.163785,32786.000000,45769.000000,298930,407122,82,150
deep1b_size267M,1947,bestNN,16.120800,36206.000000,3834394.000000,442033,34047120,21,70348
deep1b_size267M,1948,bestNN,11.818776,50789.000000,3332318.000000,628460,22617530,39,70447
deep1b_size267M,1949,bestNN,18.106174,42921.000000,2726339.000000,550567,12116871,88,65706
deep1b_size267M,1950,bestNN,62.062363,42095.000000,15151397.000000,505309,266645931,79,70677
deep1b_size267M,1951,bestNN,13.984737,18162.000000,2390831.000000,88902,5127205,10,64801
deep1b_size267M,1952,bestNN,33.339333,31564.000000,8175436.000000,330714,126367688,35,70677
deep1b_size267M,1953,bestNN,8.408698,15156.000000,1454688.000000,57326,2251004,10,51576
deep1b_size267M,1954,bestNN,44.922386,1669073.000000,15036327.000000,29428512,264970337,5026,70677
deep1b_size267M,1955,bestNN,31.567764,486144.000000,14031484.000000,8520516,245670692,1608,70677
deep1b_size267M,1956,bestNN,46.215340,201344.000000,13267134.000000,3374297,229683717,639,70677
deep1b_size267M,1957,bestNN,34.671833,14455.000000,12682499.000000,56350,216389520,19,70677
deep1b_size267M,1958,bestNN,20.729031,68023.000000,3218831.000000,926230,19893945,137,69334
deep1b_size267M,1959,bestNN,23.741463,636332.000000,9847123.000000,10967880,153911818,3388,70677
deep1b_size267M,1960,bestNN,10.396811,43861.000000,2046133.000000,500283,3131797,57,54843
deep1b_size267M,1961,bestNN,31.801746,50516.000000,12089111.000000,622005,204319943,68,70677
deep1b_size267M,1962,bestNN,13.418554,36053.000000,3119571.000000,342115,20823473,11,64926
deep1b_size267M,1963,bestNN,17.039852,108775.000000,4031452.000000,1642000,37240454,236,70568
deep1b_size267M,1964,bestNN,32.717510,326520.000000,11434420.000000,5552947,191366333,1527,70677
deep1b_size267M,1965,bestNN,6.152844,9491.000000,615658.000000,23509,55007,26,16709
deep1b_size267M,1966,bestNN,38.943832,85587.000000,12905304.000000,1273627,220739242,210,70677
deep1b_size267M,1967,bestNN,11.283673,66404.000000,2196106.000000,821386,7371245,183,51514
deep1b_size267M,1968,bestNN,27.625690,109778.000000,6504882.000000,1690084,90833556,122,70668
deep1b_size267M,1969,bestNN,27.390596,305808.000000,7699941.000000,4976096,113860319,462,70665
deep1b_size267M,1970,bestNN,25.036350,47887.000000,8181909.000000,606349,122744066,72,70677
deep1b_size267M,1971,bestNN,5.391738,4975.000000,1917876.000000,16796,572456,1,53640
deep1b_size267M,1972,bestNN,26.936436,116084.000000,13652988.000000,1754214,230034022,243,70677
deep1b_size267M,1973,bestNN,22.144945,199387.000000,4324362.000000,3266532,43299430,409,70393
deep1b_size267M,1974,bestNN,17.503012,113840.000000,3970556.000000,1686723,35595852,232,70085
deep1b_size267M,1975,bestNN,33.655693,302441.000000,8923939.000000,5208723,141864021,1079,70644
deep1b_size267M,1976,bestNN,47.927666,44185.000000,13978791.000000,549377,242341819,107,70677
deep1b_size267M,1977,bestNN,7.043357,83170.000000,679380.000000,1128349,1845329,127,14878
deep1b_size267M,1978,bestNN,2.034297,420.000000,544798.000000,863,914,1,15691
deep1b_size267M,1979,bestNN,0.246916,12143.000000,25750.000000,19947,75345,3,87
deep1b_size267M,1980,bestNN,14.806185,30928.000000,2508383.000000,296415,11919818,5,54570
deep1b_size267M,1981,bestNN,17.023403,38060.000000,4294512.000000,431924,43309642,42,70640
deep1b_size267M,1982,bestNN,21.205898,20083.000000,7907456.000000,90549,118328971,6,70677
deep1b_size267M,1983,bestNN,22.776455,18523.000000,8732623.000000,106709,132864598,11,70676
deep1b_size267M,1984,bestNN,17.266363,119259.000000,4549429.000000,1892826,47995546,139,70662
deep1b_size267M,1985,bestNN,29.417164,319440.000000,10278566.000000,5246300,169074413,532,70677
deep1b_size267M,1986,bestNN,26.920382,432831.000000,10427182.000000,7456143,170852334,914,70668
deep1b_size267M,1987,bestNN,45.786366,847591.000000,15193411.000000,14516740,266462720,3057,70677
deep1b_size267M,1988,bestNN,28.042368,72785.000000,12766342.000000,1010342,218256593,58,70677
deep1b_size267M,1989,bestNN,27.297302,240285.000000,12115557.000000,4072091,203215863,747,70677
deep1b_size267M,1990,bestNN,33.024220,1135.000000,11774195.000000,4731,196430339,1,70677
deep1b_size267M,1991,bestNN,38.452332,366682.000000,10735723.000000,6289406,177746503,684,70676
deep1b_size267M,1992,bestNN,16.449736,50009.000000,2460387.000000,592049,8063923,53,67257
deep1b_size267M,1993,bestNN,2.957932,9869.000000,331839.000000,12474,50364,4,8982
deep1b_size267M,1994,bestNN,17.468565,87299.000000,3877381.000000,1311304,34032518,183,70616
deep1b_size267M,1995,bestNN,23.425835,80835.000000,7041061.000000,1226336,100328643,141,70672
deep1b_size267M,1996,bestNN,43.022152,604639.000000,14644011.000000,10497105,255966454,2465,70677
deep1b_size267M,1997,bestNN,0.609760,5131.000000,84335.000000,6384,6669,7,1340
deep1b_size267M,1998,bestNN,8.964546,14293.000000,2667908.000000,43968,8284721,7,69523
deep1b_size267M,1999,bestNN,6.243536,16539.000000,842751.000000,75415,180100,19,26897
