datasetName,queryId,answerId,distance,time,totalTime,seriesCompared,totalSeriesCompared,leavesVisited,totalLeavesVisited
synthetic_size100M,1000,bestNN,36.826260,10657.000000,187247.000000,27585,127443,144,13619
synthetic_size100M,1001,bestNN,31.391226,5395.000000,60891.000000,5423,22033,15,4641
synthetic_size100M,1002,bestNN,18.954823,4511.000000,58243.000000,5103,9138,48,3955
synthetic_size100M,1003,bestNN,42.755333,5967.000000,113143.000000,8250,37609,32,10408
synthetic_size100M,1004,bestNN,46.766785,6324.000000,105954.000000,10472,26314,67,12119
synthetic_size100M,1005,bestNN,18.833309,12061.000000,161975.000000,39475,169545,123,9816
synthetic_size100M,1006,bestNN,42.766266,20286.000000,67557.000000,36225,36762,1301,6762
synthetic_size100M,1007,bestNN,33.173958,10381.000000,138391.000000,31925,71814,199,9899
synthetic_size100M,1008,bestNN,49.481995,20685.000000,82503.000000,12870,12950,1535,9970
synthetic_size100M,1009,bestNN,33.614021,5048.000000,71963.000000,8796,41310,36,6120
synthetic_size100M,1010,bestNN,10.725771,17744.000000,78367.000000,45060,59227,644,4885
synthetic_size100M,1011,bestNN,10.115644,21542.000000,84277.000000,89405,102151,847,5332
synthetic_size100M,1012,bestNN,5.912995,7948.000000,58988.000000,13964,25967,102,3483
synthetic_size100M,1013,bestNN,46.399597,8417.000000,152065.000000,15276,48201,79,15749
synthetic_size100M,1014,bestNN,14.914064,6452.000000,96458.000000,9225,25975,43,6179
synthetic_size100M,1015,bestNN,25.681528,716.000000,171944.000000,1259,12678,1,18658
synthetic_size100M,1016,bestNN,9.624898,6039.000000,55276.000000,7399,23184,22,3413
synthetic_size100M,1017,bestNN,36.021824,5714.000000,108008.000000,5367,9594,81,11728
synthetic_size100M,1018,bestNN,36.681686,715.000000,88207.000000,1371,12233,1,8700
synthetic_size100M,1019,bestNN,64.526810,1056.000000,71078.000000,1289,45742,1,10860
synthetic_size100M,1020,bestNN,7.290522,7341.000000,72678.000000,8826,18210,43,4352
synthetic_size100M,1021,bestNN,19.363342,7580.000000,93080.000000,16967,49753,57,6174
synthetic_size100M,1022,bestNN,44.561668,6420.000000,63577.000000,7158,9890,150,6598
synthetic_size100M,1023,bestNN,43.645058,7782.000000,191656.000000,4075,17676,36,25538
synthetic_size100M,1024,bestNN,15.367738,1457.000000,30637.000000,1947,6481,1,2086
synthetic_size100M,1025,bestNN,7.596854,7460.000000,69643.000000,4135,10856,120,4356
synthetic_size100M,1026,bestNN,46.571423,9061.000000,244010.000000,18325,237506,27,20993
synthetic_size100M,1027,bestNN,39.467983,10327.000000,73640.000000,43295,69648,220,6589
synthetic_size100M,1028,bestNN,33.671658,10087.000000,54712.000000,22723,25144,475,5634
synthetic_size100M,1029,bestNN,41.609177,6224.000000,58401.000000,6834,13480,30,6024
synthetic_size100M,1030,bestNN,23.551580,5966.000000,42442.000000,7202,9132,101,3302
synthetic_size100M,1031,bestNN,86.641182,35397.000000,296096.000000,105484,112267,2086,42769
synthetic_size100M,1032,bestNN,37.037884,7072.000000,101103.000000,7079,11265,39,8884
synthetic_size100M,1033,bestNN,149.871185,23228.000000,870316.000000,50875,874759,160,114251
synthetic_size100M,1034,bestNN,35.155739,934.000000,33104.000000,1648,7060,1,3507
synthetic_size100M,1035,bestNN,33.451920,6478.000000,120589.000000,4371,10967,14,11301
synthetic_size100M,1036,bestNN,51.984852,10175.000000,162589.000000,23221,117747,52,19682
synthetic_size100M,1037,bestNN,30.371355,10029.000000,154145.000000,6850,11129,230,13985
synthetic_size100M,1038,bestNN,17.451241,6482.000000,80474.000000,12802,43407,56,5402
synthetic_size100M,1039,bestNN,8.762107,5826.000000,50411.000000,3969,9481,17,3154
synthetic_size100M,1040,bestNN,13.266049,39535.000000,125779.000000,90071,92528,2097,8073
synthetic_size100M,1041,bestNN,5.154612,6811.000000,41611.000000,9581,11706,61,2225
synthetic_size100M,1042,bestNN,42.687237,18579.000000,54945.000000,15782,16205,1389,5666
synthetic_size100M,1043,bestNN,10.657944,20648.000000,71821.000000,24505,26624,969,4612
synthetic_size100M,1044,bestNN,9.798615,7826.000000,95606.000000,19681,44943,97,6026
synthetic_size100M,1045,bestNN,23.063620,4998.000000,48136.000000,7676,28078,28,3650
synthetic_size100M,1046,bestNN,46.033188,8224.000000,106429.000000,6300,11729,27,10705
synthetic_size100M,1047,bestNN,25.239552,841.000000,161511.000000,1043,33562,1,11982
synthetic_size100M,1048,bestNN,39.993305,605.000000,86909.000000,1041,12668,1,8894
synthetic_size100M,1049,bestNN,4.228357,6512.000000,62289.000000,9552,18261,70,3521
synthetic_size100M,1050,bestNN,5.494995,21348.000000,68084.000000,17653,19118,789,3563
synthetic_size100M,1051,bestNN,13.302990,6655.000000,78566.000000,6240,22987,33,4718
synthetic_size100M,1052,bestNN,36.677448,12974.000000,168451.000000,23260,36303,380,14126
synthetic_size100M,1053,bestNN,42.121811,8025.000000,186749.000000,16319,77606,32,14739
synthetic_size100M,1054,bestNN,90.415962,20773.000000,402859.000000,36520,55017,1194,57183
synthetic_size100M,1055,bestNN,12.987041,12845.000000,114104.000000,31036,40418,384,7819
synthetic_size100M,1056,bestNN,22.082399,679.000000,46669.000000,1078,2996,1,4176
synthetic_size100M,1057,bestNN,54.779255,7304.000000,143212.000000,17010,180897,17,15257
synthetic_size100M,1058,bestNN,25.698637,912.000000,75741.000000,1632,17448,1,6220
synthetic_size100M,1059,bestNN,40.227238,621.000000,88878.000000,1272,6614,1,13197
synthetic_size100M,1060,bestNN,36.290466,6104.000000,87186.000000,13494,33047,49,8871
synthetic_size100M,1061,bestNN,65.741035,7462.000000,148804.000000,9820,106289,21,19692
synthetic_size100M,1062,bestNN,29.540707,9448.000000,141206.000000,18672,64672,57,10673
synthetic_size100M,1063,bestNN,49.104576,7621.000000,126849.000000,11060,30395,20,14634
synthetic_size100M,1064,bestNN,11.224058,8926.000000,122250.000000,16045,42535,128,7858
synthetic_size100M,1065,bestNN,26.145493,8188.000000,61123.000000,12049,14654,183,4421
synthetic_size100M,1066,bestNN,11.182611,7553.000000,82987.000000,14134,33822,48,5108
synthetic_size100M,1067,bestNN,15.801255,6240.000000,65852.000000,14291,35972,50,4208
synthetic_size100M,1068,bestNN,64.931732,12042.000000,218349.000000,25551,55780,111,29571
synthetic_size100M,1069,bestNN,11.110657,6428.000000,71715.000000,14342,31037,36,4826
synthetic_size100M,1070,bestNN,9.137751,20077.000000,88624.000000,10751,12518,670,5247
synthetic_size100M,1071,bestNN,6.499496,6985.000000,66305.000000,6531,20845,18,3967
synthetic_size100M,1072,bestNN,68.942848,6730.000000,96710.000000,9608,23169,43,16543
synthetic_size100M,1073,bestNN,33.733177,8755.000000,165053.000000,27797,79751,112,12862
synthetic_size100M,1074,bestNN,10.553044,6755.000000,81464.000000,11007,49076,19,4816
synthetic_size100M,1075,bestNN,11.320432,674.000000,36180.000000,990,7762,1,2337
synthetic_size100M,1076,bestNN,11.035915,1157.000000,88044.000000,1400,57641,1,5565
synthetic_size100M,1077,bestNN,10.169384,23356.000000,125233.000000,14450,15730,943,7827
synthetic_size100M,1078,bestNN,11.667724,8855.000000,82087.000000,19180,41945,76,5076
synthetic_size100M,1079,bestNN,40.137623,6950.000000,152219.000000,5311,42184,7,11863
synthetic_size100M,1080,bestNN,50.621147,7039.000000,106432.000000,21870,197833,28,9240
synthetic_size100M,1081,bestNN,9.089084,5548.000000,33738.000000,4993,11468,13,1933
synthetic_size100M,1082,bestNN,29.355167,13032.000000,193629.000000,50002,111799,292,15799
synthetic_size100M,1083,bestNN,19.627596,5518.000000,51028.000000,8965,24718,36,3767
synthetic_size100M,1084,bestNN,9.839205,20163.000000,51502.000000,28071,30303,989,3272
synthetic_size100M,1085,bestNN,8.468394,6429.000000,48157.000000,7141,15763,38,2815
synthetic_size100M,1086,bestNN,33.328899,10651.000000,232940.000000,21766,226082,82,19269
synthetic_size100M,1087,bestNN,49.271568,1134.000000,138002.000000,1589,129622,1,16477
synthetic_size100M,1088,bestNN,4.965319,9694.000000,31868.000000,11257,12108,307,1782
synthetic_size100M,1089,bestNN,12.974287,21342.000000,74548.000000,20075,20687,1045,5044
synthetic_size100M,1090,bestNN,14.542222,6199.000000,64798.000000,10666,32143,27,4388
synthetic_size100M,1091,bestNN,53.201756,4459.000000,51320.000000,3388,7522,22,7153
synthetic_size100M,1092,bestNN,47.247219,9547.000000,117277.000000,46942,127867,145,12983
synthetic_size100M,1093,bestNN,85.055305,650.000000,210728.000000,879,37720,1,38051
synthetic_size100M,1094,bestNN,18.596901,6698.000000,103505.000000,12251,48729,65,7712
synthetic_size100M,1095,bestNN,14.789153,20374.000000,58078.000000,12056,12272,986,3657
synthetic_size100M,1096,bestNN,28.786308,17283.000000,56123.000000,14692,15399,1166,5092
synthetic_size100M,1097,bestNN,51.115067,1308.000000,68077.000000,1908,6493,1,8390
synthetic_size100M,1098,bestNN,9.928720,8610.000000,49139.000000,11751,15339,217,3273
synthetic_size100M,1099,bestNN,12.656610,7883.000000,107473.000000,24317,61074,65,6924
synthetic_size100M,1100,bestNN,24.855402,21610.000000,54817.000000,27234,27374,1452,4723
synthetic_size100M,1101,bestNN,21.296881,14089.000000,204474.000000,27561,67557,385,14827
synthetic_size100M,1102,bestNN,16.678942,7407.000000,113961.000000,8792,53548,61,7100
synthetic_size100M,1103,bestNN,17.830858,6781.000000,85322.000000,10605,29311,37,5518
synthetic_size100M,1104,bestNN,35.232285,8179.000000,97582.000000,9801,16111,102,8198
synthetic_size100M,1105,bestNN,12.270132,21908.000000,121128.000000,39142,46327,657,6990
synthetic_size100M,1106,bestNN,50.964012,159.000000,116832.000000,51,12886,1,15739
synthetic_size100M,1107,bestNN,32.807560,1197.000000,55090.000000,1903,6575,1,4924
synthetic_size100M,1108,bestNN,42.332108,10540.000000,118283.000000,46505,147252,143,9500
synthetic_size100M,1109,bestNN,33.467464,20392.000000,81051.000000,32828,35594,1227,7924
synthetic_size100M,1110,bestNN,43.581646,5484.000000,48009.000000,11628,25751,15,7041
synthetic_size100M,1111,bestNN,79.548607,10267.000000,168969.000000,24571,85139,75,32228
synthetic_size100M,1112,bestNN,21.457651,1207.000000,55887.000000,1865,25470,1,3835
synthetic_size100M,1113,bestNN,23.311890,10445.000000,143528.000000,33336,65950,168,10094
synthetic_size100M,1114,bestNN,48.890968,5535.000000,97184.000000,6504,15122,69,14714
synthetic_size100M,1115,bestNN,74.815170,8289.000000,144436.000000,8340,12574,281,25696
synthetic_size100M,1116,bestNN,51.021137,859.000000,78232.000000,1123,10194,1,9769
synthetic_size100M,1117,bestNN,34.020172,6417.000000,144586.000000,1915,5657,12,12641
synthetic_size100M,1118,bestNN,21.155554,4127.000000,26156.000000,2899,4684,32,1925
synthetic_size100M,1119,bestNN,63.825100,1121.000000,285609.000000,1862,72024,1,34466
synthetic_size100M,1120,bestNN,23.442915,6461.000000,82097.000000,6817,14622,34,6288
synthetic_size100M,1121,bestNN,41.160393,8385.000000,119032.000000,26354,77840,100,12751
synthetic_size100M,1122,bestNN,36.946247,19764.000000,64290.000000,29242,30033,1238,5955
synthetic_size100M,1123,bestNN,8.766973,7683.000000,42456.000000,19706,26763,138,2429
synthetic_size100M,1124,bestNN,29.653759,6297.000000,113490.000000,5667,12662,39,9365
synthetic_size100M,1125,bestNN,12.031944,20336.000000,150905.000000,63658,97993,765,10106
synthetic_size100M,1126,bestNN,14.123198,6577.000000,68309.000000,3494,10754,21,4309
synthetic_size100M,1127,bestNN,17.786823,5643.000000,32578.000000,5795,10443,47,2437
synthetic_size100M,1128,bestNN,28.931324,6670.000000,119847.000000,7985,19283,42,9920
synthetic_size100M,1129,bestNN,42.718544,7346.000000,162583.000000,4297,15468,25,13654
synthetic_size100M,1130,bestNN,96.190727,13464.000000,290030.000000,17602,145356,48,47941
synthetic_size100M,1131,bestNN,31.881304,6015.000000,90868.000000,3212,19000,14,6320
synthetic_size100M,1132,bestNN,48.899818,11528.000000,393731.000000,8261,100349,77,42115
synthetic_size100M,1133,bestNN,72.233665,8583.000000,214747.000000,9745,35938,101,32998
synthetic_size100M,1134,bestNN,15.974929,5594.000000,58436.000000,5510,10307,18,4175
synthetic_size100M,1135,bestNN,5.979768,5536.000000,49763.000000,3432,13480,19,3149
synthetic_size100M,1136,bestNN,33.423737,10787.000000,243836.000000,26875,290918,153,18031
synthetic_size100M,1137,bestNN,4.854754,5466.000000,40547.000000,7723,15647,34,2352
synthetic_size100M,1138,bestNN,4.421276,6795.000000,50609.000000,7127,13584,37,2808
synthetic_size100M,1139,bestNN,23.799164,450.000000,73595.000000,503,7919,1,5377
synthetic_size100M,1140,bestNN,80.297997,17642.000000,355679.000000,27303,62184,233,46662
synthetic_size100M,1141,bestNN,31.907707,5292.000000,49697.000000,7184,10576,41,4290
synthetic_size100M,1142,bestNN,9.845724,9201.000000,103383.000000,16544,22869,207,7228
synthetic_size100M,1143,bestNN,42.175430,6889.000000,130263.000000,14779,61145,60,12933
synthetic_size100M,1144,bestNN,16.111549,5077.000000,33890.000000,3622,5161,29,2242
synthetic_size100M,1145,bestNN,14.112476,8548.000000,105115.000000,8818,26099,89,6654
synthetic_size100M,1146,bestNN,11.470119,8589.000000,96258.000000,21163,33328,137,6519
synthetic_size100M,1147,bestNN,23.677916,5005.000000,72746.000000,7973,18828,35,6034
synthetic_size100M,1148,bestNN,28.315285,9100.000000,119698.000000,13223,18863,217,9890
synthetic_size100M,1149,bestNN,23.060343,7005.000000,69667.000000,11043,20609,92,5408
synthetic_size100M,1150,bestNN,11.214176,5399.000000,48101.000000,3231,5942,36,3223
synthetic_size100M,1151,bestNN,92.206429,9906.000000,287099.000000,15587,117799,31,48875
synthetic_size100M,1152,bestNN,23.791061,7689.000000,100066.000000,14079,25309,89,7318
synthetic_size100M,1153,bestNN,47.156441,5957.000000,110287.000000,4780,8113,164,16759
synthetic_size100M,1154,bestNN,7.383203,7776.000000,83822.000000,3544,10323,43,4457
synthetic_size100M,1155,bestNN,12.965354,14622.000000,94300.000000,43032,57588,486,6168
synthetic_size100M,1156,bestNN,83.288834,10769.000000,290244.000000,5093,35027,27,38939
synthetic_size100M,1157,bestNN,25.134434,4677.000000,41381.000000,4973,9799,44,2911
synthetic_size100M,1158,bestNN,20.179329,5847.000000,48439.000000,13737,28767,55,3290
synthetic_size100M,1159,bestNN,15.469002,4385.000000,19242.000000,5009,5807,63,1311
synthetic_size100M,1160,bestNN,7.357122,8476.000000,79923.000000,8112,10561,136,5138
synthetic_size100M,1161,bestNN,13.238199,9136.000000,123889.000000,17436,53967,101,7954
synthetic_size100M,1162,bestNN,11.458931,5013.000000,40498.000000,4621,13791,34,2658
synthetic_size100M,1163,bestNN,27.602770,13388.000000,40335.000000,9038,9789,832,3730
synthetic_size100M,1164,bestNN,28.560232,5304.000000,59056.000000,7577,13992,32,4647
synthetic_size100M,1165,bestNN,13.724017,5730.000000,60776.000000,7723,29746,22,3989
synthetic_size100M,1166,bestNN,76.707657,10829.000000,218893.000000,32025,347576,36,34808
synthetic_size100M,1167,bestNN,66.632408,10573.000000,266629.000000,7408,43919,34,30557
synthetic_size100M,1168,bestNN,16.668001,6190.000000,73984.000000,8791,14928,66,5439
synthetic_size100M,1169,bestNN,45.150192,5299.000000,36553.000000,5042,8340,26,5049
synthetic_size100M,1170,bestNN,40.851295,30647.000000,43689.000000,23283,23341,2823,4283
synthetic_size100M,1171,bestNN,44.921715,8339.000000,247055.000000,5075,17195,25,25999
synthetic_size100M,1172,bestNN,15.783825,6729.000000,73350.000000,6807,17901,87,4768
synthetic_size100M,1173,bestNN,34.417225,6131.000000,70534.000000,10373,18260,30,6004
synthetic_size100M,1174,bestNN,11.095801,1578.000000,45992.000000,2000,12305,1,2625
synthetic_size100M,1175,bestNN,20.290247,13548.000000,43569.000000,35860,37509,896,3391
synthetic_size100M,1176,bestNN,44.166786,7979.000000,116322.000000,33471,143932,35,9671
synthetic_size100M,1177,bestNN,10.697792,14575.000000,97526.000000,12906,19059,475,6350
synthetic_size100M,1178,bestNN,42.327065,7335.000000,133921.000000,6419,16720,64,13407
synthetic_size100M,1179,bestNN,63.258926,7964.000000,149928.000000,12661,30332,32,16439
synthetic_size100M,1180,bestNN,13.459572,8334.000000,105365.000000,7160,27816,58,6955
synthetic_size100M,1181,bestNN,30.478113,7469.000000,108490.000000,11361,72040,58,7432
synthetic_size100M,1182,bestNN,9.872614,5693.000000,65369.000000,6202,40985,23,3674
synthetic_size100M,1183,bestNN,17.017944,10191.000000,158325.000000,7220,24248,150,10537
synthetic_size100M,1184,bestNN,5.802351,10689.000000,60824.000000,11017,14572,230,3418
synthetic_size100M,1185,bestNN,24.339638,11853.000000,102300.000000,6829,10815,186,6950
synthetic_size100M,1186,bestNN,39.984619,19248.000000,67337.000000,11848,12087,1393,7121
synthetic_size100M,1187,bestNN,19.108223,6557.000000,89511.000000,5480,22526,26,6878
synthetic_size100M,1188,bestNN,21.306705,8765.000000,113790.000000,9976,41524,38,7639
synthetic_size100M,1189,bestNN,13.989191,12058.000000,83853.000000,25077,43929,400,5759
synthetic_size100M,1190,bestNN,25.454046,13904.000000,62129.000000,11097,12396,989,6748
synthetic_size100M,1191,bestNN,4.002334,5515.000000,51751.000000,2934,7886,26,3023
synthetic_size100M,1192,bestNN,16.409374,1055.000000,47649.000000,1378,11221,1,3205
synthetic_size100M,1193,bestNN,21.151413,8792.000000,104535.000000,41921,119254,123,7262
synthetic_size100M,1194,bestNN,9.053084,6315.000000,89364.000000,10987,102235,26,5631
synthetic_size100M,1195,bestNN,23.936172,16943.000000,102918.000000,25589,31742,738,7512
synthetic_size100M,1196,bestNN,62.774136,33557.000000,131033.000000,38195,38680,4264,20257
synthetic_size100M,1197,bestNN,61.807865,9447.000000,222993.000000,20601,227123,36,22877
synthetic_size100M,1198,bestNN,35.201424,1093.000000,48427.000000,1827,33428,1,4423
synthetic_size100M,1199,bestNN,58.929684,13261.000000,162773.000000,31254,53755,1235,25185
synthetic_size100M,1200,bestNN,51.046070,7567.000000,126102.000000,5494,7328,81,14831
synthetic_size100M,1201,bestNN,16.094475,45725.000000,90760.000000,63631,64586,2790,6236
synthetic_size100M,1202,bestNN,18.424772,15238.000000,93975.000000,59882,79455,543,6840
synthetic_size100M,1203,bestNN,20.287045,5240.000000,31882.000000,12235,21360,49,2168
synthetic_size100M,1204,bestNN,15.725842,5794.000000,58729.000000,8127,12516,39,4338
synthetic_size100M,1205,bestNN,84.869904,11046.000000,304934.000000,11788,94685,20,45088
synthetic_size100M,1206,bestNN,12.163904,9064.000000,66306.000000,6447,11955,161,3857
synthetic_size100M,1207,bestNN,15.994917,9929.000000,166257.000000,51224,266096,67,10433
synthetic_size100M,1208,bestNN,56.545544,9822.000000,109082.000000,34474,46840,185,15428
synthetic_size100M,1209,bestNN,4.065310,6535.000000,46753.000000,4532,5566,58,2551
synthetic_size100M,1210,bestNN,50.533016,7789.000000,71612.000000,12737,18363,76,9785
synthetic_size100M,1211,bestNN,45.972977,732.000000,84092.000000,1159,9509,1,8712
synthetic_size100M,1212,bestNN,7.994515,30929.000000,92155.000000,21861,22335,1459,5655
synthetic_size100M,1213,bestNN,66.016846,6819.000000,138717.000000,3564,12354,16,21035
synthetic_size100M,1214,bestNN,43.543076,13589.000000,272331.000000,46402,173065,310,22735
synthetic_size100M,1215,bestNN,18.202579,5327.000000,48840.000000,8465,11816,58,3998
synthetic_size100M,1216,bestNN,76.692009,27722.000000,485547.000000,222795,2133595,346,45678
synthetic_size100M,1217,bestNN,17.168772,6049.000000,114338.000000,4203,19819,26,8896
synthetic_size100M,1218,bestNN,59.700977,7974.000000,146319.000000,3708,8936,72,20773
synthetic_size100M,1219,bestNN,11.948443,7349.000000,122225.000000,14952,128278,55,8227
synthetic_size100M,1220,bestNN,16.426018,6414.000000,96456.000000,5584,18318,47,7181
synthetic_size100M,1221,bestNN,56.962402,20425.000000,221983.000000,104334,137551,877,24789
synthetic_size100M,1222,bestNN,52.898563,11580.000000,349722.000000,42388,730370,77,26841
synthetic_size100M,1223,bestNN,21.302071,5136.000000,47846.000000,4812,7051,75,3891
synthetic_size100M,1224,bestNN,15.054310,7059.000000,50753.000000,17565,31863,63,2981
synthetic_size100M,1225,bestNN,64.904678,11054.000000,332114.000000,25710,427208,38,30892
synthetic_size100M,1226,bestNN,18.086750,11056.000000,165807.000000,19581,51930,169,10690
synthetic_size100M,1227,bestNN,12.729879,11331.000000,104720.000000,34827,64052,231,6355
synthetic_size100M,1228,bestNN,21.296167,9262.000000,99831.000000,12180,20431,154,6990
synthetic_size100M,1229,bestNN,101.609100,20664.000000,620173.000000,44583,1783661,54,77286
synthetic_size100M,1230,bestNN,33.613209,4993.000000,52618.000000,4405,10898,42,5001
synthetic_size100M,1231,bestNN,39.493977,19165.000000,26345.000000,15933,16055,1771,2633
synthetic_size100M,1232,bestNN,28.978390,7931.000000,200142.000000,3303,19664,21,15364
synthetic_size100M,1233,bestNN,43.621014,7031.000000,162504.000000,10927,75805,54,15203
synthetic_size100M,1234,bestNN,26.085833,5501.000000,54179.000000,11949,18439,83,5229
synthetic_size100M,1235,bestNN,22.609943,11140.000000,105299.000000,10935,11959,437,7914
synthetic_size100M,1236,bestNN,27.956957,11085.000000,209763.000000,38098,372617,96,15045
synthetic_size100M,1237,bestNN,89.072678,748.000000,238593.000000,1361,29566,1,40871
synthetic_size100M,1238,bestNN,6.276467,6901.000000,43566.000000,7233,11156,97,2672
synthetic_size100M,1239,bestNN,48.474941,8957.000000,235088.000000,13641,77604,61,21823
synthetic_size100M,1240,bestNN,11.591602,18670.000000,102982.000000,25352,29436,818,6731
synthetic_size100M,1241,bestNN,94.165627,12022.000000,222370.000000,13458,25949,220,41029
synthetic_size100M,1242,bestNN,18.373095,31307.000000,207371.000000,198236,305207,874,12585
synthetic_size100M,1243,bestNN,48.985611,14988.000000,227634.000000,20818,38763,550,20023
synthetic_size100M,1244,bestNN,4.514211,5466.000000,66723.000000,3822,11829,26,3682
synthetic_size100M,1245,bestNN,82.089943,1460.000000,180924.000000,1920,62749,1,33526
synthetic_size100M,1246,bestNN,22.858463,6766.000000,120651.000000,3155,7859,55,9170
synthetic_size100M,1247,bestNN,62.992886,7685.000000,103835.000000,3857,24742,8,17880
synthetic_size100M,1248,bestNN,45.551991,8662.000000,237759.000000,14705,247721,16,20302
synthetic_size100M,1249,bestNN,50.097832,6717.000000,81900.000000,16264,51428,26,9341
synthetic_size100M,1250,bestNN,19.466221,6235.000000,112366.000000,10337,28534,77,9001
synthetic_size100M,1251,bestNN,5.840274,35011.000000,78507.000000,31983,32826,1642,4944
synthetic_size100M,1252,bestNN,13.043505,6788.000000,151947.000000,6246,22953,38,10645
synthetic_size100M,1253,bestNN,18.596327,10351.000000,107502.000000,15430,22412,268,7519
synthetic_size100M,1254,bestNN,55.717850,8127.000000,181360.000000,23167,178586,38,19640
synthetic_size100M,1255,bestNN,51.874474,10763.000000,321979.000000,13061,144028,46,30791
synthetic_size100M,1256,bestNN,21.511129,10194.000000,193757.000000,10040,46503,138,14258
synthetic_size100M,1257,bestNN,28.283695,17016.000000,78068.000000,48206,52160,848,6470
synthetic_size100M,1258,bestNN,44.341141,7121.000000,151432.000000,11510,32977,77,17976
synthetic_size100M,1259,bestNN,58.576324,7877.000000,117875.000000,20891,58389,37,12950
synthetic_size100M,1260,bestNN,59.711426,6502.000000,112187.000000,8389,25474,33,16842
synthetic_size100M,1261,bestNN,31.276226,6523.000000,68840.000000,2821,5444,26,5393
synthetic_size100M,1262,bestNN,38.984386,986.000000,54340.000000,1511,12485,1,4501
synthetic_size100M,1263,bestNN,48.722382,9627.000000,306165.000000,14790,248714,31,22598
synthetic_size100M,1264,bestNN,17.792400,5153.000000,44254.000000,4635,8339,23,3119
synthetic_size100M,1265,bestNN,18.822781,6224.000000,83065.000000,5351,21010,24,5705
synthetic_size100M,1266,bestNN,4.920762,34507.000000,46919.000000,8524,8624,1855,2713
synthetic_size100M,1267,bestNN,18.386805,1103.000000,24592.000000,1612,3402,1,1776
synthetic_size100M,1268,bestNN,9.648967,7654.000000,93005.000000,15710,57341,72,5857
synthetic_size100M,1269,bestNN,49.608414,26273.000000,197252.000000,54460,82142,1587,20442
synthetic_size100M,1270,bestNN,60.292164,24183.000000,310620.000000,168746,545904,631,30178
synthetic_size100M,1271,bestNN,38.291065,5281.000000,26345.000000,9985,13243,52,2411
synthetic_size100M,1272,bestNN,54.000130,8991.000000,145904.000000,13796,24776,31,14203
synthetic_size100M,1273,bestNN,26.410757,6249.000000,115444.000000,8360,28703,30,11272
synthetic_size100M,1274,bestNN,10.069382,8343.000000,91068.000000,13723,39912,110,5574
synthetic_size100M,1275,bestNN,37.994244,4891.000000,29316.000000,5299,6144,33,3932
synthetic_size100M,1276,bestNN,25.264738,8057.000000,146429.000000,23246,223723,30,10776
synthetic_size100M,1277,bestNN,67.626549,9399.000000,151640.000000,4163,7896,70,22474
synthetic_size100M,1278,bestNN,17.195194,6762.000000,96802.000000,10861,46097,30,6826
synthetic_size100M,1279,bestNN,14.551621,5745.000000,83538.000000,4711,14092,47,5929
synthetic_size100M,1280,bestNN,11.706844,20544.000000,66892.000000,11994,12944,921,4214
synthetic_size100M,1281,bestNN,15.380755,6837.000000,92517.000000,6565,45440,36,5813
synthetic_size100M,1282,bestNN,9.564682,5933.000000,59170.000000,7749,19624,22,3547
synthetic_size100M,1283,bestNN,73.474907,15797.000000,144930.000000,68192,98193,236,27428
synthetic_size100M,1284,bestNN,79.829750,8850.000000,158604.000000,17453,45937,87,29839
synthetic_size100M,1285,bestNN,18.390469,16138.000000,102629.000000,20754,29844,274,6202
synthetic_size100M,1286,bestNN,28.485390,19937.000000,81718.000000,15975,16910,1009,6140
synthetic_size100M,1287,bestNN,13.738726,6105.000000,97632.000000,4152,9878,10,7275
synthetic_size100M,1288,bestNN,28.008774,8300.000000,167085.000000,8279,29771,49,12290
synthetic_size100M,1289,bestNN,40.815426,20268.000000,171944.000000,24720,30712,763,13395
synthetic_size100M,1290,bestNN,22.783573,59771.000000,71766.000000,23662,23666,3897,4841
synthetic_size100M,1291,bestNN,21.021439,12520.000000,74583.000000,32076,41460,295,4644
synthetic_size100M,1292,bestNN,36.247982,8677.000000,179817.000000,12982,61094,60,14293
synthetic_size100M,1293,bestNN,28.386652,5141.000000,59745.000000,13758,35755,37,5023
synthetic_size100M,1294,bestNN,62.828056,5594.000000,109745.000000,8865,34974,12,12821
synthetic_size100M,1295,bestNN,28.444529,11318.000000,92220.000000,42504,65600,358,6976
synthetic_size100M,1296,bestNN,10.201036,5126.000000,41600.000000,4866,8596,40,2718
synthetic_size100M,1297,bestNN,18.549734,15322.000000,87067.000000,11528,13086,658,6551
synthetic_size100M,1298,bestNN,24.164326,1347.000000,128684.000000,1757,158834,1,9699
synthetic_size100M,1299,bestNN,31.143061,8498.000000,145057.000000,12107,26479,85,11843
synthetic_size100M,1300,bestNN,25.581461,23250.000000,72628.000000,30889,30911,2851,7352
synthetic_size100M,1301,bestNN,12.033933,5213.000000,48662.000000,7466,15242,16,3299
synthetic_size100M,1302,bestNN,11.418158,1148.000000,44915.000000,1333,18652,1,3072
synthetic_size100M,1303,bestNN,8.935666,967.000000,34706.000000,1345,6245,1,2125
synthetic_size100M,1304,bestNN,93.323982,27232.000000,269916.000000,162840,207088,852,48323
synthetic_size100M,1305,bestNN,8.989883,5691.000000,56967.000000,4464,7733,24,3527
synthetic_size100M,1306,bestNN,9.324052,7235.000000,66342.000000,10792,17954,90,3825
synthetic_size100M,1307,bestNN,7.260090,4886.000000,28049.000000,5139,11177,28,1568
synthetic_size100M,1308,bestNN,32.055557,14044.000000,88977.000000,30874,46017,307,6703
synthetic_size100M,1309,bestNN,53.007683,11996.000000,336217.000000,27771,266573,107,28780
synthetic_size100M,1310,bestNN,22.724686,844.000000,50733.000000,1208,34938,1,3932
synthetic_size100M,1311,bestNN,20.574986,4968.000000,51875.000000,6223,17218,36,3686
synthetic_size100M,1312,bestNN,40.264019,6521.000000,45567.000000,6562,7950,136,3965
synthetic_size100M,1313,bestNN,5.968134,6715.000000,62458.000000,6773,19325,21,3464
synthetic_size100M,1314,bestNN,24.622383,6059.000000,42444.000000,7225,12064,52,2973
synthetic_size100M,1315,bestNN,13.389788,13903.000000,62472.000000,17046,21858,287,3612
synthetic_size100M,1316,bestNN,44.726440,6845.000000,185577.000000,2832,11856,41,25218
synthetic_size100M,1317,bestNN,16.458128,13115.000000,93238.000000,15835,20367,425,6315
synthetic_size100M,1318,bestNN,40.167213,7119.000000,49959.000000,7956,8969,47,5133
synthetic_size100M,1319,bestNN,31.130129,19909.000000,85471.000000,44539,47565,1155,7964
synthetic_size100M,1320,bestNN,7.357645,14789.000000,67755.000000,26977,41710,325,3584
synthetic_size100M,1321,bestNN,12.918240,5315.000000,82173.000000,2971,13942,17,6118
synthetic_size100M,1322,bestNN,103.741463,16735.000000,520922.000000,11132,124402,45,74483
synthetic_size100M,1323,bestNN,46.157192,20890.000000,141872.000000,8871,9254,1685,15418
synthetic_size100M,1324,bestNN,16.460190,6500.000000,55324.000000,10502,17059,99,3968
synthetic_size100M,1325,bestNN,18.911915,5473.000000,49911.000000,5513,6887,63,3588
synthetic_size100M,1326,bestNN,38.900455,4678.000000,44862.000000,4999,10698,24,4546
synthetic_size100M,1327,bestNN,8.082177,18989.000000,41527.000000,16064,16082,896,2516
synthetic_size100M,1328,bestNN,13.637415,5669.000000,40302.000000,5798,6790,61,2772
synthetic_size100M,1329,bestNN,23.617054,4476.000000,24547.000000,3981,4730,55,2079
synthetic_size100M,1330,bestNN,12.745385,7192.000000,101584.000000,12185,43829,78,7255
synthetic_size100M,1331,bestNN,38.355820,691.000000,58597.000000,969,15455,1,5969
synthetic_size100M,1332,bestNN,33.248760,8174.000000,176102.000000,18282,102155,40,14337
synthetic_size100M,1333,bestNN,50.471554,11363.000000,316368.000000,26023,129540,141,30383
synthetic_size100M,1334,bestNN,60.988331,6547.000000,89410.000000,14792,40677,27,13481
synthetic_size100M,1335,bestNN,47.534515,7134.000000,129548.000000,18253,37503,75,15045
synthetic_size100M,1336,bestNN,12.839356,15377.000000,71770.000000,12843,14401,815,5310
synthetic_size100M,1337,bestNN,64.201080,8425.000000,139403.000000,14345,83900,25,19428
synthetic_size100M,1338,bestNN,17.134720,5626.000000,64332.000000,3185,6195,46,4337
synthetic_size100M,1339,bestNN,23.510452,7682.000000,110473.000000,20863,68700,46,7682
synthetic_size100M,1340,bestNN,106.118507,11571.000000,287236.000000,3166,14478,118,52934
synthetic_size100M,1341,bestNN,37.956551,13160.000000,73053.000000,16034,17096,479,6465
synthetic_size100M,1342,bestNN,25.742765,17639.000000,43412.000000,17267,17302,976,3074
synthetic_size100M,1343,bestNN,23.051374,4581.000000,37943.000000,4389,6179,21,2519
synthetic_size100M,1344,bestNN,16.435932,11554.000000,85402.000000,24866,30701,238,5583
synthetic_size100M,1345,bestNN,52.330154,8898.000000,163563.000000,3098,5946,38,18372
synthetic_size100M,1346,bestNN,7.598609,8468.000000,37550.000000,9627,14768,172,2011
synthetic_size100M,1347,bestNN,106.511604,23518.000000,339704.000000,76472,109446,1014,60485
synthetic_size100M,1348,bestNN,6.690383,7194.000000,62412.000000,8670,20384,62,3652
synthetic_size100M,1349,bestNN,74.334282,8701.000000,107209.000000,7221,11595,70,20471
synthetic_size100M,1350,bestNN,9.138543,19913.000000,79987.000000,102297,122037,648,5149
synthetic_size100M,1351,bestNN,21.979424,5727.000000,96309.000000,3711,18311,17,8322
synthetic_size100M,1352,bestNN,12.502568,6886.000000,65460.000000,12663,24431,35,4348
synthetic_size100M,1353,bestNN,60.148006,8581.000000,120418.000000,7272,12861,111,18377
synthetic_size100M,1354,bestNN,54.550560,506.000000,66814.000000,797,11084,1,10355
synthetic_size100M,1355,bestNN,27.121141,5357.000000,48745.000000,5849,10621,25,3880
synthetic_size100M,1356,bestNN,12.956475,13270.000000,80153.000000,23214,30327,410,5003
synthetic_size100M,1357,bestNN,113.895157,589.000000,354914.000000,696,93651,1,65966
synthetic_size100M,1358,bestNN,12.428668,7652.000000,78497.000000,5688,8673,167,5519
synthetic_size100M,1359,bestNN,12.976117,7647.000000,78706.000000,1578,2255,58,5042
synthetic_size100M,1360,bestNN,12.832579,7035.000000,53324.000000,16477,23572,128,3770
synthetic_size100M,1361,bestNN,35.200523,6994.000000,153755.000000,10784,97363,20,13428
synthetic_size100M,1362,bestNN,28.289299,5202.000000,51971.000000,7645,9421,44,4170
synthetic_size100M,1363,bestNN,37.569962,7289.000000,117068.000000,11851,31285,45,8537
synthetic_size100M,1364,bestNN,8.869821,19534.000000,38893.000000,8344,8578,1024,2445
synthetic_size100M,1365,bestNN,52.412170,8817.000000,156102.000000,15275,30305,133,15078
synthetic_size100M,1366,bestNN,29.465755,8180.000000,79011.000000,11665,14844,202,5942
synthetic_size100M,1367,bestNN,16.311499,6184.000000,66879.000000,10929,39228,74,4404
synthetic_size100M,1368,bestNN,18.045994,6905.000000,77315.000000,6417,8971,104,4930
synthetic_size100M,1369,bestNN,35.017769,914.000000,39164.000000,1472,9628,1,3579
synthetic_size100M,1370,bestNN,25.814226,7781.000000,119784.000000,15769,56480,114,9523
synthetic_size100M,1371,bestNN,26.883396,5719.000000,47086.000000,10315,26988,43,3568
synthetic_size100M,1372,bestNN,19.120840,1065.000000,68635.000000,1494,12864,1,4290
synthetic_size100M,1373,bestNN,37.497723,5888.000000,59582.000000,4991,7548,88,5912
synthetic_size100M,1374,bestNN,108.012466,15908.000000,308345.000000,22322,42994,807,56968
synthetic_size100M,1375,bestNN,33.173286,7499.000000,62179.000000,29246,58598,146,5136
synthetic_size100M,1376,bestNN,29.324831,8708.000000,230216.000000,21541,132324,36,17593
synthetic_size100M,1377,bestNN,21.488956,6568.000000,106710.000000,5252,12574,55,8545
synthetic_size100M,1378,bestNN,41.707241,7875.000000,202909.000000,5577,44509,13,16116
synthetic_size100M,1379,bestNN,38.086468,22988.000000,106618.000000,26051,27962,1282,8161
synthetic_size100M,1380,bestNN,56.057384,21433.000000,177141.000000,85470,138547,832,17714
synthetic_size100M,1381,bestNN,20.855995,6156.000000,108364.000000,5099,12075,54,8547
synthetic_size100M,1382,bestNN,13.338305,8497.000000,122481.000000,5938,13849,131,7764
synthetic_size100M,1383,bestNN,12.848912,8686.000000,135507.000000,11749,36231,111,8889
synthetic_size100M,1384,bestNN,25.433685,7835.000000,112841.000000,10924,24676,108,8592
synthetic_size100M,1385,bestNN,43.628662,11902.000000,247715.000000,13704,20651,262,22447
synthetic_size100M,1386,bestNN,24.883680,6744.000000,63896.000000,9688,13924,24,4395
synthetic_size100M,1387,bestNN,10.642960,1398.000000,20057.000000,1702,3646,1,1180
synthetic_size100M,1388,bestNN,10.919258,10564.000000,88328.000000,18563,41612,119,4477
synthetic_size100M,1389,bestNN,7.751597,6063.000000,49103.000000,3346,4482,10,3181
synthetic_size100M,1390,bestNN,14.575411,12249.000000,86096.000000,23915,38903,313,5236
synthetic_size100M,1391,bestNN,78.245216,15425.000000,519684.000000,32594,992543,72,52207
synthetic_size100M,1392,bestNN,25.113977,8933.000000,52160.000000,7663,10336,122,3559
synthetic_size100M,1393,bestNN,26.047009,8067.000000,123515.000000,13958,47827,51,8148
synthetic_size100M,1394,bestNN,48.773312,1026.000000,329925.000000,1663,29459,1,42397
synthetic_size100M,1395,bestNN,34.451687,5162.000000,77796.000000,5593,17582,31,7323
synthetic_size100M,1396,bestNN,39.310730,896.000000,82536.000000,1076,43254,1,6832
synthetic_size100M,1397,bestNN,45.901848,6041.000000,78574.000000,12182,35572,41,8778
synthetic_size100M,1398,bestNN,32.546032,883.000000,34005.000000,1291,3942,1,2976
synthetic_size100M,1399,bestNN,43.363468,1481.000000,161383.000000,1705,120298,1,13774
synthetic_size100M,1400,bestNN,33.865078,4906.000000,53566.000000,4292,9439,22,5286
synthetic_size100M,1401,bestNN,57.251110,5669.000000,98921.000000,4815,10376,28,12378
synthetic_size100M,1402,bestNN,10.022985,10089.000000,71965.000000,27658,58397,187,4224
synthetic_size100M,1403,bestNN,14.352548,7280.000000,91380.000000,6048,17165,56,6154
synthetic_size100M,1404,bestNN,6.176501,6366.000000,73699.000000,6753,28622,29,4533
synthetic_size100M,1405,bestNN,73.470650,9381.000000,161798.000000,7869,59459,11,31332
synthetic_size100M,1406,bestNN,16.182163,6881.000000,76111.000000,13426,27584,106,5461
synthetic_size100M,1407,bestNN,17.607653,5900.000000,56612.000000,7021,16520,21,4271
synthetic_size100M,1408,bestNN,58.409512,11235.000000,197316.000000,37229,113711,98,20442
synthetic_size100M,1409,bestNN,15.049086,15522.000000,153714.000000,38404,91998,463,10525
synthetic_size100M,1410,bestNN,66.977249,21751.000000,132517.000000,69736,74646,1385,18966
synthetic_size100M,1411,bestNN,15.018826,9402.000000,93985.000000,9664,25709,63,5090
synthetic_size100M,1412,bestNN,16.834837,19584.000000,164976.000000,50244,89193,556,10707
synthetic_size100M,1413,bestNN,86.822487,13908.000000,229241.000000,17394,59607,69,39187
synthetic_size100M,1414,bestNN,8.481934,11827.000000,85309.000000,21293,29654,233,5130
synthetic_size100M,1415,bestNN,35.663010,7163.000000,108273.000000,18685,97688,37,8191
synthetic_size100M,1416,bestNN,19.336597,5159.000000,43850.000000,4423,10205,18,2960
synthetic_size100M,1417,bestNN,14.287868,8794.000000,131901.000000,8902,133342,12,7887
synthetic_size100M,1418,bestNN,107.780403,13779.000000,365527.000000,12964,43313,188,65431
synthetic_size100M,1419,bestNN,53.949360,13910.000000,46243.000000,4887,5135,1424,7280
synthetic_size100M,1420,bestNN,46.265320,5900.000000,104073.000000,13126,46812,59,11322
synthetic_size100M,1421,bestNN,29.524017,10680.000000,163990.000000,59685,225349,109,11561
synthetic_size100M,1422,bestNN,31.665636,6633.000000,68301.000000,26260,66218,80,5800
synthetic_size100M,1423,bestNN,7.909131,7257.000000,91103.000000,11287,31420,59,5551
synthetic_size100M,1424,bestNN,68.382042,6334.000000,98571.000000,12189,36362,41,16928
synthetic_size100M,1425,bestNN,10.086795,1351.000000,62911.000000,1923,37633,1,3870
synthetic_size100M,1426,bestNN,62.494991,6944.000000,116670.000000,11689,58302,27,18807
synthetic_size100M,1427,bestNN,20.752710,1225.000000,74077.000000,1732,26109,1,5861
synthetic_size100M,1428,bestNN,6.536812,6395.000000,77525.000000,6728,16771,25,4325
synthetic_size100M,1429,bestNN,21.182678,19396.000000,40615.000000,47269,48400,1172,3129
synthetic_size100M,1430,bestNN,14.490306,21806.000000,135672.000000,34698,51638,873,8873
synthetic_size100M,1431,bestNN,33.776268,25501.000000,60108.000000,7131,7141,1652,4629
synthetic_size100M,1432,bestNN,20.855577,1024.000000,133505.000000,1471,43454,1,9872
synthetic_size100M,1433,bestNN,35.703674,4598.000000,35310.000000,8226,14680,41,3257
synthetic_size100M,1434,bestNN,69.814789,15915.000000,347636.000000,47676,126503,322,42125
synthetic_size100M,1435,bestNN,9.208032,5296.000000,25815.000000,3595,5412,17,1201
synthetic_size100M,1436,bestNN,11.783261,7523.000000,60505.000000,4582,7166,143,4124
synthetic_size100M,1437,bestNN,67.760963,22441.000000,202983.000000,48604,56195,1434,28202
synthetic_size100M,1438,bestNN,23.961653,951.000000,147598.000000,1327,198401,1,9057
synthetic_size100M,1439,bestNN,16.052486,7907.000000,80819.000000,9699,31967,31,5124
synthetic_size100M,1440,bestNN,19.080952,18707.000000,102512.000000,18296,20686,630,5840
synthetic_size100M,1441,bestNN,17.329853,8125.000000,91399.000000,30400,76469,50,6058
synthetic_size100M,1442,bestNN,12.478790,9804.000000,133897.000000,24472,163049,74,8437
synthetic_size100M,1443,bestNN,10.373676,6548.000000,61796.000000,7962,25668,23,3561
synthetic_size100M,1444,bestNN,20.014986,7868.000000,38234.000000,13323,14773,296,3113
synthetic_size100M,1445,bestNN,47.641785,5177.000000,58367.000000,11495,21034,41,7316
synthetic_size100M,1446,bestNN,9.165985,9762.000000,94082.000000,9175,15305,198,6298
synthetic_size100M,1447,bestNN,18.173170,7295.000000,102331.000000,5825,24188,27,7054
synthetic_size100M,1448,bestNN,47.428596,5808.000000,87530.000000,7391,15895,36,10285
synthetic_size100M,1449,bestNN,26.117828,6385.000000,97489.000000,8676,16976,50,7522
synthetic_size100M,1450,bestNN,50.315643,5973.000000,56038.000000,9482,13576,79,7664
synthetic_size100M,1451,bestNN,39.464409,6966.000000,102234.000000,17401,35787,50,11693
synthetic_size100M,1452,bestNN,30.837095,9775.000000,161274.000000,39460,99043,162,13305
synthetic_size100M,1453,bestNN,43.441116,5291.000000,43620.000000,3496,4036,69,4889
synthetic_size100M,1454,bestNN,44.290379,17070.000000,54868.000000,19645,20059,1176,5860
synthetic_size100M,1455,bestNN,11.304111,7102.000000,82510.000000,20406,71959,68,5365
synthetic_size100M,1456,bestNN,44.916599,9527.000000,243535.000000,8981,81836,22,20152
synthetic_size100M,1457,bestNN,55.409710,5142.000000,69856.000000,12256,40032,27,8838
synthetic_size100M,1458,bestNN,87.856407,8948.000000,191275.000000,13222,29895,258,38579
synthetic_size100M,1459,bestNN,47.152187,5740.000000,81315.000000,6649,42284,25,9512
synthetic_size100M,1460,bestNN,32.925488,9607.000000,191560.000000,34695,136596,65,14791
synthetic_size100M,1461,bestNN,17.473503,18469.000000,38464.000000,12818,12888,1223,3034
synthetic_size100M,1462,bestNN,78.916145,20281.000000,229822.000000,25740,50821,851,36662
synthetic_size100M,1463,bestNN,95.690201,28283.000000,343187.000000,121073,156241,1725,60497
synthetic_size100M,1464,bestNN,46.648445,1065.000000,61063.000000,1701,20280,1,6145
synthetic_size100M,1465,bestNN,59.884647,19268.000000,104738.000000,29152,31540,1427,15580
synthetic_size100M,1466,bestNN,25.945885,5609.000000,62518.000000,7560,17506,25,5530
synthetic_size100M,1467,bestNN,26.722605,18919.000000,74548.000000,11789,12052,981,5669
synthetic_size100M,1468,bestNN,81.668495,19330.000000,601504.000000,83654,2950995,87,59014
synthetic_size100M,1469,bestNN,52.783676,5699.000000,64056.000000,10989,15722,47,7190
synthetic_size100M,1470,bestNN,25.929777,4394.000000,43849.000000,3713,9030,15,3610
synthetic_size100M,1471,bestNN,49.254089,10573.000000,263063.000000,16009,290295,27,24963
synthetic_size100M,1472,bestNN,24.633904,6703.000000,90190.000000,13171,21397,89,7231
synthetic_size100M,1473,bestNN,63.708324,13210.000000,361074.000000,13351,147166,14,35675
synthetic_size100M,1474,bestNN,35.539940,8845.000000,195755.000000,4938,29526,24,15195
synthetic_size100M,1475,bestNN,9.121531,6585.000000,87069.000000,10521,83690,27,5358
synthetic_size100M,1476,bestNN,31.982773,7878.000000,113448.000000,26207,50873,125,11181
synthetic_size100M,1477,bestNN,24.499729,21398.000000,248546.000000,36779,60241,767,19463
synthetic_size100M,1478,bestNN,8.839365,1154.000000,77567.000000,1640,30808,1,4103
synthetic_size100M,1479,bestNN,25.515701,14002.000000,191149.000000,44768,162503,297,13705
synthetic_size100M,1480,bestNN,35.670555,1150.000000,38580.000000,1954,7668,1,3496
synthetic_size100M,1481,bestNN,22.996805,19461.000000,106726.000000,56470,71276,728,7172
synthetic_size100M,1482,bestNN,24.284935,7483.000000,109303.000000,7752,21813,36,8266
synthetic_size100M,1483,bestNN,31.415474,5561.000000,75951.000000,6860,27664,22,7023
synthetic_size100M,1484,bestNN,8.643247,7936.000000,99494.000000,8551,38532,41,6073
synthetic_size100M,1485,bestNN,61.972790,18434.000000,188607.000000,42439,52780,1289,29930
synthetic_size100M,1486,bestNN,43.441708,12586.000000,197749.000000,47692,153488,218,15058
synthetic_size100M,1487,bestNN,111.741722,19648.000000,604622.000000,177816,1145321,646,82195
synthetic_size100M,1488,bestNN,70.509483,24909.000000,210454.000000,66479,72070,1277,26097
synthetic_size100M,1489,bestNN,51.500278,1169.000000,278520.000000,1988,18471,1,31954
synthetic_size100M,1490,bestNN,4.181060,6396.000000,51972.000000,7168,16687,60,2895
synthetic_size100M,1491,bestNN,6.736589,21558.000000,84695.000000,53632,77332,795,5042
synthetic_size100M,1492,bestNN,63.141758,14572.000000,353686.000000,48121,561521,133,34096
synthetic_size100M,1493,bestNN,95.475769,29520.000000,239052.000000,36370,38017,3424,41818
synthetic_size100M,1494,bestNN,4.103215,6967.000000,43631.000000,7039,9165,116,2164
synthetic_size100M,1495,bestNN,9.618595,7119.000000,129322.000000,5596,96426,11,7305
synthetic_size100M,1496,bestNN,70.517967,17570.000000,345718.000000,58451,160879,805,47124
synthetic_size100M,1497,bestNN,14.501608,916.000000,23656.000000,1375,3687,1,1414
synthetic_size100M,1498,bestNN,22.135593,7934.000000,91611.000000,12553,31198,77,6500
synthetic_size100M,1499,bestNN,20.195089,5292.000000,33316.000000,7505,13932,12,2504
synthetic_size100M,1500,bestNN,35.516724,6942.000000,123827.000000,8116,15090,99,12003
synthetic_size100M,1501,bestNN,61.404011,26262.000000,224520.000000,51998,58042,1839,23674
synthetic_size100M,1502,bestNN,6.267642,17135.000000,51452.000000,17853,18433,719,2944
synthetic_size100M,1503,bestNN,13.866643,7837.000000,148343.000000,9340,59321,50,9870
synthetic_size100M,1504,bestNN,20.014080,9775.000000,152049.000000,43035,189841,135,10508
synthetic_size100M,1505,bestNN,29.612053,6520.000000,119288.000000,17373,86163,37,8409
synthetic_size100M,1506,bestNN,19.137220,27240.000000,119357.000000,49646,51609,1334,8780
synthetic_size100M,1507,bestNN,129.369537,15803.000000,570369.000000,5902,273922,73,94284
synthetic_size100M,1508,bestNN,21.343964,4738.000000,39635.000000,5660,9342,27,3571
synthetic_size100M,1509,bestNN,61.937618,8056.000000,162552.000000,28995,107234,63,24646
synthetic_size100M,1510,bestNN,20.485718,21072.000000,93367.000000,7108,7190,1025,6175
synthetic_size100M,1511,bestNN,8.186997,5847.000000,67548.000000,7164,27701,25,4186
synthetic_size100M,1512,bestNN,10.834312,4476.000000,28745.000000,3254,4750,44,1985
synthetic_size100M,1513,bestNN,18.183592,7969.000000,164647.000000,20366,171303,55,10631
synthetic_size100M,1514,bestNN,3.410433,7321.000000,49869.000000,8350,17574,78,2713
synthetic_size100M,1515,bestNN,40.686867,6394.000000,103567.000000,9688,26328,70,16919
synthetic_size100M,1516,bestNN,7.179413,8462.000000,90514.000000,15208,74745,46,4750
synthetic_size100M,1517,bestNN,18.261387,7172.000000,93766.000000,2857,5847,16,5815
synthetic_size100M,1518,bestNN,46.489292,5147.000000,37754.000000,5080,6439,60,4183
synthetic_size100M,1519,bestNN,18.333912,5764.000000,37543.000000,6722,11218,31,2591
synthetic_size100M,1520,bestNN,6.348960,6260.000000,88119.000000,5614,20952,33,5199
synthetic_size100M,1521,bestNN,5.722726,5376.000000,39068.000000,2606,5110,19,1612
synthetic_size100M,1522,bestNN,15.147157,6136.000000,90489.000000,6062,31375,17,5667
synthetic_size100M,1523,bestNN,22.595360,21481.000000,46901.000000,42156,42755,1221,3428
synthetic_size100M,1524,bestNN,8.848820,8255.000000,89381.000000,21074,52244,66,5435
synthetic_size100M,1525,bestNN,16.656307,5434.000000,62286.000000,5474,15242,27,4626
synthetic_size100M,1526,bestNN,39.211742,7967.000000,100299.000000,8239,12172,208,9406
synthetic_size100M,1527,bestNN,35.313335,7511.000000,139282.000000,19056,49690,57,14664
synthetic_size100M,1528,bestNN,13.196746,9307.000000,99694.000000,11712,18597,193,6562
synthetic_size100M,1529,bestNN,48.793480,10221.000000,221325.000000,28533,149643,74,19395
synthetic_size100M,1530,bestNN,19.517113,8619.000000,181087.000000,10241,106010,45,12536
synthetic_size100M,1531,bestNN,50.444004,10888.000000,276956.000000,13732,51534,107,34086
synthetic_size100M,1532,bestNN,31.990538,5956.000000,68684.000000,16314,81367,29,5493
synthetic_size100M,1533,bestNN,4.579694,6507.000000,41569.000000,7301,13120,34,2237
synthetic_size100M,1534,bestNN,13.377419,7280.000000,62695.000000,9571,17364,75,3950
synthetic_size100M,1535,bestNN,55.018253,5134.000000,92840.000000,3764,7808,44,14735
synthetic_size100M,1536,bestNN,10.650748,9458.000000,106192.000000,14216,30636,192,7101
synthetic_size100M,1537,bestNN,60.261005,10387.000000,202023.000000,39912,195822,112,22662
synthetic_size100M,1538,bestNN,29.202488,16841.000000,80075.000000,15804,17483,861,6402
synthetic_size100M,1539,bestNN,59.646534,6000.000000,121696.000000,8325,34090,56,15958
synthetic_size100M,1540,bestNN,16.613413,5299.000000,61355.000000,3432,6895,29,4700
synthetic_size100M,1541,bestNN,13.091320,28556.000000,78656.000000,30789,30926,1593,5347
synthetic_size100M,1542,bestNN,15.882330,20344.000000,93741.000000,25369,27488,1012,6353
synthetic_size100M,1543,bestNN,15.708355,6106.000000,72976.000000,3576,5434,31,4892
synthetic_size100M,1544,bestNN,41.543716,686.000000,98628.000000,1290,16440,1,10885
synthetic_size100M,1545,bestNN,28.655758,14945.000000,216732.000000,49672,243509,214,14659
synthetic_size100M,1546,bestNN,44.755722,7371.000000,141460.000000,21831,256785,12,11327
synthetic_size100M,1547,bestNN,19.582722,8295.000000,58346.000000,8051,18050,38,3475
synthetic_size100M,1548,bestNN,36.700745,5445.000000,35205.000000,4453,8898,20,3412
synthetic_size100M,1549,bestNN,24.037933,16152.000000,37633.000000,19664,19763,1116,3020
synthetic_size100M,1550,bestNN,37.186066,17365.000000,79430.000000,11471,11919,1251,8863
synthetic_size100M,1551,bestNN,33.836117,5113.000000,52010.000000,7858,17131,26,5433
synthetic_size100M,1552,bestNN,18.957201,6144.000000,97222.000000,8538,32287,44,7528
synthetic_size100M,1553,bestNN,7.053976,11215.000000,46979.000000,10868,11616,308,2627
synthetic_size100M,1554,bestNN,13.804306,6682.000000,71119.000000,10297,44755,20,4618
synthetic_size100M,1555,bestNN,44.549873,16534.000000,59130.000000,17421,17806,1131,6265
synthetic_size100M,1556,bestNN,25.094852,8164.000000,72591.000000,15619,20554,223,5873
synthetic_size100M,1557,bestNN,55.085876,14152.000000,353039.000000,36612,196939,196,32055
synthetic_size100M,1558,bestNN,43.491348,14527.000000,69891.000000,10117,11138,1022,7777
synthetic_size100M,1559,bestNN,61.863758,40482.000000,187273.000000,243115,255297,2385,20852
synthetic_size100M,1560,bestNN,53.696842,21090.000000,258199.000000,108520,159179,569,23752
synthetic_size100M,1561,bestNN,8.808847,10557.000000,109476.000000,25404,50963,213,6776
synthetic_size100M,1562,bestNN,9.560734,1014.000000,39359.000000,1401,12199,1,2621
synthetic_size100M,1563,bestNN,55.348450,19823.000000,100899.000000,43098,45903,1295,11776
synthetic_size100M,1564,bestNN,6.933712,22323.000000,96170.000000,8459,9384,1014,6061
synthetic_size100M,1565,bestNN,16.341202,12157.000000,132736.000000,34875,76937,278,8640
synthetic_size100M,1566,bestNN,28.458143,11777.000000,170169.000000,49001,158488,201,12154
synthetic_size100M,1567,bestNN,11.250431,5815.000000,57972.000000,7230,16972,17,3287
synthetic_size100M,1568,bestNN,31.869167,8829.000000,214211.000000,3101,43680,10,15131
synthetic_size100M,1569,bestNN,7.969374,12770.000000,46683.000000,9358,10069,383,2570
synthetic_size100M,1570,bestNN,55.619301,13768.000000,294820.000000,43605,134195,260,25505
synthetic_size100M,1571,bestNN,26.423250,12457.000000,119745.000000,9131,14011,199,8051
synthetic_size100M,1572,bestNN,93.904747,18195.000000,313489.000000,32454,65205,346,55263
synthetic_size100M,1573,bestNN,12.780942,10378.000000,116637.000000,33363,105543,116,7605
synthetic_size100M,1574,bestNN,6.329537,20560.000000,49101.000000,22657,23393,841,2779
synthetic_size100M,1575,bestNN,23.132849,7356.000000,95049.000000,10158,30961,54,6622
synthetic_size100M,1576,bestNN,9.791087,19097.000000,50353.000000,13328,14018,997,3379
synthetic_size100M,1577,bestNN,34.284882,13848.000000,62579.000000,12741,14569,812,6444
synthetic_size100M,1578,bestNN,13.482404,7518.000000,116146.000000,25013,128550,41,7898
synthetic_size100M,1579,bestNN,71.389511,16520.000000,317502.000000,35712,81332,470,37573
synthetic_size100M,1580,bestNN,60.569225,1246.000000,79687.000000,1927,15798,1,12284
synthetic_size100M,1581,bestNN,13.186652,11878.000000,118796.000000,21884,32902,287,7848
synthetic_size100M,1582,bestNN,24.121346,4249.000000,23765.000000,3879,5979,26,1983
synthetic_size100M,1583,bestNN,16.815411,4675.000000,45242.000000,4421,8063,26,3580
synthetic_size100M,1584,bestNN,11.506618,952.000000,50806.000000,1324,14200,1,3028
synthetic_size100M,1585,bestNN,18.242723,7507.000000,80696.000000,17397,39124,98,5451
synthetic_size100M,1586,bestNN,21.843512,864.000000,115454.000000,1259,25513,1,8348
synthetic_size100M,1587,bestNN,10.640512,10549.000000,58659.000000,8569,10274,340,3964
synthetic_size100M,1588,bestNN,19.070366,7936.000000,157768.000000,12516,52837,20,10865
synthetic_size100M,1589,bestNN,83.577370,13519.000000,157232.000000,9146,11508,703,29180
synthetic_size100M,1590,bestNN,35.152523,1010.000000,68023.000000,1441,12741,1,6928
synthetic_size100M,1591,bestNN,55.739574,6262.000000,109590.000000,10657,41920,17,12335
synthetic_size100M,1592,bestNN,30.783211,6207.000000,84423.000000,9244,33407,31,6586
synthetic_size100M,1593,bestNN,13.164484,8146.000000,111230.000000,7206,18722,92,7006
synthetic_size100M,1594,bestNN,19.105173,4841.000000,47719.000000,4390,9243,28,3498
synthetic_size100M,1595,bestNN,41.241188,5223.000000,69380.000000,8027,30660,24,6411
synthetic_size100M,1596,bestNN,31.890167,23955.000000,160225.000000,20371,22615,1054,11393
synthetic_size100M,1597,bestNN,32.199844,10150.000000,194166.000000,26891,69543,170,15495
synthetic_size100M,1598,bestNN,37.173691,28054.000000,31432.000000,9946,9946,2445,2823
synthetic_size100M,1599,bestNN,27.443235,1119.000000,61404.000000,1657,38084,1,4841
synthetic_size100M,1600,bestNN,43.410652,8792.000000,217485.000000,8669,41341,64,21732
synthetic_size100M,1601,bestNN,31.130348,4597.000000,37362.000000,5681,10061,27,2924
synthetic_size100M,1602,bestNN,21.779730,6628.000000,142806.000000,4477,19025,28,10026
synthetic_size100M,1603,bestNN,38.365829,9137.000000,72885.000000,19367,25925,271,6272
synthetic_size100M,1604,bestNN,8.356004,6645.000000,64133.000000,7276,14482,32,3834
synthetic_size100M,1605,bestNN,15.141191,7792.000000,153736.000000,10994,79139,60,10624
synthetic_size100M,1606,bestNN,24.063419,5466.000000,58405.000000,7971,21782,75,4306
synthetic_size100M,1607,bestNN,34.880627,8691.000000,236476.000000,11379,125071,28,20140
synthetic_size100M,1608,bestNN,7.468274,5439.000000,54739.000000,5341,11626,23,3351
synthetic_size100M,1609,bestNN,8.081732,12356.000000,82185.000000,16544,19761,298,5013
synthetic_size100M,1610,bestNN,17.340345,18299.000000,49261.000000,29849,30204,1007,3684
synthetic_size100M,1611,bestNN,19.744398,398.000000,41483.000000,454,15661,1,3112
synthetic_size100M,1612,bestNN,10.261191,21291.000000,70256.000000,46923,50043,1072,4709
synthetic_size100M,1613,bestNN,59.700436,9035.000000,101892.000000,6843,9007,330,16351
synthetic_size100M,1614,bestNN,18.831820,4584.000000,24483.000000,3644,4927,49,1747
synthetic_size100M,1615,bestNN,43.888020,19143.000000,90664.000000,32763,37026,1143,9247
synthetic_size100M,1616,bestNN,101.044327,18944.000000,380774.000000,25727,85120,54,64677
synthetic_size100M,1617,bestNN,51.753540,17971.000000,437297.000000,121801,1894895,248,28891
synthetic_size100M,1618,bestNN,38.161709,15735.000000,65981.000000,5940,6308,1050,7037
synthetic_size100M,1619,bestNN,25.997629,6315.000000,93982.000000,6238,29250,43,7300
synthetic_size100M,1620,bestNN,26.535393,7782.000000,152479.000000,6668,15743,93,11255
synthetic_size100M,1621,bestNN,48.810734,6835.000000,196102.000000,12555,87566,51,18745
synthetic_size100M,1622,bestNN,15.962671,5447.000000,64747.000000,6000,11305,14,4825
synthetic_size100M,1623,bestNN,33.879295,4746.000000,56718.000000,3584,7869,29,6630
synthetic_size100M,1624,bestNN,56.254642,1023.000000,156371.000000,1432,51873,1,18507
synthetic_size100M,1625,bestNN,16.786694,6215.000000,71863.000000,5285,19549,11,4513
synthetic_size100M,1626,bestNN,13.199256,38310.000000,116935.000000,87923,93919,2021,7796
synthetic_size100M,1627,bestNN,46.294903,6935.000000,97060.000000,8420,16604,61,8815
synthetic_size100M,1628,bestNN,12.744367,4911.000000,47102.000000,3629,9967,10,2672
synthetic_size100M,1629,bestNN,36.033871,15502.000000,177993.000000,15452,24299,625,13569
synthetic_size100M,1630,bestNN,77.468987,13563.000000,365868.000000,6752,68059,48,44182
synthetic_size100M,1631,bestNN,22.391319,5629.000000,64646.000000,12288,29565,29,5034
synthetic_size100M,1632,bestNN,33.597672,9185.000000,208933.000000,30421,630188,23,13191
synthetic_size100M,1633,bestNN,5.309641,5524.000000,36275.000000,3459,5390,26,1884
synthetic_size100M,1634,bestNN,38.910717,6522.000000,132631.000000,5137,13351,42,14304
synthetic_size100M,1635,bestNN,35.643131,1005.000000,213188.000000,1723,56345,1,16085
synthetic_size100M,1636,bestNN,44.566944,12772.000000,132427.000000,44271,68173,306,11695
synthetic_size100M,1637,bestNN,51.886097,12095.000000,318614.000000,28863,320839,37,26235
synthetic_size100M,1638,bestNN,15.481268,7097.000000,104371.000000,4641,11830,11,6235
synthetic_size100M,1639,bestNN,28.117504,14279.000000,86050.000000,23099,28694,694,7754
synthetic_size100M,1640,bestNN,72.643112,20901.000000,376172.000000,100362,439206,421,38994
synthetic_size100M,1641,bestNN,11.388587,6068.000000,60101.000000,7511,15768,30,3694
synthetic_size100M,1642,bestNN,63.767235,6253.000000,129913.000000,9747,93430,20,17321
synthetic_size100M,1643,bestNN,34.006939,9414.000000,126352.000000,20732,57007,188,11212
synthetic_size100M,1644,bestNN,31.673332,6703.000000,137300.000000,4970,11409,38,10593
synthetic_size100M,1645,bestNN,42.019897,8125.000000,89206.000000,12449,20316,183,9411
synthetic_size100M,1646,bestNN,34.931545,10303.000000,94437.000000,39975,76538,286,7847
synthetic_size100M,1647,bestNN,22.523165,26268.000000,113591.000000,28529,29476,1325,8121
synthetic_size100M,1648,bestNN,15.094402,8071.000000,151613.000000,14287,46525,61,10232
synthetic_size100M,1649,bestNN,14.626549,4589.000000,27671.000000,5883,6615,61,1997
synthetic_size100M,1650,bestNN,16.156385,5185.000000,39130.000000,4241,5263,62,2931
synthetic_size100M,1651,bestNN,34.761364,5100.000000,32274.000000,8165,12980,34,2603
synthetic_size100M,1652,bestNN,20.667912,9613.000000,154792.000000,38419,162268,114,10872
synthetic_size100M,1653,bestNN,9.933099,5094.000000,27025.000000,4251,5508,30,1606
synthetic_size100M,1654,bestNN,44.580513,1235.000000,295020.000000,1977,132404,1,32861
synthetic_size100M,1655,bestNN,80.466400,11168.000000,236910.000000,12279,86263,16,35212
synthetic_size100M,1656,bestNN,7.225204,8616.000000,48993.000000,12917,14674,152,2829
synthetic_size100M,1657,bestNN,10.548623,11989.000000,70734.000000,13771,19477,429,4723
synthetic_size100M,1658,bestNN,20.106113,11756.000000,190360.000000,32088,117082,189,12889
synthetic_size100M,1659,bestNN,6.888620,10023.000000,91241.000000,9320,21342,223,5477
synthetic_size100M,1660,bestNN,54.514771,6087.000000,85545.000000,8440,15700,30,10418
synthetic_size100M,1661,bestNN,23.903421,4149.000000,52121.000000,1356,4545,9,4014
synthetic_size100M,1662,bestNN,41.630894,16645.000000,213234.000000,216757,286571,1692,16411
synthetic_size100M,1663,bestNN,36.704224,5200.000000,59236.000000,3349,7547,36,7278
synthetic_size100M,1664,bestNN,24.991224,6418.000000,58386.000000,8107,15863,44,4870
synthetic_size100M,1665,bestNN,25.468498,7407.000000,77039.000000,4035,5729,76,5825
synthetic_size100M,1666,bestNN,23.978081,22990.000000,119597.000000,52869,65760,761,7429
synthetic_size100M,1667,bestNN,49.070007,1032.000000,94172.000000,1414,6618,1,12852
synthetic_size100M,1668,bestNN,10.125102,6281.000000,48011.000000,11637,34282,28,2892
synthetic_size100M,1669,bestNN,80.411880,11481.000000,135657.000000,8157,11263,215,26455
synthetic_size100M,1670,bestNN,45.886513,5589.000000,62053.000000,5638,8013,142,6939
synthetic_size100M,1671,bestNN,15.968125,6590.000000,83141.000000,18122,38103,101,5678
synthetic_size100M,1672,bestNN,11.777318,5488.000000,46107.000000,5120,11071,30,2815
synthetic_size100M,1673,bestNN,17.248131,17543.000000,64668.000000,31582,32940,748,4309
synthetic_size100M,1674,bestNN,32.869461,5174.000000,73287.000000,8905,31768,42,6552
synthetic_size100M,1675,bestNN,8.401060,6123.000000,45864.000000,9340,18027,64,2703
synthetic_size100M,1676,bestNN,33.272350,5403.000000,32136.000000,10640,13547,44,2524
synthetic_size100M,1677,bestNN,15.735887,4582.000000,44468.000000,5129,19783,6,2694
synthetic_size100M,1678,bestNN,4.496951,11877.000000,69684.000000,17629,29623,317,4107
synthetic_size100M,1679,bestNN,28.061443,17469.000000,76680.000000,29763,33031,1186,7708
synthetic_size100M,1680,bestNN,37.038132,5341.000000,111354.000000,5512,11704,39,11114
synthetic_size100M,1681,bestNN,6.670241,8431.000000,93158.000000,12617,37498,163,5961
synthetic_size100M,1682,bestNN,17.877541,20786.000000,72442.000000,16056,16986,990,4579
synthetic_size100M,1683,bestNN,48.264748,12539.000000,82799.000000,13428,14656,1167,17304
synthetic_size100M,1684,bestNN,55.525509,6174.000000,99490.000000,5548,18675,15,14003
synthetic_size100M,1685,bestNN,40.115410,6228.000000,109473.000000,13585,47343,47,10806
synthetic_size100M,1686,bestNN,25.235088,6724.000000,108091.000000,23424,81901,68,8257
synthetic_size100M,1687,bestNN,6.714875,10269.000000,90735.000000,11991,20340,257,5981
synthetic_size100M,1688,bestNN,25.202232,8426.000000,150886.000000,10475,35406,65,10988
synthetic_size100M,1689,bestNN,81.956932,10514.000000,246036.000000,14995,92403,34,37121
synthetic_size100M,1690,bestNN,20.105162,8130.000000,103981.000000,23860,39300,106,7318
synthetic_size100M,1691,bestNN,8.756646,7064.000000,106514.000000,12010,63978,39,6020
synthetic_size100M,1692,bestNN,28.465929,15679.000000,104495.000000,9114,11881,468,8676
synthetic_size100M,1693,bestNN,39.059753,1459.000000,130254.000000,1954,65531,1,9129
synthetic_size100M,1694,bestNN,31.370975,10971.000000,202230.000000,37618,224364,80,14213
synthetic_size100M,1695,bestNN,52.519329,12519.000000,166073.000000,33492,41681,392,18266
synthetic_size100M,1696,bestNN,11.741823,9266.000000,102696.000000,10724,20094,232,7404
synthetic_size100M,1697,bestNN,41.508171,21657.000000,198351.000000,58406,82358,1026,20198
synthetic_size100M,1698,bestNN,7.080324,6485.000000,60300.000000,7020,16964,49,3577
synthetic_size100M,1699,bestNN,13.112111,12501.000000,88168.000000,35433,48995,351,5758
synthetic_size100M,1700,bestNN,53.375961,24940.000000,283741.000000,34085,44449,2184,35473
synthetic_size100M,1701,bestNN,58.027573,7929.000000,148129.000000,21959,54235,126,18458
synthetic_size100M,1702,bestNN,29.360136,6923.000000,103721.000000,8640,16203,122,9197
synthetic_size100M,1703,bestNN,16.670332,8042.000000,159182.000000,13708,121442,27,10755
synthetic_size100M,1704,bestNN,13.279214,37306.000000,123384.000000,69486,79726,1801,8047
synthetic_size100M,1705,bestNN,15.392719,1223.000000,37055.000000,1830,6131,1,2229
synthetic_size100M,1706,bestNN,9.606182,29284.000000,116100.000000,45873,50200,1336,7372
synthetic_size100M,1707,bestNN,21.932701,6830.000000,95740.000000,8717,66378,11,5914
synthetic_size100M,1708,bestNN,31.025492,7316.000000,60404.000000,13295,19971,147,4950
synthetic_size100M,1709,bestNN,21.974962,7448.000000,76861.000000,13184,33226,98,5113
synthetic_size100M,1710,bestNN,13.308150,7080.000000,99322.000000,15340,80033,14,6708
synthetic_size100M,1711,bestNN,90.044624,11801.000000,286134.000000,21482,227191,37,47047
synthetic_size100M,1712,bestNN,92.385696,20265.000000,302927.000000,41419,107568,481,47144
synthetic_size100M,1713,bestNN,50.511517,19727.000000,103014.000000,44721,48994,1376,12265
synthetic_size100M,1714,bestNN,6.238330,6737.000000,94415.000000,4908,12521,28,5895
synthetic_size100M,1715,bestNN,25.620846,6962.000000,102400.000000,7600,20809,70,7748
synthetic_size100M,1716,bestNN,55.601536,6480.000000,77828.000000,5856,29013,9,9059
synthetic_size100M,1717,bestNN,18.542164,9182.000000,44004.000000,5334,6071,236,2815
synthetic_size100M,1718,bestNN,33.374142,959.000000,49348.000000,1592,16663,1,4456
synthetic_size100M,1719,bestNN,5.666402,7699.000000,79993.000000,5513,16386,95,4986
synthetic_size100M,1720,bestNN,14.095262,1368.000000,38598.000000,1975,8484,1,2799
synthetic_size100M,1721,bestNN,127.623512,31245.000000,520613.000000,114153,202835,1617,86451
synthetic_size100M,1722,bestNN,8.675269,897.000000,45639.000000,1106,6240,1,2766
synthetic_size100M,1723,bestNN,40.931717,4706.000000,44330.000000,5407,15104,7,4477
synthetic_size100M,1724,bestNN,22.635418,6616.000000,43122.000000,5787,7070,141,3274
synthetic_size100M,1725,bestNN,87.371346,9131.000000,212477.000000,11899,74643,51,36381
synthetic_size100M,1726,bestNN,92.389656,13003.000000,296968.000000,27886,146241,76,48350
synthetic_size100M,1727,bestNN,13.723858,8000.000000,96745.000000,7396,30967,40,6277
synthetic_size100M,1728,bestNN,8.921638,6406.000000,59024.000000,6287,9151,83,3926
synthetic_size100M,1729,bestNN,33.663071,7630.000000,57323.000000,18269,22616,206,4903
synthetic_size100M,1730,bestNN,59.548458,5747.000000,78596.000000,16671,41976,48,10970
synthetic_size100M,1731,bestNN,28.126915,6818.000000,65547.000000,17528,23519,121,4531
synthetic_size100M,1732,bestNN,22.506050,5871.000000,36347.000000,7362,11156,93,2625
synthetic_size100M,1733,bestNN,8.891946,6570.000000,58255.000000,6755,11847,70,3509
synthetic_size100M,1734,bestNN,29.625422,18684.000000,54390.000000,26559,28141,1150,4962
synthetic_size100M,1735,bestNN,34.629486,8704.000000,59066.000000,21775,25685,277,5755
synthetic_size100M,1736,bestNN,47.140556,17757.000000,87474.000000,34487,37683,1148,9457
synthetic_size100M,1737,bestNN,51.556164,9945.000000,204365.000000,6836,16953,65,18891
synthetic_size100M,1738,bestNN,10.291563,7643.000000,104982.000000,5024,10409,66,6792
synthetic_size100M,1739,bestNN,7.559649,7388.000000,59751.000000,5859,14717,43,3124
synthetic_size100M,1740,bestNN,29.948662,6072.000000,57567.000000,8159,12460,99,5488
synthetic_size100M,1741,bestNN,21.420980,12987.000000,169043.000000,44543,202502,124,10584
synthetic_size100M,1742,bestNN,102.186569,16974.000000,212114.000000,19701,22661,1620,45306
synthetic_size100M,1743,bestNN,62.641323,7345.000000,137278.000000,8394,21098,62,20693
synthetic_size100M,1744,bestNN,35.658630,6523.000000,121646.000000,5189,19161,18,9910
synthetic_size100M,1745,bestNN,8.276006,19534.000000,52824.000000,8926,9309,977,3334
synthetic_size100M,1746,bestNN,10.597156,11660.000000,122729.000000,11482,18142,293,8018
synthetic_size100M,1747,bestNN,15.835607,6087.000000,82988.000000,12874,48501,36,5658
synthetic_size100M,1748,bestNN,13.738756,18388.000000,76829.000000,15824,17891,800,5013
synthetic_size100M,1749,bestNN,41.068268,9259.000000,228636.000000,14425,262815,28,17648
synthetic_size100M,1750,bestNN,22.903809,9682.000000,141724.000000,13615,31482,230,10920
synthetic_size100M,1751,bestNN,15.844722,1162.000000,37101.000000,1834,6254,1,2727
synthetic_size100M,1752,bestNN,22.323160,13379.000000,80864.000000,6137,9347,498,6054
synthetic_size100M,1753,bestNN,10.205018,8710.000000,104937.000000,17115,46077,105,6863
synthetic_size100M,1754,bestNN,32.530281,8427.000000,171516.000000,10999,31837,170,14229
synthetic_size100M,1755,bestNN,21.667191,4494.000000,52803.000000,4668,13667,17,4343
synthetic_size100M,1756,bestNN,56.784599,8024.000000,136130.000000,23043,90840,80,14845
synthetic_size100M,1757,bestNN,19.201633,12154.000000,92180.000000,12320,19406,291,5968
synthetic_size100M,1758,bestNN,7.626640,6125.000000,72879.000000,9760,20390,60,4885
synthetic_size100M,1759,bestNN,20.783649,5346.000000,33844.000000,9533,9651,720,3148
synthetic_size100M,1760,bestNN,12.277364,770.000000,98745.000000,873,102530,1,6383
synthetic_size100M,1761,bestNN,28.125135,7649.000000,158556.000000,8275,46387,23,11723
synthetic_size100M,1762,bestNN,14.734122,6754.000000,63645.000000,9199,15221,132,4372
synthetic_size100M,1763,bestNN,7.398144,1387.000000,57729.000000,1817,14647,1,2987
synthetic_size100M,1764,bestNN,36.865326,7176.000000,83330.000000,11648,25090,157,8470
synthetic_size100M,1765,bestNN,38.812275,8896.000000,214070.000000,9327,40440,29,16166
synthetic_size100M,1766,bestNN,69.512840,587.000000,458242.000000,968,178537,1,59472
synthetic_size100M,1767,bestNN,12.388574,604.000000,53048.000000,775,4619,1,3492
synthetic_size100M,1768,bestNN,13.068526,6598.000000,72308.000000,2410,5567,2,4664
synthetic_size100M,1769,bestNN,24.360308,8774.000000,128742.000000,27562,163100,66,8768
synthetic_size100M,1770,bestNN,12.512156,10183.000000,96430.000000,34738,92272,136,5957
synthetic_size100M,1771,bestNN,34.316174,32484.000000,45504.000000,11057,11058,3181,4609
synthetic_size100M,1772,bestNN,56.721100,10514.000000,206325.000000,31367,69530,261,22485
synthetic_size100M,1773,bestNN,20.229372,4302.000000,51031.000000,6272,11423,22,4058
synthetic_size100M,1774,bestNN,19.803171,9338.000000,138104.000000,15661,64928,128,9699
synthetic_size100M,1775,bestNN,27.374950,4372.000000,31357.000000,4156,7552,25,3141
synthetic_size100M,1776,bestNN,7.862031,6927.000000,117426.000000,3904,7869,68,7847
synthetic_size100M,1777,bestNN,47.528221,6308.000000,73393.000000,23083,51224,72,7553
synthetic_size100M,1778,bestNN,50.189926,9825.000000,253099.000000,31191,180642,67,22737
synthetic_size100M,1779,bestNN,3.366900,18558.000000,49438.000000,10898,11551,806,2819
synthetic_size100M,1780,bestNN,5.066705,6480.000000,66601.000000,5561,19991,20,3922
synthetic_size100M,1781,bestNN,32.986286,5656.000000,66400.000000,17622,58208,34,5515
synthetic_size100M,1782,bestNN,41.939045,67923.000000,382011.000000,676895,1553365,1474,24957
synthetic_size100M,1783,bestNN,11.807820,19845.000000,79296.000000,46845,50597,780,4944
synthetic_size100M,1784,bestNN,20.614855,8123.000000,50587.000000,9171,9696,129,3818
synthetic_size100M,1785,bestNN,66.277901,21116.000000,110435.000000,20117,20213,2548,16812
synthetic_size100M,1786,bestNN,19.502554,6328.000000,94118.000000,7073,36380,17,6221
synthetic_size100M,1787,bestNN,16.369225,7259.000000,114864.000000,4401,26146,8,6602
synthetic_size100M,1788,bestNN,15.671220,8585.000000,169339.000000,8093,78478,53,11228
synthetic_size100M,1789,bestNN,36.640465,12619.000000,313512.000000,32472,334166,174,22104
synthetic_size100M,1790,bestNN,17.848293,4625.000000,29795.000000,9488,14214,39,2153
synthetic_size100M,1791,bestNN,62.514317,6693.000000,112195.000000,15882,105140,16,15684
synthetic_size100M,1792,bestNN,77.446465,11433.000000,112452.000000,11239,12813,1664,30027
synthetic_size100M,1793,bestNN,4.315985,5028.000000,27147.000000,3624,5725,50,1403
synthetic_size100M,1794,bestNN,8.682807,6785.000000,93384.000000,6054,26715,50,5890
synthetic_size100M,1795,bestNN,10.451632,4698.000000,48613.000000,3702,9316,32,3230
synthetic_size100M,1796,bestNN,49.678299,617.000000,104616.000000,752,20429,1,10477
synthetic_size100M,1797,bestNN,7.288581,5769.000000,38345.000000,6775,14692,10,2293
synthetic_size100M,1798,bestNN,10.530991,21325.000000,73846.000000,17316,20141,935,4526
synthetic_size100M,1799,bestNN,61.959290,10625.000000,107295.000000,13713,28911,46,17441
synthetic_size100M,1800,bestNN,14.022684,18455.000000,66735.000000,18703,19052,802,4303
synthetic_size100M,1801,bestNN,10.717438,6791.000000,76347.000000,5706,24497,19,4544
synthetic_size100M,1802,bestNN,22.565592,7105.000000,105129.000000,10736,70481,15,7485
synthetic_size100M,1803,bestNN,3.268559,7230.000000,47390.000000,8206,13018,109,2645
synthetic_size100M,1804,bestNN,44.024532,9195.000000,201240.000000,21611,182943,81,18384
synthetic_size100M,1805,bestNN,48.255329,16796.000000,144763.000000,68338,90149,833,18900
synthetic_size100M,1806,bestNN,41.246796,7660.000000,145120.000000,9933,46635,18,14579
synthetic_size100M,1807,bestNN,13.770222,945.000000,34083.000000,1393,14325,1,2374
synthetic_size100M,1808,bestNN,10.697686,8011.000000,95209.000000,11848,25244,148,6638
synthetic_size100M,1809,bestNN,63.654503,5832.000000,95424.000000,4288,9065,29,14313
synthetic_size100M,1810,bestNN,16.162735,8108.000000,105150.000000,23388,129325,27,6570
synthetic_size100M,1811,bestNN,23.774652,6473.000000,81283.000000,4428,6927,54,6053
synthetic_size100M,1812,bestNN,36.638695,22118.000000,209294.000000,136434,302087,585,16682
synthetic_size100M,1813,bestNN,36.258102,11471.000000,80857.000000,22605,25998,491,7989
synthetic_size100M,1814,bestNN,78.708702,7827.000000,138202.000000,5190,9087,213,26294
synthetic_size100M,1815,bestNN,17.549576,11831.000000,163989.000000,20727,47075,234,10340
synthetic_size100M,1816,bestNN,30.954975,8333.000000,106647.000000,13003,37868,167,9428
synthetic_size100M,1817,bestNN,12.235874,4562.000000,22735.000000,3816,5969,28,1416
synthetic_size100M,1818,bestNN,11.927411,10037.000000,107027.000000,17449,29654,161,6420
synthetic_size100M,1819,bestNN,36.510250,7050.000000,98720.000000,8247,17982,64,10969
synthetic_size100M,1820,bestNN,89.530785,18221.000000,359669.000000,38776,55630,648,52273
synthetic_size100M,1821,bestNN,86.614281,12120.000000,275535.000000,15538,182920,53,41952
synthetic_size100M,1822,bestNN,45.367409,5482.000000,87002.000000,4049,7858,64,14727
synthetic_size100M,1823,bestNN,59.034142,11806.000000,130599.000000,52722,75277,346,16212
synthetic_size100M,1824,bestNN,46.559048,9916.000000,212846.000000,8304,22122,137,19057
synthetic_size100M,1825,bestNN,84.503067,1141.000000,422854.000000,1658,470728,1,50259
synthetic_size100M,1826,bestNN,33.190220,5055.000000,39656.000000,8261,13906,63,3997
synthetic_size100M,1827,bestNN,34.003483,672.000000,117365.000000,759,15036,1,9430
synthetic_size100M,1828,bestNN,19.875835,4198.000000,24231.000000,4672,7046,36,1831
synthetic_size100M,1829,bestNN,13.440115,9355.000000,108055.000000,18960,29907,128,7353
synthetic_size100M,1830,bestNN,25.060562,7110.000000,105838.000000,7910,17743,83,7520
synthetic_size100M,1831,bestNN,10.306987,8123.000000,59200.000000,13812,21236,106,3625
synthetic_size100M,1832,bestNN,14.468464,26971.000000,27274.000000,3299,3299,2163,2169
synthetic_size100M,1833,bestNN,11.600002,10516.000000,121725.000000,25065,78370,165,7579
synthetic_size100M,1834,bestNN,4.641174,20860.000000,38324.000000,16702,17255,932,2003
synthetic_size100M,1835,bestNN,31.843225,1250.000000,189472.000000,1669,580589,1,12129
synthetic_size100M,1836,bestNN,20.983866,7199.000000,113228.000000,10648,21310,83,8609
synthetic_size100M,1837,bestNN,28.503275,6276.000000,106624.000000,11132,23764,43,8781
synthetic_size100M,1838,bestNN,27.764284,562.000000,67232.000000,982,5427,1,7671
synthetic_size100M,1839,bestNN,23.524788,5584.000000,61420.000000,6102,27333,21,4047
synthetic_size100M,1840,bestNN,33.811802,6400.000000,70058.000000,8059,15573,34,6108
synthetic_size100M,1841,bestNN,45.332844,12121.000000,230316.000000,51084,246949,106,19735
synthetic_size100M,1842,bestNN,112.435989,17183.000000,340519.000000,17056,26613,1261,62452
synthetic_size100M,1843,bestNN,18.872967,7967.000000,132361.000000,10103,28411,21,8866
synthetic_size100M,1844,bestNN,17.528959,10093.000000,106020.000000,29282,80140,197,6770
synthetic_size100M,1845,bestNN,23.823952,12802.000000,125959.000000,25210,55962,338,10152
synthetic_size100M,1846,bestNN,63.427258,18167.000000,269595.000000,86900,343307,246,27972
synthetic_size100M,1847,bestNN,42.320595,5499.000000,38827.000000,13557,21909,26,4974
synthetic_size100M,1848,bestNN,36.721230,6375.000000,75541.000000,10598,27824,23,6517
synthetic_size100M,1849,bestNN,7.422467,7141.000000,58993.000000,5791,12152,49,3379
synthetic_size100M,1850,bestNN,9.485758,6221.000000,76810.000000,3525,23023,24,4955
synthetic_size100M,1851,bestNN,25.429720,6390.000000,122030.000000,8903,86190,12,8790
synthetic_size100M,1852,bestNN,6.886062,19968.000000,53030.000000,30982,31727,879,3170
synthetic_size100M,1853,bestNN,14.366926,18300.000000,99310.000000,56503,85592,629,6259
synthetic_size100M,1854,bestNN,14.222054,10190.000000,145227.000000,57392,356908,101,8928
synthetic_size100M,1855,bestNN,120.584419,16446.000000,364548.000000,8488,78634,31,65763
synthetic_size100M,1856,bestNN,86.239578,11426.000000,245760.000000,22857,187828,35,43216
synthetic_size100M,1857,bestNN,48.767712,29021.000000,86247.000000,60585,62846,1408,9076
synthetic_size100M,1858,bestNN,52.128757,6216.000000,97580.000000,7596,14712,59,10984
synthetic_size100M,1859,bestNN,21.630280,12480.000000,106707.000000,29556,56986,153,6231
synthetic_size100M,1860,bestNN,21.493713,35504.000000,227510.000000,171094,322154,1123,14570
synthetic_size100M,1861,bestNN,27.445133,16631.000000,47569.000000,13075,13431,1124,4814
synthetic_size100M,1862,bestNN,34.310669,5570.000000,77035.000000,3636,9343,26,6795
synthetic_size100M,1863,bestNN,80.788727,15286.000000,344984.000000,17776,58350,127,45208
synthetic_size100M,1864,bestNN,21.066212,1325.000000,123383.000000,1788,8321,1,9497
synthetic_size100M,1865,bestNN,39.221077,6175.000000,61727.000000,8537,10834,53,5897
synthetic_size100M,1866,bestNN,57.711372,12192.000000,314016.000000,23241,48332,306,30513
synthetic_size100M,1867,bestNN,8.314132,6129.000000,66960.000000,11878,39838,49,4075
synthetic_size100M,1868,bestNN,55.238010,20231.000000,157589.000000,32748,36213,1077,15876
synthetic_size100M,1869,bestNN,32.385876,7254.000000,134648.000000,9460,32126,33,11837
synthetic_size100M,1870,bestNN,8.217183,30703.000000,87189.000000,41176,42525,1572,5596
synthetic_size100M,1871,bestNN,5.232033,6682.000000,76742.000000,3956,13197,28,4226
synthetic_size100M,1872,bestNN,23.853085,4557.000000,34576.000000,9280,22518,12,2497
synthetic_size100M,1873,bestNN,10.055068,1238.000000,81687.000000,1911,29817,1,5084
synthetic_size100M,1874,bestNN,26.208521,17629.000000,246404.000000,118960,758603,307,16374
synthetic_size100M,1875,bestNN,28.366476,21898.000000,89221.000000,14783,15056,1202,6827
synthetic_size100M,1876,bestNN,31.142199,16943.000000,165738.000000,83615,173039,444,13910
synthetic_size100M,1877,bestNN,5.551029,9657.000000,70353.000000,37490,82091,122,3883
synthetic_size100M,1878,bestNN,28.751919,10334.000000,210819.000000,24052,87992,202,16723
synthetic_size100M,1879,bestNN,93.559044,13516.000000,242390.000000,17163,56879,60,47839
synthetic_size100M,1880,bestNN,43.984760,6848.000000,114686.000000,6822,14433,69,12500
synthetic_size100M,1881,bestNN,15.928575,6573.000000,64886.000000,4646,6857,63,5192
synthetic_size100M,1882,bestNN,7.132777,10113.000000,58423.000000,11434,15060,287,3606
synthetic_size100M,1883,bestNN,45.037121,19930.000000,82889.000000,9377,9634,1453,10795
synthetic_size100M,1884,bestNN,21.341627,8846.000000,92381.000000,8245,18230,124,5955
synthetic_size100M,1885,bestNN,25.983511,7799.000000,158245.000000,8665,20031,30,11494
synthetic_size100M,1886,bestNN,40.667576,33457.000000,263767.000000,104261,192908,1538,20426
synthetic_size100M,1887,bestNN,5.364168,5526.000000,43858.000000,5426,13095,38,2632
synthetic_size100M,1888,bestNN,51.332100,1010.000000,336574.000000,1491,47081,1,32115
synthetic_size100M,1889,bestNN,43.674305,9371.000000,199739.000000,9314,24374,39,17174
synthetic_size100M,1890,bestNN,17.848076,17831.000000,151013.000000,31660,62190,705,10149
synthetic_size100M,1891,bestNN,31.909512,1145.000000,94497.000000,1718,32852,1,7194
synthetic_size100M,1892,bestNN,51.428177,12747.000000,217145.000000,71617,255110,235,20192
synthetic_size100M,1893,bestNN,6.561236,5653.000000,49693.000000,6259,10128,22,3097
synthetic_size100M,1894,bestNN,53.316551,7780.000000,139970.000000,10817,54924,46,14863
synthetic_size100M,1895,bestNN,7.830265,6309.000000,68360.000000,4887,11697,22,4216
synthetic_size100M,1896,bestNN,15.548429,7897.000000,125589.000000,19382,54787,46,8241
synthetic_size100M,1897,bestNN,37.085323,11918.000000,65309.000000,16146,18138,522,7151
synthetic_size100M,1898,bestNN,4.607000,21532.000000,52324.000000,12575,13210,677,2492
synthetic_size100M,1899,bestNN,14.503459,4991.000000,41958.000000,4547,6476,36,2847
synthetic_size100M,1900,bestNN,12.166171,17974.000000,42247.000000,22382,22482,763,2497
synthetic_size100M,1901,bestNN,22.937740,5658.000000,42861.000000,5632,18082,17,2641
synthetic_size100M,1902,bestNN,44.445740,7798.000000,64902.000000,18983,26138,182,5643
synthetic_size100M,1903,bestNN,21.262589,9903.000000,144642.000000,5766,6627,109,10080
synthetic_size100M,1904,bestNN,6.868523,7127.000000,70098.000000,9779,26327,20,3866
synthetic_size100M,1905,bestNN,50.055756,12500.000000,215078.000000,49319,224836,54,20190
synthetic_size100M,1906,bestNN,37.687702,22002.000000,290527.000000,72230,101524,936,24096
synthetic_size100M,1907,bestNN,28.681417,11071.000000,96123.000000,7935,9198,734,9701
synthetic_size100M,1908,bestNN,27.931341,8091.000000,214974.000000,6990,36512,32,16969
synthetic_size100M,1909,bestNN,9.799860,4860.000000,37553.000000,4799,8074,33,2393
synthetic_size100M,1910,bestNN,30.921652,1032.000000,138161.000000,1366,40166,1,11595
synthetic_size100M,1911,bestNN,25.570210,40152.000000,44645.000000,12456,12458,3517,3736
synthetic_size100M,1912,bestNN,54.537041,5679.000000,94569.000000,14606,55171,35,11417
synthetic_size100M,1913,bestNN,49.459423,6285.000000,81807.000000,14205,23659,88,12544
synthetic_size100M,1914,bestNN,10.568000,5810.000000,36022.000000,6701,10070,43,2253
synthetic_size100M,1915,bestNN,33.723385,14720.000000,169675.000000,29398,42213,529,13314
synthetic_size100M,1916,bestNN,42.308964,12758.000000,38749.000000,7907,8222,911,4107
synthetic_size100M,1917,bestNN,62.163452,21362.000000,136606.000000,49105,56021,1442,20221
synthetic_size100M,1918,bestNN,50.288914,7713.000000,175060.000000,12749,96508,60,18774
synthetic_size100M,1919,bestNN,44.765923,1353.000000,104291.000000,1911,15809,1,13721
synthetic_size100M,1920,bestNN,46.922691,5952.000000,74646.000000,12812,25383,44,7479
synthetic_size100M,1921,bestNN,8.158737,6407.000000,70860.000000,8209,23321,29,4238
synthetic_size100M,1922,bestNN,65.777000,10066.000000,260552.000000,5432,43922,25,28633
synthetic_size100M,1923,bestNN,14.927070,6472.000000,64432.000000,9783,23263,35,4043
synthetic_size100M,1924,bestNN,36.235832,9784.000000,211446.000000,17120,155313,23,14135
synthetic_size100M,1925,bestNN,32.644024,526.000000,135990.000000,668,63049,1,10152
synthetic_size100M,1926,bestNN,22.523684,4827.000000,38266.000000,3358,5471,17,2529
synthetic_size100M,1927,bestNN,8.132509,7697.000000,57883.000000,7211,9883,125,3508
synthetic_size100M,1928,bestNN,17.939936,7212.000000,74094.000000,3548,6022,59,4240
synthetic_size100M,1929,bestNN,38.928688,7792.000000,180110.000000,14845,247126,32,14789
synthetic_size100M,1930,bestNN,7.134687,30274.000000,87074.000000,11615,13150,1297,5173
synthetic_size100M,1931,bestNN,51.979542,1026.000000,213493.000000,1537,30040,1,21439
synthetic_size100M,1932,bestNN,29.102154,1157.000000,57853.000000,1915,7521,1,5533
synthetic_size100M,1933,bestNN,37.551964,5536.000000,48590.000000,8719,11967,126,5398
synthetic_size100M,1934,bestNN,23.658953,855.000000,26253.000000,1138,4282,1,1873
synthetic_size100M,1935,bestNN,14.590413,5339.000000,26294.000000,4874,7931,25,1826
synthetic_size100M,1936,bestNN,9.950915,7386.000000,59669.000000,5796,8323,122,4384
synthetic_size100M,1937,bestNN,58.139175,23675.000000,97257.000000,12756,12818,2441,13530
synthetic_size100M,1938,bestNN,12.579201,6729.000000,92260.000000,7283,38081,19,5935
synthetic_size100M,1939,bestNN,42.483463,21724.000000,218625.000000,68458,129909,827,17315
synthetic_size100M,1940,bestNN,10.240355,18161.000000,70194.000000,34572,37385,826,4442
synthetic_size100M,1941,bestNN,15.325710,6456.000000,50061.000000,7312,15418,26,2649
synthetic_size100M,1942,bestNN,40.216877,1096.000000,52758.000000,1642,5194,1,5835
synthetic_size100M,1943,bestNN,71.909447,13023.000000,121771.000000,15954,18996,409,21693
synthetic_size100M,1944,bestNN,9.671084,6558.000000,52998.000000,10104,32209,31,3021
synthetic_size100M,1945,bestNN,42.633873,6103.000000,126387.000000,6016,18242,30,11516
synthetic_size100M,1946,bestNN,17.006308,9427.000000,141251.000000,16200,49332,101,9543
synthetic_size100M,1947,bestNN,11.000568,785.000000,128088.000000,971,22555,1,8731
synthetic_size100M,1948,bestNN,16.917063,4825.000000,33950.000000,5619,7923,30,2297
synthetic_size100M,1949,bestNN,22.086618,6155.000000,39901.000000,18475,24693,74,2646
synthetic_size100M,1950,bestNN,13.698977,6315.000000,76009.000000,7604,37343,27,4650
synthetic_size100M,1951,bestNN,13.730573,7042.000000,91092.000000,12843,68034,43,5435
synthetic_size100M,1952,bestNN,36.841305,8191.000000,156962.000000,11112,72890,34,12982
synthetic_size100M,1953,bestNN,15.210998,25813.000000,63405.000000,19924,20104,1373,4124
synthetic_size100M,1954,bestNN,67.739525,43431.000000,397404.000000,402168,1258971,822,41416
synthetic_size100M,1955,bestNN,11.767539,7783.000000,65367.000000,4635,8730,71,3901
synthetic_size100M,1956,bestNN,30.913221,7473.000000,134097.000000,10401,17480,36,10426
synthetic_size100M,1957,bestNN,20.870024,1042.000000,143832.000000,1525,94522,1,10836
synthetic_size100M,1958,bestNN,99.167130,1046.000000,483161.000000,1840,427609,1,65195
synthetic_size100M,1959,bestNN,52.581310,6667.000000,131699.000000,8726,87654,13,20361
synthetic_size100M,1960,bestNN,37.579414,6696.000000,123739.000000,10345,24597,48,10248
synthetic_size100M,1961,bestNN,33.609665,6654.000000,122562.000000,12553,51591,33,10889
synthetic_size100M,1962,bestNN,17.484577,8787.000000,74895.000000,19900,33274,196,5299
synthetic_size100M,1963,bestNN,79.190277,831.000000,141587.000000,1313,19848,1,25926
synthetic_size100M,1964,bestNN,22.081108,10106.000000,63789.000000,14348,18155,505,5714
synthetic_size100M,1965,bestNN,32.175037,5071.000000,53372.000000,6248,15380,33,4653
synthetic_size100M,1966,bestNN,53.306202,7952.000000,158953.000000,12338,24155,136,23381
synthetic_size100M,1967,bestNN,6.728181,6988.000000,102388.000000,7673,23345,26,6434
synthetic_size100M,1968,bestNN,25.936630,18957.000000,149828.000000,24484,29701,830,11515
synthetic_size100M,1969,bestNN,63.689686,21236.000000,157730.000000,56643,63205,1146,20771
synthetic_size100M,1970,bestNN,11.352427,14081.000000,136153.000000,91652,218481,208,8019
synthetic_size100M,1971,bestNN,46.441040,6162.000000,70164.000000,5661,8822,72,8772
synthetic_size100M,1972,bestNN,17.028776,8967.000000,215603.000000,3495,17182,52,14530
synthetic_size100M,1973,bestNN,18.462284,1213.000000,55615.000000,1685,11760,1,3231
synthetic_size100M,1974,bestNN,25.760971,5172.000000,57244.000000,5092,9659,36,4855
synthetic_size100M,1975,bestNN,59.586403,12032.000000,361462.000000,10037,163735,28,34203
synthetic_size100M,1976,bestNN,47.797466,6640.000000,97707.000000,7322,10634,98,10951
synthetic_size100M,1977,bestNN,13.746160,5548.000000,37622.000000,8562,11109,76,2840
synthetic_size100M,1978,bestNN,6.938575,7302.000000,55677.000000,12353,24421,85,3036
synthetic_size100M,1979,bestNN,28.974239,8297.000000,193128.000000,3978,61031,27,14648
synthetic_size100M,1980,bestNN,10.448691,7000.000000,63267.000000,10295,14498,136,4176
synthetic_size100M,1981,bestNN,25.094458,13839.000000,195267.000000,43299,90016,341,14608
synthetic_size100M,1982,bestNN,48.867992,8340.000000,189636.000000,22657,142303,62,18792
synthetic_size100M,1983,bestNN,27.805153,1439.000000,51484.000000,1910,26325,1,4439
synthetic_size100M,1984,bestNN,3.172427,5916.000000,41018.000000,5914,12807,29,2165
synthetic_size100M,1985,bestNN,11.619275,8194.000000,95093.000000,7688,17114,75,6309
synthetic_size100M,1986,bestNN,36.115746,8272.000000,134307.000000,9148,17180,32,10473
synthetic_size100M,1987,bestNN,22.030352,4757.000000,43391.000000,4107,6819,29,3761
synthetic_size100M,1988,bestNN,14.799905,26584.000000,120551.000000,104680,133663,1136,8024
synthetic_size100M,1989,bestNN,4.244044,10514.000000,42637.000000,17986,23380,302,2408
synthetic_size100M,1990,bestNN,25.670391,8484.000000,135180.000000,9466,16387,44,9821
synthetic_size100M,1991,bestNN,24.144463,5400.000000,79606.000000,7486,28710,36,6513
synthetic_size100M,1992,bestNN,93.857971,18557.000000,476061.000000,16153,236166,9,69882
synthetic_size100M,1993,bestNN,28.487753,963.000000,66558.000000,1808,14149,1,7981
synthetic_size100M,1994,bestNN,11.071967,1289.000000,102078.000000,1894,15508,1,6252
synthetic_size100M,1995,bestNN,67.543404,12943.000000,209905.000000,20685,36272,266,28594
synthetic_size100M,1996,bestNN,18.137407,7928.000000,97885.000000,6763,11113,38,6072
synthetic_size100M,1997,bestNN,30.678719,5650.000000,37576.000000,4739,11464,58,2416
synthetic_size100M,1998,bestNN,10.552645,7099.000000,87731.000000,11207,92946,8,5393
synthetic_size100M,1999,bestNN,6.686069,6493.000000,66261.000000,10583,44826,43,3740
